6
t = 3035.000000   , Parent I = 1   , Child I = 0   , TDC = 0.024016      
C       -0.483728      -0.021931      -1.138416
C        0.206566       0.253000       1.343326
H        2.901811      -0.602294      -0.184750
H       -0.684484       1.665031      -2.481744
H        0.071883      -2.051553      -2.202319
H        1.010801      -1.762413       2.429031
