               t               1
   3050.00000000      0.00000000
   3055.00000000      0.00000000
   3060.00000000     -0.00798972
   3065.00000000     -0.01106699
   3070.00000000     -0.01538632
   3075.00000000     -0.02086913
   3080.00000000     -0.02613156
   3085.00000000     -0.02816848
   3090.00000000     -0.02537141
   3095.00000000     -0.01993580
   3100.00000000     -0.01464683
   3105.00000000     -0.01055420
   3110.00000000      0.00000000
   3130.00000000      0.00000000
   3150.00000000      0.00000000
   3170.00000000      0.00000000
   3190.00000000      0.00000000
   3210.00000000      0.00000000
   3230.00000000      0.00000000
   3250.00000000      0.00000000
   3270.00000000      0.00000000
   3290.00000000      0.00000000
   3310.00000000      0.00000000
   3330.00000000      0.00000000
   3350.00000000      0.00000000
   3370.00000000      0.00000000
   3390.00000000      0.00000000
   3410.00000000      0.00000000
   3430.00000000      0.00000000
   3450.00000000      0.00000000
   3470.00000000      0.00000000
   3490.00000000      0.00000000
   3510.00000000      0.00000000
   3530.00000000      0.00000000
   3550.00000000      0.00000000
   3570.00000000      0.00000000
   3590.00000000      0.00000000
   3610.00000000      0.00000000
   3630.00000000      0.00000000
   3650.00000000      0.00000000
   3670.00000000      0.00000000
   3675.00000000      0.00000000
   3680.00000000      0.00000000
   3685.00000000      0.00000000
   3690.00000000      0.00000000
   3695.00000000      0.00000000
   3700.00000000      0.00000000
   3705.00000000      0.00000000
   3710.00000000      0.00000000
   3715.00000000      0.00000000
   3735.00000000      0.00000000
   3755.00000000      0.00000000
   3775.00000000      0.00000000
   3795.00000000      0.00000000
   3815.00000000      0.00000000
   3820.00000000      0.00000000
   3825.00000000      0.00000000
   3830.00000000      0.00000000
   3835.00000000      0.00000000
   3840.00000000      0.00000000
   3845.00000000      0.00000000
   3850.00000000      0.00000000
   3855.00000000      0.00000000
   3860.00000000      0.00000000
   3865.00000000      0.00000000
   3870.00000000      0.00000000
   3875.00000000      0.00000000
   3880.00000000      0.00000000
   3885.00000000      0.00000000
   3905.00000000      0.00000000
   3925.00000000      0.00000000
   3945.00000000      0.00000000
   3965.00000000      0.00000000
   3985.00000000      0.00000000
   4005.00000000      0.00000000
