               t            V-V0            T-T0            E-E0
   3300.00000000      0.00010286     -0.00010472     -0.00000186
   3305.00000000      0.00020546     -0.00020881     -0.00000335
   3310.00000000      0.00031036     -0.00031426     -0.00000390
   3315.00000000      0.00041048     -0.00041421     -0.00000373
   3320.00000000      0.00049096     -0.00049389     -0.00000293
   3325.00000000      0.00053019     -0.00053183     -0.00000164
   3330.00000000      0.00050115     -0.00050110      0.00000005
   3335.00000000      0.00037274     -0.00037067      0.00000207
   3340.00000000      0.00011089     -0.00010652      0.00000437
   3345.00000000     -0.00032076      0.00032773      0.00000697
   3350.00000000     -0.00096077      0.00097069      0.00000992
   3355.00000000     -0.00185120      0.00186308      0.00001188
   3360.00000000     -0.00303067      0.00304536      0.00001469
   3365.00000000     -0.00453175      0.00454813      0.00001638
   3370.00000000     -0.00636134      0.00637514      0.00001381
   3375.00000000     -0.00848573      0.00849428      0.00000854
   3380.00000000     -0.01084339      0.01084573      0.00000234
   3385.00000000     -0.01335964      0.01335530     -0.00000434
   3390.00000000     -0.01595195      0.01594025     -0.00001170
   3410.00000000     -0.02500625      0.02431578     -0.00069047
   3430.00000000     -0.02481201      0.02309392     -0.00171809
   3450.00000000     -0.00474866      0.00277896     -0.00196970
   3470.00000000      0.02973115     -0.02888458      0.00084657
   3490.00000000      0.03452408     -0.03164627      0.00287781
   3510.00000000     -0.01522707      0.01444435     -0.00078272
   3530.00000000     -0.07184655      0.06898992     -0.00285663
   3550.00000000     -0.09888109      0.09678018     -0.00210091
   3570.00000000     -0.09983006      0.09891965     -0.00091042
   3590.00000000     -0.08913907      0.08904178     -0.00009729
   3610.00000000     -0.07767488      0.07789508      0.00022020
   3630.00000000     -0.06966357      0.06979256      0.00012899
   3650.00000000     -0.06362091      0.06352149     -0.00009942
   3670.00000000     -0.05605268      0.05583039     -0.00022229
   3690.00000000     -0.04488168      0.04469499     -0.00018669
   3710.00000000     -0.03032099      0.03026026     -0.00006073
   3730.00000000     -0.01397503      0.01405096      0.00007594
   3750.00000000      0.00229107     -0.00210735      0.00018371
   3770.00000000      0.01698339     -0.01673139      0.00025200
   3790.00000000      0.02915030     -0.02886280      0.00028750
   3810.00000000      0.03830210     -0.03800147      0.00030063
   3830.00000000      0.04426809     -0.04397048      0.00029761
   3850.00000000      0.04709879     -0.04681431      0.00028448
   3870.00000000      0.04702185     -0.04676687      0.00025499
   3890.00000000      0.04448882     -0.04428305      0.00020577
   3910.00000000      0.04022184     -0.04008458      0.00013726
   3930.00000000      0.03518543     -0.03512094      0.00006449
   3950.00000000      0.03033499     -0.03030971      0.00002528
   3970.00000000      0.02606553     -0.02600225      0.00006328
   3990.00000000      0.02165978     -0.02149304      0.00016674
   4010.00000000      0.01558501     -0.01536398      0.00022103
