6
t = 3365.000000   , Parent I = 1   , Child I = 0   , TDC = -0.023776     
C       -0.121149       0.084911      -0.728725
C        0.104522      -0.114885       0.614968
H        0.362259       0.672184       1.612122
H        0.475055       0.279038      -1.785401
H       -1.208040       0.314405       0.532037
H        0.568644      -0.908696       0.995735
