               t              S0              S1
     20.00000000      0.46411429      0.84288726
     40.00000000      0.46473951      0.84262086
     60.00000000      0.46060776      0.83715593
     80.00000000      0.45519270      0.83002944
    100.00000000      0.45165623      0.82445100
    120.00000000      0.45100786      0.82145819
    140.00000000      0.45282192      0.82064341
    160.00000000      0.45638417      0.82131239
    180.00000000      0.46110188      0.82289959
    200.00000000      0.46641547      0.82487942
    220.00000000      0.47169518      0.82666063
    240.00000000      0.47629263      0.82763567
    260.00000000      0.47969070      0.82732809
    280.00000000      0.48165866      0.82554432
    300.00000000      0.48235948      0.82247760
    320.00000000      0.48239706      0.81875312
    340.00000000      0.48280246      0.81541324
    360.00000000      0.48490389      0.81378556
    380.00000000      0.48991252      0.81506326
    400.00000000      0.49805267      0.81942616
    420.00000000      0.50756634      0.82503880
    440.00000000      0.51494295      0.82828572
    460.00000000      0.51743505      0.82630637
    480.00000000      0.51568533      0.81963064
    500.00000000      0.51297375      0.81140774
    520.00000000      0.51223382      0.80439798
    540.00000000      0.51453690      0.79945784
    560.00000000      0.51958758      0.79606833
    580.00000000      0.52662212      0.79328091
    600.00000000      0.53486381      0.79021285
    620.00000000      0.54365784      0.78620596
    640.00000000      0.55254371      0.78089880
    660.00000000      0.56131070      0.77426761
    680.00000000      0.56997886      0.76659113
    700.00000000      0.57868296      0.75834279
    720.00000000      0.58750230      0.75006612
    740.00000000      0.59627227      0.74229708
    760.00000000      0.60437323      0.73555925
    780.00000000      0.61054333      0.73052892
    800.00000000      0.61313764      0.72797590
    820.00000000      0.61135773      0.72809719
    840.00000000      0.60614452      0.73125963
    860.00000000      0.59927510      0.73776123
    880.00000000      0.59217988      0.74759280
    900.00000000      0.58559905      0.76037228
    920.00000000      0.57959435      0.77524351
    940.00000000      0.57353195      0.79072300
    960.00000000      0.56612618      0.80466020
    980.00000000      0.55592031      0.81467538
   1000.00000000      0.54229025      0.81915608
   1020.00000000      0.52622338      0.81811094
   1040.00000000      0.51001315      0.81306352
   1060.00000000      0.49612071      0.80614650
   1080.00000000      0.48620669      0.79921150
   1100.00000000      0.48085524      0.79342164
   1120.00000000      0.47980574      0.78926746
   1140.00000000      0.48232693      0.78676778
   1160.00000000      0.48751866      0.78567564
   1180.00000000      0.49448685      0.78561516
   1200.00000000      0.50241666      0.78615088
   1220.00000000      0.51059621      0.78682670
   1240.00000000      0.51843967      0.78721282
   1260.00000000      0.52553329      0.78697683
   1280.00000000      0.53169738      0.78596704
   1300.00000000      0.53703537      0.78427719
   1320.00000000      0.54192827      0.78225134
   1340.00000000      0.54692600      0.78038057
   1360.00000000      0.55250002      0.77905784
   1380.00000000      0.55869706      0.77824253
   1400.00000000      0.56488609      0.77729103
   1420.00000000      0.56989467      0.77535140
   1440.00000000      0.57262539      0.77220575
   1460.00000000      0.57277328      0.76868496
   1480.00000000      0.57100927      0.76622790
   1500.00000000      0.56845585      0.76601658
   1520.00000000      0.56596426      0.76832504
   1540.00000000      0.56373236      0.77252666
   1560.00000000      0.56138996      0.77753288
   1580.00000000      0.55836028      0.78228188
   1600.00000000      0.55421267      0.78604961
   1620.00000000      0.54880742      0.78853029
   1640.00000000      0.54223218      0.78972533
   1660.00000000      0.53467601      0.78977696
   1680.00000000      0.52637321      0.78887250
   1700.00000000      0.51764222      0.78724733
   1720.00000000      0.50896592      0.78524125
   1740.00000000      0.50104985      0.78334272
   1760.00000000      0.49480982      0.78217652
   1780.00000000      0.49126100      0.78239738
   1800.00000000      0.49129723      0.78447742
   1820.00000000      0.49539310      0.78842428
   1840.00000000      0.50333963      0.79355213
   1860.00000000      0.51419325      0.79849414
   1880.00000000      0.52656132      0.80157210
   1900.00000000      0.53912566      0.80140622
   1920.00000000      0.55108795      0.79741924
   1940.00000000      0.56228181      0.78996168
   1960.00000000      0.57297437      0.78007475
   1980.00000000      0.58355940      0.76909872
   2000.00000000      0.59428378      0.75828196
   2020.00000000      0.60502363      0.74839339
   2040.00000000      0.61507190      0.73935075
   2060.00000000      0.62293278      0.73091344
   2080.00000000      0.62643194      0.72579863
   2100.00000000      0.62459239      0.72750157
   2120.00000000      0.61943240      0.73499011
   2140.00000000      0.61342280      0.74528539
   2160.00000000      0.60751238      0.75626396
   2180.00000000      0.60157411      0.76665261
   2200.00000000      0.59515836      0.77564867
   2220.00000000      0.58792027      0.78280005
   2240.00000000      0.57980170      0.78798680
   2260.00000000      0.57105823      0.79138624
   2280.00000000      0.56217223      0.79338154
   2300.00000000      0.55369421      0.79441671
   2320.00000000      0.54610109      0.79488619
   2340.00000000      0.53979722      0.79514834
   2360.00000000      0.53529149      0.79571170
   2380.00000000      0.53334834      0.79735977
   2400.00000000      0.53475140      0.80088942
   2420.00000000      0.53955086      0.80632316
   2440.00000000      0.54631650      0.81214496
   2460.00000000      0.55248031      0.81565685
   2480.00000000      0.55616197      0.81484696
   2500.00000000      0.55790639      0.81016808
   2520.00000000      0.56032388      0.80418676
   2540.00000000      0.56605358      0.79952823
   2560.00000000      0.57620216      0.79728390
   2580.00000000      0.59024231      0.79693433
   2600.00000000      0.60676861      0.79710107
   2620.00000000      0.62424927      0.79632825
   2640.00000000      0.64144965      0.79350817
   2660.00000000      0.65756892      0.78800218
   2680.00000000      0.67222172      0.77961398
   2700.00000000      0.68537181      0.76850308
   2720.00000000      0.69723420      0.75514870
   2740.00000000      0.70804864      0.74046055
   2745.00000000      0.71053121      0.73681016
   2750.00000000      0.71281152      0.73332552
   2755.00000000      0.71466669      0.73024976
   2760.00000000      0.71556064      0.72815775
   2765.00000000      0.71484959      0.72759118
   2770.00000000      0.71261988      0.72851078
   2775.00000000      0.70963775      0.73009866
   2780.00000000      0.70637838      0.73188231
   2785.00000000      0.70304933      0.73367147
   2805.00000000      0.69040974      0.74002990
   2825.00000000      0.68026864      0.74537563
   2845.00000000      0.67352708      0.75064572
   2865.00000000      0.67045826      0.75641874
   2885.00000000      0.67063276      0.76240528
   2905.00000000      0.67291844      0.76739842
   2925.00000000      0.67576594      0.76967460
   2945.00000000      0.67777408      0.76779810
   2965.00000000      0.67843476      0.76157973
   2985.00000000      0.67859493      0.75257473
   3005.00000000      0.68001146      0.74337933
   3025.00000000      0.68421354      0.73608878
   3045.00000000      0.69164228      0.73139283
   3050.00000000      0.69391373      0.73058865
   3055.00000000      0.69629307      0.72993115
   3060.00000000      0.69873102      0.72943458
   3065.00000000      0.70118856      0.72924742
   3070.00000000      0.70348863      0.72907189
   3075.00000000      0.70559595      0.72934530
   3080.00000000      0.70734331      0.73005575
   3085.00000000      0.70860588      0.73129812
   3090.00000000      0.70932127      0.73310719
   3095.00000000      0.70951185      0.73543238
   3100.00000000      0.70925769      0.73816172
   3105.00000000      0.70865120      0.74116623
   3110.00000000      0.70776914      0.74432888
   3130.00000000      0.70227842      0.75694331
   3150.00000000      0.69451234      0.76721137
   3170.00000000      0.68506321      0.77390531
   3190.00000000      0.67469587      0.77718453
   3210.00000000      0.66426325      0.77781272
   3230.00000000      0.65445933      0.77661202
   3250.00000000      0.64573495      0.77422986
   3270.00000000      0.63827527      0.77107307
   3290.00000000      0.63189986      0.76722067
   3310.00000000      0.62596494      0.76234672
   3330.00000000      0.61958274      0.75593419
   3350.00000000      0.61234625      0.74795162
   3370.00000000      0.60506642      0.73950986
   3390.00000000      0.59960913      0.73262228
   3410.00000000      0.59778215      0.72907479
   3430.00000000      0.60035893      0.72947776
   3450.00000000      0.60704195      0.73330800
   3470.00000000      0.61706480      0.73959758
   3490.00000000      0.62969015      0.74750579
   3510.00000000      0.64429069      0.75641981
   3530.00000000      0.66018532      0.76572615
   3550.00000000      0.67650617      0.77457853
   3570.00000000      0.69223343      0.78188326
   3590.00000000      0.70639191      0.78649677
   3610.00000000      0.71830744      0.78749126
   3630.00000000      0.72778702      0.78435081
   3650.00000000      0.73513467      0.77704632
   3670.00000000      0.74101240      0.76605457
   3675.00000000      0.74234477      0.76283889
   3680.00000000      0.74363376      0.75948128
   3685.00000000      0.74486208      0.75602703
   3690.00000000      0.74592044      0.75266051
   3695.00000000      0.74611363      0.74988941
   3700.00000000      0.74363913      0.74955370
   3705.00000000      0.73999655      0.75008031
   3710.00000000      0.73619368      0.75052387
   3715.00000000      0.73241062      0.75075545
   3735.00000000      0.71836802      0.74948396
   3755.00000000      0.70754606      0.74585049
   3775.00000000      0.70134087      0.74159556
   3795.00000000      0.70036811      0.73789629
   3815.00000000      0.70376882      0.73491339
   3820.00000000      0.70505704      0.73426686
   3825.00000000      0.70642442      0.73366714
   3830.00000000      0.70781169      0.73314259
   3835.00000000      0.70908333      0.73279047
   3840.00000000      0.71040258      0.73248720
   3845.00000000      0.71148395      0.73246564
   3850.00000000      0.71235690      0.73272096
   3855.00000000      0.71300177      0.73328660
   3860.00000000      0.71343426      0.73416392
   3865.00000000      0.71370028      0.73532322
   3870.00000000      0.71386500      0.73671511
   3875.00000000      0.71399580      0.73828543
   3880.00000000      0.71415252      0.73998458
   3885.00000000      0.71438353      0.74177264
   3905.00000000      0.71669601      0.74933575
   3925.00000000      0.72173851      0.75680497
   3945.00000000      0.72933033      0.76347639
   3965.00000000      0.73863725      0.76868786
   3985.00000000      0.74861386      0.77180690
   4005.00000000      0.75830594      0.77235760
