               t            V-V0            T-T0            E-E0
   2645.00000000      0.00572361     -0.00571414      0.00000948
   2650.00000000      0.01134618     -0.01132771      0.00001847
   2655.00000000      0.01674576     -0.01671728      0.00002848
   2660.00000000      0.02178360     -0.02173563      0.00004797
   2665.00000000      0.02616596     -0.02603562      0.00013033
   2670.00000000      0.02869529     -0.02832785      0.00036744
   2675.00000000      0.02800999     -0.02791736      0.00009263
   2680.00000000      0.02614848     -0.02612449      0.00002399
   2685.00000000      0.02416895     -0.02415938      0.00000957
   2705.00000000      0.01770994     -0.01778508     -0.00007514
   2725.00000000      0.01441271     -0.01445473     -0.00004202
   2745.00000000      0.01410034     -0.01409267      0.00000767
   2765.00000000      0.01620183     -0.01613360      0.00006823
   2785.00000000      0.01995587     -0.01982755      0.00012832
   2805.00000000      0.02457433     -0.02439832      0.00017601
   2825.00000000      0.02941151     -0.02920690      0.00020460
   2845.00000000      0.03405540     -0.03383913      0.00021626
   2850.00000000      0.03515828     -0.03494181      0.00021647
   2855.00000000      0.03623426     -0.03601777      0.00021648
   2860.00000000      0.03728307     -0.03706646      0.00021661
   2865.00000000      0.03831307     -0.03808898      0.00022408
   2870.00000000      0.03929970     -0.03908533      0.00021438
   2875.00000000      0.04027049     -0.04005631      0.00021418
   2880.00000000      0.04121956     -0.04100567      0.00021389
   2885.00000000      0.04215078     -0.04193727      0.00021350
   2890.00000000      0.04306923     -0.04285622      0.00021301
   2895.00000000      0.04398139     -0.04376898      0.00021241
   2900.00000000      0.04489518     -0.04468348      0.00021169
   2905.00000000      0.04582008     -0.04560923      0.00021085
   2910.00000000      0.04676721     -0.04655732      0.00020989
   2915.00000000      0.04774919     -0.04754038      0.00020881
   2935.00000000      0.05233325     -0.05220626      0.00012698
   2955.00000000      0.05875800     -0.05869162      0.00006638
   2975.00000000      0.06746052     -0.06732969      0.00013083
   2995.00000000      0.07683437     -0.07642745      0.00040692
   3015.00000000      0.08231323     -0.08155777      0.00075546
   3035.00000000      0.07874714     -0.07794740      0.00079974
   3055.00000000      0.06556551     -0.06513446      0.00043105
   3075.00000000      0.04809334     -0.04808479      0.00000855
   3095.00000000      0.03274834     -0.03292542     -0.00017708
   3115.00000000      0.02281629     -0.02296536     -0.00014907
   3135.00000000      0.01841232     -0.01845116     -0.00003883
   3155.00000000      0.01823611     -0.01816673      0.00006938
   3175.00000000      0.02084837     -0.02069897      0.00014939
   3195.00000000      0.02512925     -0.02492441      0.00020484
   3215.00000000      0.03027216     -0.03002332      0.00024883
   3235.00000000      0.03561118     -0.03531661      0.00029458
   3255.00000000      0.04044248     -0.04009403      0.00034845
   3275.00000000      0.04394882     -0.04354443      0.00040439
   3295.00000000      0.04530849     -0.04486504      0.00044345
   3315.00000000      0.04398380     -0.04353963      0.00044417
   3335.00000000      0.04003067     -0.03963077      0.00039990
   3355.00000000      0.03418728     -0.03386044      0.00032684
   3375.00000000      0.02763289     -0.02737857      0.00025432
   3395.00000000      0.02155103     -0.02134189      0.00020914
   3415.00000000      0.01671966     -0.01651236      0.00020730
   3435.00000000      0.01326087     -0.01301006      0.00025081
   3455.00000000      0.01060978     -0.01028735      0.00032243
   3475.00000000      0.00776614     -0.00737912      0.00038701
   3495.00000000      0.00378987     -0.00337890      0.00041097
   3515.00000000     -0.00173665      0.00212413      0.00038748
   3535.00000000     -0.00861280      0.00894989      0.00033708
   3555.00000000     -0.01629060      0.01657326      0.00028267
   3575.00000000     -0.02418208      0.02441282      0.00023074
   3595.00000000     -0.03175012      0.03192715      0.00017703
   3615.00000000     -0.03844665      0.03857279      0.00012614
   3635.00000000     -0.04376971      0.04387713      0.00010742
   3655.00000000     -0.04764383      0.04780256      0.00015873
   3675.00000000     -0.05086988      0.05113261      0.00026273
   3695.00000000     -0.05483958      0.05515545      0.00031588
   3715.00000000     -0.06022172      0.06046166      0.00023994
   3735.00000000     -0.06605912      0.06618367      0.00012456
   3755.00000000     -0.07095775      0.07110258      0.00014483
   3775.00000000     -0.07522264      0.07551162      0.00028898
   3780.00000000     -0.07641404      0.07670430      0.00029026
   3785.00000000     -0.07770371      0.07799454      0.00029083
   3790.00000000     -0.07909944      0.07938977      0.00029032
   3795.00000000     -0.08055401      0.08088049      0.00032647
   3800.00000000     -0.08216495      0.08244639      0.00028144
   3805.00000000     -0.08377359      0.08405165      0.00027806
   3810.00000000     -0.08536991      0.08564372      0.00027382
   3815.00000000     -0.08689421      0.08716348      0.00026927
   3820.00000000     -0.08828300      0.08854742      0.00026441
   3825.00000000     -0.08947213      0.08973236      0.00026022
   3830.00000000     -0.09040318      0.09065983      0.00025666
   3835.00000000     -0.09102584      0.09127973      0.00025389
   3840.00000000     -0.09130094      0.09155296      0.00025202
   3845.00000000     -0.09120192      0.09145300      0.00025108
   3850.00000000     -0.09071535      0.09096636      0.00025102
   3855.00000000     -0.08984044      0.09009219      0.00025175
   3875.00000000     -0.08271107      0.08310011      0.00038904
   3880.00000000     -0.08020311      0.08059557      0.00039246
   3885.00000000     -0.07748042      0.07787564      0.00039522
   3890.00000000     -0.07458275      0.07498065      0.00039790
   3895.00000000     -0.07145401      0.07194608      0.00049207
   3900.00000000     -0.06841783      0.06881301      0.00039518
   3905.00000000     -0.06522167      0.06561894      0.00039727
   3910.00000000     -0.06199131      0.06239038      0.00039907
   3915.00000000     -0.05875306      0.05915366      0.00040060
   3920.00000000     -0.05552915      0.05593099      0.00040185
   3925.00000000     -0.05233771      0.05274055      0.00040284
   3945.00000000     -0.04010909      0.04054174      0.00043265
   3965.00000000     -0.02901957      0.02945545      0.00043588
   3985.00000000     -0.01915103      0.01959245      0.00044142
   4005.00000000     -0.01060152      0.01106185      0.00046033
