\relax 
\@writefile{lof}{\contentsline {figure}{\numberline {1}{\ignorespaces H$_2^+$ modeled via atom-centered $s$-Gaussian basis with $\alpha = 0.5$, $\beta = 1.5$, $n_p = 9$ (18 total basis functions).}}{2}}
\newlabel{fig:E}{{1}{2}}
