               t            V-V0            T-T0            E-E0
   3880.00000000      0.00186419     -0.00185128      0.00001290
   3885.00000000      0.00356168     -0.00352782      0.00003386
   3890.00000000      0.00481833     -0.00474789      0.00007044
   3895.00000000      0.00517027     -0.00504036      0.00012990
   3900.00000000      0.00389442     -0.00369993      0.00019449
   3905.00000000      0.00027982     -0.00010907      0.00017076
   3910.00000000     -0.00543743      0.00546512      0.00002769
   3915.00000000     -0.01176356      0.01166063     -0.00010293
   3920.00000000     -0.01719765      0.01707104     -0.00012661
   3925.00000000     -0.02133965      0.02126504     -0.00007461
   3945.00000000     -0.03534864      0.03700282      0.00165418
   3965.00000000     -0.05647585      0.05776020      0.00128435
   3985.00000000     -0.08215684      0.08309145      0.00093461
   4005.00000000     -0.10776803      0.10853124      0.00076321
