6
t = 3905.000000   , Parent I = 1   , Child I = 0   , TDC = 0.013589      
C       -0.693660      -0.320047      -1.439767
C        0.953410       0.455780       1.336920
H        0.730691      -0.894629       2.663172
H       -1.744211      -2.013200      -1.788479
H       -0.222006       0.936062      -2.690448
H       -1.857370       0.355683       3.040359
