6
t =      20.000000
C       -0.308600       0.071119      -1.268243
C        0.296258      -0.071544       1.258212
H        1.623864       1.248832       1.936201
H        0.803843       1.465907      -2.668916
H       -1.846122      -1.224707      -1.963516
H       -0.434749      -1.484880       2.815693
6
t =      40.000000
C       -0.303728       0.073197      -1.262399
C        0.289919      -0.074016       1.254528
H        1.671890       1.269276       1.962396
H        0.797585       1.476627      -2.683627
H       -1.878224      -1.264408      -1.978355
H       -0.426932      -1.471649       2.793328
6
t =      60.000000
C       -0.299506       0.075286      -1.258838
C        0.284034      -0.076668       1.253076
H        1.716414       1.290133       1.989764
H        0.785427       1.474892      -2.689644
H       -1.903694      -1.294409      -1.991654
H       -0.414042      -1.454078       2.760174
6
t =      80.000000
C       -0.296099       0.077283      -1.257721
C        0.278943      -0.079179       1.253943
H        1.754443       1.308708       2.016564
H        0.767553       1.460834      -2.686834
H       -1.920901      -1.313341      -2.002516
H       -0.396932      -1.433534       2.717793
6
t =     100.000000
C       -0.293621       0.079088      -1.259090
C        0.274928      -0.081241       1.257064
H        1.783757       1.323067       2.041462
H        0.744415       1.435076      -2.675498
H       -1.928914      -1.320412      -2.010346
H       -0.376794      -1.412009       2.668523
6
t =     120.000000
C       -0.292150       0.080593      -1.262863
C        0.272224      -0.082529       1.262212
H        1.802848       1.331917       2.063509
H        0.716819       1.398791      -2.656479
H       -1.927364      -1.315318      -2.014798
H       -0.355163      -1.392257       2.615545
6
t =     140.000000
C       -0.291750       0.081671      -1.268825
C        0.271029      -0.082694       1.269011
H        1.810809       1.334494       2.082094
H        0.686050       1.353797      -2.631312
H       -1.916378      -1.298202      -2.015762
H       -0.333868      -1.377816       2.562790
6
t =     160.000000
C       -0.292484       0.082165      -1.276623
C        0.271492      -0.081379       1.276986
H        1.807250       1.330478       2.096903
H        0.654013       1.302670      -2.602396
H       -1.896580      -1.269652      -2.013350
H       -0.314859      -1.372764       2.514550
6
t =     180.000000
C       -0.294420       0.081891      -1.285767
C        0.273702      -0.078269       1.285637
H        1.792252       1.319967       2.107906
H        0.623349       1.248816      -2.573127
H       -1.869170      -1.230757      -2.007929
H       -0.299861      -1.381065       2.474722
6
t =     200.000000
C       -0.297624       0.080651      -1.295640
C        0.277642      -0.073183       1.294537
H        1.766378       1.303505       2.115358
H        0.597422       1.196383      -2.547856
H       -1.836072      -1.183194      -2.000162
H       -0.289914      -1.405536       2.445823
6
t =     220.000000
C       -0.302120       0.078287      -1.305542
C        0.283156      -0.066167       1.303399
H        1.730736       1.282160       2.119847
H        0.580060       1.149819      -2.531477
H       -1.800127      -1.129345      -1.991077
H       -0.284987      -1.446859       2.428260
6
t =     240.000000
C       -0.307817       0.074760      -1.314770
C        0.289938      -0.057539       1.312080
H        1.687073       1.257638       2.122361
H        0.574896       1.112984      -2.528490
H       -1.765284      -1.072383      -1.982143
H       -0.283915      -1.503200       2.420324
6
t =     260.000000
C       -0.314432       0.070243      -1.322725
C        0.297546      -0.047852       1.320516
H        1.637872       1.232405       2.124383
H        0.584433       1.088012      -2.541708
H       -1.736650      -1.016208      -1.975285
H       -0.284704      -1.570729       2.418939
6
t =     280.000000
C       -0.321445       0.065153      -1.329009
C        0.305443      -0.037811       1.328624
H        1.586358       1.209741       2.127958
H        0.609236       1.074522      -2.571266
H       -1.720152      -0.965054      -1.972760
H       -0.285025      -1.644675       2.420670
6
t =     300.000000
C       -0.328172       0.060069      -1.333453
C        0.313053      -0.028180       1.336246
H        1.536290       1.193608       2.135648
H        0.647791       1.069757      -2.614606
H       -1.721546      -0.922634      -1.976760
H       -0.282631      -1.720339       2.422487
6
t =     320.000000
C       -0.333952       0.055550      -1.336091
C        0.319825      -0.019681       1.343133
H        1.491405       1.188182       2.150276
H        0.697117       1.069550      -2.667459
H       -1.744839      -0.890989      -1.988745
H       -0.275594      -1.793731       2.422109
6
t =     340.000000
C       -0.338345       0.051963      -1.337102
C        0.325320      -0.012902       1.348991
H        1.454514       1.196973       2.174362
H        0.753665       1.069491      -2.725124
H       -1.790810      -0.869663      -2.008809
H       -0.262391      -1.861801       2.418035
6
t =     360.000000
C       -0.341231       0.049431      -1.336739
C        0.329289      -0.008209       1.353549
H        1.426564       1.221780       2.209389
H        0.814041       1.065728      -2.783400
H       -1.856636      -0.855840      -2.035536
H       -0.241896      -1.922401       2.409414
6
t =     380.000000
C       -0.342748       0.047887      -1.335264
C        0.331710      -0.005701       1.356626
H        1.406228       1.262006       2.255255
H        0.875346       1.055306      -2.838992
H       -1.936906      -0.845399      -2.066473
H       -0.213345      -1.974126       2.395884
6
t =     400.000000
C       -0.343171       0.047175      -1.332880
C        0.332744      -0.005236       1.358141
H        1.390355       1.314789       2.310255
H        0.935248       1.036188      -2.889533
H       -2.025263      -0.834152      -2.098881
H       -0.176303      -2.016100       2.377416
6
t =     420.000000
C       -0.342782       0.047126      -1.329707
C        0.332652      -0.006516       1.358092
H        1.374995       1.375861       2.371609
H        0.991888       1.007143      -2.933425
H       -2.115749      -0.818652      -2.130331
H       -0.130626      -2.047799       2.354189
6
t =     440.000000
C       -0.341816       0.047591      -1.325781
C        0.331709      -0.009187       1.356515
H        1.356397       1.440597       2.436166
H        1.043763       0.967594      -2.969625
H       -2.203485      -0.796460      -2.158977
H       -0.076444      -2.068916       2.326511
6
t =     460.000000
C       -0.340436       0.048449      -1.321085
C        0.330155      -0.012904       1.353447
H        1.331612       1.504788       2.500961
H        1.089625       0.917473      -2.997454
H       -2.284800      -0.766079      -2.183578
H       -0.014135      -2.079324       2.294766
6
t =     480.000000
C       -0.338743       0.049595      -1.315574
C        0.328177      -0.017357       1.348915
H        1.298673       1.565005       2.563496
H        1.128410       0.857107      -3.016470
H       -2.357095      -0.726762      -2.203393
H        0.055707      -2.079107       2.259405
6
t =     500.000000
C       -0.336795       0.050939      -1.309204
C        0.325913      -0.022274       1.342943
H        1.256516       1.618641       2.621780
H        1.159226       0.787124      -3.026396
H       -2.418597      -0.678319      -2.218046
H        0.132310      -2.068664       2.220969
6
t =     520.000000
C       -0.334622       0.052402      -1.301943
C        0.323458      -0.027400       1.335552
H        1.204792       1.663801       2.674254
H        1.181363       0.708381      -3.027113
H       -2.468134      -0.620962      -2.227394
H        0.214794      -2.048828       2.180105
6
t =     540.000000
C       -0.332247       0.053914      -1.293783
C        0.320874      -0.032480       1.326782
H        1.143667       1.699132       2.719663
H        1.194336       0.621904      -3.018701
H       -2.504959      -0.555187      -2.231444
H        0.302253      -2.020982       2.137591
6
t =     560.000000
C       -0.329692       0.055414      -1.284734
C        0.318194      -0.037241       1.316698
H        1.073653       1.723673       2.756939
H        1.197930       0.528840      -3.001505
H       -2.528656      -0.481692      -2.230308
H        0.393863      -1.987116       2.094310
6
t =     580.000000
C       -0.326985       0.056846      -1.274816
C        0.315419      -0.041390       1.305405
H        0.995470       1.736735       2.785091
H        1.192249       0.430404      -2.976235
H       -2.539121      -0.401303      -2.224218
H        0.489008      -1.949786       2.051162
6
t =     600.000000
C       -0.324157       0.058157      -1.264036
C        0.312519      -0.044611       1.293073
H        0.909941       1.737807       2.803110
H        1.177766       0.327820      -2.944096
H       -2.536628      -0.314907      -2.213594
H        0.587389      -1.911914       2.008873
6
t =     620.000000
C       -0.321232       0.059289      -1.252371
C        0.309429      -0.046596       1.279947
H        0.817955       1.726497       2.809905
H        1.155348       0.222295      -2.906885
H       -2.521901      -0.223428      -2.199115
H        0.689019      -1.876403       1.967786
6
t =     640.000000
C       -0.318240       0.060194      -1.239788
C        0.306079      -0.047107       1.266287
H        0.720865       1.702698       2.804521
H        1.126234       0.115468      -2.866703
H       -2.495939      -0.128252      -2.181513
H        0.793528      -1.845643       1.928201
6
t =     660.000000
C       -0.315279       0.060867      -1.226381
C        0.302445      -0.046077       1.252309
H        0.621111       1.667047       2.786635
H        1.092041       0.010037      -2.825367
H       -2.459652      -0.031885      -2.161095
H        0.899206      -1.821210       1.891128
6
t =     680.000000
C       -0.312580       0.061381      -1.212450
C        0.298575      -0.043670       1.238150
H        0.520654       1.621180       2.757568
H        1.054883      -0.092298      -2.784026
H       -2.413790       0.063751      -2.137468
H        1.004896      -1.803431       1.857945
6
t =     700.000000
C       -0.310420       0.061853      -1.198328
C        0.294571      -0.040228       1.223863
H        0.420580       1.567427       2.719973
H        1.017080      -0.191254      -2.743609
H       -2.359233       0.157715      -2.110081
H        1.110172      -1.791288       1.829705
6
t =     720.000000
C       -0.308973       0.062384      -1.184271
C        0.290562      -0.036154       1.209625
H        0.322163       1.508424       2.676401
H        0.980929      -0.286470      -2.705693
H       -2.297789       0.248896      -2.079112
H        1.213802      -1.783080       1.806550
6
t =     740.000000
C       -0.308311       0.063057      -1.170521
C        0.286712      -0.031891       1.195680
H        0.226712       1.447291       2.629658
H        0.948512      -0.377574      -2.672016
H       -2.232148       0.336187      -2.045316
H        1.313979      -1.776906       1.788134
6
t =     760.000000
C       -0.308406       0.063927      -1.157342
C        0.283219      -0.027900       1.182268
H        0.135325       1.387697       2.583107
H        0.921477      -0.464242      -2.643993
H       -2.165709       0.418715      -2.009871
H        1.408696      -1.771049       1.773992
6
t =     780.000000
C       -0.309138       0.065009      -1.145041
C        0.280306      -0.024632       1.169599
H        0.048702       1.333683       2.540612
H        0.900865      -0.546113      -2.622426
H       -2.102395       0.495973      -1.974274
H        1.496016      -1.764219       1.763706
6
t =     800.000000
C       -0.310313       0.066264      -1.133962
C        0.278219      -0.022480       1.157865
H       -0.032941       1.289172       2.506105
H        0.887066      -0.622673      -2.607430
H       -2.046345       0.567877      -1.940221
H        1.574237      -1.755622       1.756963
6
t =     820.000000
C       -0.311708       0.067600      -1.124471
C        0.277210      -0.021723       1.147278
H       -0.109772       1.257264       2.482839
H        0.879910      -0.693195      -2.598525
H       -2.001448       0.634708      -1.909402
H        1.641970      -1.744938       1.753559
6
t =     840.000000
C       -0.313133       0.068890      -1.116939
C        0.277497      -0.022477       1.138117
H       -0.182022       1.239541       2.472578
H        0.878842      -0.756755      -2.594844
H       -1.970776       0.696915      -1.883242
H        1.698152      -1.732245       1.753378
6
t =     860.000000
C       -0.314478       0.070008      -1.111716
C        0.279239      -0.024680       1.130739
H       -0.249600       1.235769       2.475155
H        0.883114      -0.812299      -2.595362
H       -1.956061       0.754819      -1.862646
H        1.742023      -1.717910       1.756367
6
t =     880.000000
C       -0.315747       0.070857      -1.109104
C        0.282505      -0.028124       1.125547
H       -0.311855       1.244158       2.488655
H        0.891918      -0.858752      -2.599069
H       -1.957432       0.808332      -1.847856
H        1.773073      -1.702464       1.762514
6
t =     900.000000
C       -0.317041       0.071395      -1.109340
C        0.287279      -0.032530       1.122918
H       -0.367625       1.262027       2.510080
H        0.904444      -0.895085      -2.605062
H       -1.973522       0.856833      -1.838481
H        1.790969      -1.686439       1.771818
6
t =     920.000000
C       -0.318515       0.071626      -1.112578
C        0.293479      -0.037619       1.123148
H       -0.415466       1.286504       2.536132
H        0.919853      -0.920378      -2.612545
H       -2.001877       0.899248      -1.833671
H        1.795485      -1.670196       1.784256
6
t =     940.000000
C       -0.320325       0.071593      -1.118882
C        0.300977      -0.043167       1.126410
H       -0.453930       1.315018       2.563776
H        0.937213      -0.933850      -2.620800
H       -2.039494       0.934266      -1.832352
H        1.786477      -1.653811       1.799761
6
t =     960.000000
C       -0.322582       0.071360      -1.128219
C        0.309609      -0.049019       1.132743
H       -0.481784       1.345500       2.590521
H        0.955464      -0.934912      -2.629150
H       -2.083283       0.960587      -1.833423
H        1.763960      -1.637099       1.818214
6
t =     980.000000
C       -0.325336       0.070997      -1.140455
C        0.319176      -0.055070       1.142046
H       -0.498132       1.376377       2.614466
H        0.973458      -0.923230      -2.636972
H       -2.130367       0.977117      -1.835899
H        1.728274      -1.619822       1.839495
6
t =    1000.000000
C       -0.328575       0.070573      -1.155340
C        0.329435      -0.061219       1.154078
H       -0.502451       1.406439       2.634230
H        0.990072      -0.898788      -2.643760
H       -2.178226       0.983062      -1.838982
H        1.680263      -1.602006       1.863568
6
t =    1020.000000
C       -0.332251       0.070147      -1.172516
C        0.340098      -0.067326       1.168474
H       -0.494558       1.434692       2.648831
H        1.004343      -0.861897      -2.649206
H       -2.224711       0.977956      -1.842074
H        1.621384      -1.584247       1.890599
6
t =    1040.000000
C       -0.336298       0.069767      -1.191533
C        0.350839      -0.073185       1.184764
H       -0.474543       1.460263       2.657605
H        1.015590      -0.813183      -2.653277
H       -2.268014       0.961631      -1.844775
H        1.553726      -1.567929       1.921069
6
t =    1060.000000
C       -0.340656       0.069471      -1.211875
C        0.361304      -0.078512       1.202400
H       -0.442721       1.482384       2.660143
H        1.023498      -0.753544      -2.656278
H       -2.306629       0.934182      -1.846859
H        1.479891      -1.555289       1.955840
6
t =    1080.000000
C       -0.345280       0.069287      -1.232983
C        0.371141      -0.082971       1.220784
H       -0.399592       1.500438       2.656280
H        1.028166      -0.684091      -2.658879
H       -2.339341       0.895933      -1.848240
H        1.402728      -1.549258       1.996125
6
t =    1100.000000
C       -0.350143       0.069232      -1.254281
C        0.380040      -0.086222       1.239305
H       -0.345835       1.514046       2.646112
H        1.030121      -0.606090      -2.662105
H       -2.365243       0.847415      -1.848957
H        1.324874      -1.552987       2.043282
6
t =    1120.000000
C       -0.355235       0.069313      -1.275190
C        0.387779      -0.087998       1.257385
H       -0.282303       1.523155       2.630016
H        1.030272      -0.520875      -2.667270
H       -2.383774       0.789348      -1.849144
H        1.248196      -1.569068       2.098420
6
t =    1140.000000
C       -0.360549       0.069525      -1.295158
C        0.394267      -0.088193       1.274521
H       -0.210021       1.528129       2.608690
H        1.029802      -0.429751      -2.675835
H       -2.394762       0.722628      -1.849014
H        1.173395      -1.598638       2.161897
6
t =    1160.000000
C       -0.366061       0.069843      -1.313676
C        0.399534      -0.086919       1.290321
H       -0.130158       1.529821       2.583192
H        1.029959      -0.333885      -2.689183
H       -2.398470       0.648298      -1.848840
H        1.100007      -1.640825       2.232946
6
t =    1180.000000
C       -0.371707       0.070223      -1.330311
C        0.403693      -0.084497       1.304499
H       -0.043980       1.529608       2.554955
H        1.031781      -0.234228      -2.708328
H       -2.395634       0.567521      -1.848935
H        1.026865      -1.692852       2.309673
6
t =    1200.000000
C       -0.377350       0.070603      -1.344726
C        0.406876      -0.081399       1.316848
H        0.047256       1.529352       2.525773
H        1.035807      -0.131508      -2.733625
H       -2.387469       0.481530      -1.849619
H        0.952740      -1.750736       2.389439
6
t =    1220.000000
C       -0.382770       0.070914      -1.356707
C        0.409168      -0.078156       1.327195
H        0.142459       1.531245       2.497708
H        1.041896      -0.026306      -2.764550
H       -2.375626       0.391555      -1.851158
H        0.876850      -1.810180       2.469416
6
t =    1240.000000
C       -0.387668       0.071097      -1.366184
C        0.410564      -0.075268       1.335378
H        0.240957       1.537481       2.472937
H        1.049246       0.080822      -2.799609
H       -2.362049       0.298726      -1.853612
H        0.799112      -1.867284       2.547116
6
t =    1260.000000
C       -0.391695       0.071113      -1.373273
C        0.410911      -0.073119       1.341219
H        0.342893       1.549749       2.453607
H        1.056648       0.189282      -2.836274
H       -2.348703       0.203913      -1.856507
H        0.720240      -1.918980       2.620864
6
t =    1280.000000
C       -0.394498       0.070950      -1.378230
C        0.409933      -0.071914       1.344551
H        0.449060       1.568632       2.441462
H        1.062737       0.298292      -2.871345
H       -2.337288       0.107761      -1.858847
H        0.641600      -1.963117       2.689768
6
t =    1300.000000
C       -0.395786       0.070628      -1.381183
C        0.407505      -0.071697       1.345361
H        0.558806       1.593234       2.436818
H        1.065981       0.406121      -2.902416
H       -2.329237       0.011531      -1.860366
H        0.564804      -1.998072       2.752519
6
t =    1320.000000
C       -0.395385       0.070204      -1.382183
C        0.403676      -0.072385       1.343828
H        0.670580       1.621470       2.438526
H        1.064969       0.510831      -2.927970
H       -2.325441      -0.083556      -1.861413
H        0.491059      -2.022690       2.807568
6
t =    1340.000000
C       -0.393252       0.069756      -1.381226
C        0.398596      -0.073815       1.340240
H        0.782841       1.650546       2.444359
H        1.058532       0.611011      -2.947138
H       -2.325936      -0.176950      -1.862632
H        0.420821      -2.036193       2.853451
6
t =    1360.000000
C       -0.389455       0.069356      -1.378306
C        0.392438      -0.075779       1.334900
H        0.893952       1.677460       2.451802
H        1.045851       0.705487      -2.959425
H       -2.329822      -0.268242      -1.864495
H        0.354384      -2.038142       2.888974
6
t =    1380.000000
C       -0.384149       0.069055      -1.373454
C        0.385373      -0.078068       1.328088
H        1.002130       1.699487       2.458607
H        1.026499       0.793153      -2.964555
H       -2.335485      -0.356809      -1.867119
H        0.292165      -2.028430       2.913257
6
t =    1400.000000
C       -0.377551       0.068874      -1.366742
C        0.377570      -0.080498       1.320059
H        1.105540       1.714493       2.462983
H        1.000417       0.872985      -2.962441
H       -2.340968      -0.441769      -1.870351
H        0.234667      -2.007217       2.925682
6
t =    1420.000000
C       -0.369909       0.068806      -1.358268
C        0.369198      -0.082925       1.311038
H        1.202403       1.721039       2.463621
H        0.967858       0.944085      -2.953180
H       -2.344324      -0.522043      -1.873891
H        0.182414      -1.974875       2.925826
6
t =    1440.000000
C       -0.361478       0.068824      -1.348153
C        0.360425      -0.085250       1.301235
H        1.291078       1.718367       2.459659
H        0.929345       1.005721      -2.937033
H       -2.343889      -0.596461      -1.877391
H        0.135896      -1.931952       2.913440
6
t =    1460.000000
C       -0.352512       0.068886      -1.336542
C        0.351425      -0.087408       1.290845
H        1.370103       1.706311       2.450613
H        0.885642       1.057353      -2.914425
H       -2.338437      -0.663856      -1.880507
H        0.095527      -1.879182       2.888454
6
t =    1480.000000
C       -0.343251       0.068938      -1.323600
C        0.342374      -0.089353       1.280057
H        1.438225       1.685203       2.436306
H        0.837724       1.098671      -2.885944
H       -2.327233      -0.723145      -1.882928
H        0.061613      -1.817561       2.851044
6
t =    1500.000000
C       -0.333925       0.068919      -1.309515
C        0.333456      -0.091044       1.269052
H        1.494413       1.655763       2.416791
H        0.786773       1.129637      -2.852378
H       -2.310025      -0.773399      -1.884382
H        0.034313      -1.748479       2.801778
6
t =    1520.000000
C       -0.324756       0.068762      -1.294499
C        0.324859      -0.092412       1.257990
H        1.537872       1.618996       2.392282
H        0.734177       1.150534      -2.814757
H       -2.286977      -0.813881      -1.884630
H        0.013588      -1.673964       2.741840
6
t =    1540.000000
C       -0.315958       0.068391      -1.278785
C        0.316779      -0.093331       1.246994
H        1.568055       1.576101       2.363094
H        0.681529       1.162020      -2.774425
H       -2.258601      -0.844084      -1.883456
H       -0.000873      -1.596991       2.673350
6
t =    1560.000000
C       -0.307742       0.067725      -1.262622
C        0.309421      -0.093582       1.236120
H        1.584680       1.528398       2.329611
H        0.630628       1.165164      -2.733093
H       -2.225675      -0.863753      -1.880669
H       -0.009742      -1.521847       2.599722
6
t =    1580.000000
C       -0.300314       0.066675      -1.246266
C        0.303003      -0.092827       1.225334
H        1.587767       1.477312       2.292297
H        0.583440       1.161454      -2.692856
H       -2.189196      -0.872899      -1.876108
H       -0.014144      -1.454397       2.525933
6
t =    1600.000000
C       -0.293868       0.065151      -1.229979
C        0.297745      -0.090622       1.214502
H        1.577701       1.424409       2.251756
H        0.542030       1.152727      -2.656136
H       -2.150368      -0.871819      -1.869684
H       -0.015639      -1.401949       2.458369
6
t =    1620.000000
C       -0.288572       0.063072      -1.214016
C        0.293842      -0.086510       1.203458
H        1.555335       1.371523       2.208859
H        0.508428       1.140989      -2.625508
H       -2.110646      -0.861092      -1.861418
H       -0.015968      -1.372256       2.403811
6
t =    1640.000000
C       -0.284549       0.060392      -1.198635
C        0.291402      -0.080207       1.192136
H        1.522106       1.320937       2.164921
H        0.484462       1.128109      -2.603410
H       -2.071817      -0.841576      -1.851513
H       -0.016464      -1.371444       2.367405
6
t =    1660.000000
C       -0.281846       0.057124      -1.184095
C        0.290379      -0.071817       1.180715
H        1.480169       1.275588       2.121900
H        0.471568       1.115444      -2.591764
H       -2.036076      -0.814353      -1.840394
H       -0.017379      -1.401652       2.350532
6
t =    1680.000000
C       -0.280421       0.053359      -1.170659
C        0.290539      -0.061914       1.169617
H        1.432448       1.239191       2.082550
H        0.470635       1.103507      -2.591643
H       -2.006047      -0.780655      -1.828749
H       -0.017625      -1.460101       2.350278
6
t =    1700.000000
C       -0.280136       0.049266      -1.158577
C        0.291501      -0.051424       1.159346
H        1.382507       1.216120       2.050415
H        0.481917       1.091822      -2.603092
H       -1.984665      -0.741740      -1.817513
H       -0.015194      -1.540419       2.361061
6
t =    1720.000000
C       -0.280776       0.045066      -1.148060
C        0.292833      -0.041372       1.150289
H        1.334061       1.210854       2.029464
H        0.505028       1.079060      -2.625190
H       -1.974872      -0.698742      -1.807798
H       -0.007886      -1.635073       2.377010
6
t =    1740.000000
C       -0.282092       0.040994      -1.139270
C        0.294168      -0.032633       1.142648
H        1.290102       1.226895       2.023282
H        0.539000       1.063407      -2.656286
H       -1.979099      -0.652533      -1.800725
H        0.006094      -1.737232       2.393539
6
t =    1760.000000
C       -0.283857       0.037256      -1.132340
C        0.295315      -0.025772       1.136520
H        1.251933       1.265451       2.033959
H        0.582356       1.043009      -2.694265
H       -1.998670      -0.603632      -1.797181
H        0.027844      -1.841481       2.407738
6
t =    1780.000000
C       -0.285928       0.034007      -1.127422
C        0.296303      -0.020986       1.132044
H        1.218743       1.324614       2.061308
H        0.633224       1.016314      -2.736759
H       -2.033349      -0.552191      -1.797577
H        0.057743      -1.943688       2.418024
6
t =    1800.000000
C       -0.288265       0.031339      -1.124723
C        0.297335      -0.018169       1.129472
H        1.188097       1.399687       2.102925
H        0.689491       0.982211      -2.781297
H       -2.081282      -0.498052      -1.801720
H        0.095599      -2.040580       2.423574
6
t =    1820.000000
C       -0.290923       0.029297      -1.124475
C        0.298685      -0.017044       1.129127
H        1.156979       1.484455       2.155058
H        0.748972       0.940012      -2.825454
H       -2.139352      -0.440875      -1.808886
H        0.140859      -2.129404       2.423911
6
t =    1840.000000
C       -0.294002       0.027891      -1.126871
C        0.300600      -0.017292       1.131296
H        1.122744       1.572594       2.213653
H        0.809543       0.889397      -2.866992
H       -2.203741      -0.380310      -1.818041
H        0.192780      -2.207793       2.418724
6
t =    1860.000000
C       -0.297609       0.027109      -1.132001
C        0.303242      -0.018625       1.136127
H        1.083576       1.658601       2.275088
H        0.869229       0.830362      -2.903967
H       -2.270492      -0.316154      -1.828079
H        0.250512      -2.273749       2.407855
6
t =    1880.000000
C       -0.301818       0.026934      -1.139819
C        0.306679      -0.020817       1.143596
H        1.038531       1.738137       2.336487
H        0.926234       0.763185      -2.934767
H       -2.335904      -0.248425      -1.837988
H        0.313151      -2.325646       2.391316
6
t =    1900.000000
C       -0.306655       0.027336      -1.150141
C        0.310900      -0.023701       1.153500
H        0.987375       1.808012       2.395744
H        0.978961       0.688392      -2.958108
H       -2.396752      -0.177373      -1.846924
H        0.379765      -2.362227       2.369316
6
t =    1920.000000
C       -0.312100       0.028281      -1.162674
C        0.315831      -0.027156       1.165490
H        0.930379       1.865998       2.451436
H        1.026018       0.606715      -2.972996
H       -2.450352      -0.103430      -1.854212
H        0.449426      -2.382588       2.342269
6
t =    1940.000000
C       -0.318094       0.029723      -1.177057
C        0.321352      -0.031095       1.179106
H        0.868152       1.910652       2.502734
H        1.066221       0.519056      -2.978663
H       -2.494526      -0.027137      -1.859272
H        0.521248      -2.386158       2.310831
6
t =    1960.000000
C       -0.324557       0.031604      -1.192909
C        0.327312      -0.035449       1.193796
H        0.801515       1.941179       2.549407
H        1.098609       0.426446      -2.974450
H       -2.527492       0.050960      -1.861491
H        0.594456      -2.372715       2.276003
6
t =    1980.000000
C       -0.331412       0.033840      -1.209883
C        0.333530      -0.040163       1.208918
H        0.731458       1.957379       2.591909
H        1.122490       0.330037      -2.959636
H       -2.547723       0.130375      -1.860041
H        0.668454      -2.342414       2.239277
6
t =    2000.000000
C       -0.338589       0.036341      -1.227626
C        0.339820      -0.045186       1.223844
H        0.659386       1.959385       2.630832
H        1.137573       0.231437      -2.933805
H       -2.554140       0.210195      -1.854232
H        0.742409      -2.295605       2.202264
6
t =    2020.000000
C       -0.346000       0.039041      -1.245685
C        0.346053      -0.050462       1.238205
H        0.587099       1.947254       2.665710
H        1.144112       0.132757      -2.897882
H       -2.546700       0.288693      -1.844400
H        0.814753      -2.232629       2.165654
6
t =    2040.000000
C       -0.353545       0.041909      -1.263518
C        0.352145      -0.055910       1.251856
H        0.515754       1.921010       2.695388
H        1.142808       0.035384      -2.854089
H       -2.526235       0.364605      -1.831684
H        0.884230      -2.154208       2.129273
6
t =    2060.000000
C       -0.361134       0.044926      -1.280603
C        0.358018      -0.061404       1.264682
H        0.446189       1.880959       2.718829
H        1.134711      -0.059765      -2.805076
H       -2.493966       0.437087      -1.817309
H        0.950060      -2.061995       2.093151
6
t =    2080.000000
C       -0.368700       0.048070      -1.296488
C        0.363565      -0.066745       1.276541
H        0.379274       1.827825       2.735369
H        1.121271      -0.151888      -2.753523
H       -2.451418       0.505456      -1.802324
H        1.011910      -1.958946       2.058008
6
t =    2100.000000
C       -0.376192       0.051322      -1.310795
C        0.368645      -0.071637       1.287273
H        0.315858       1.762741       2.744648
H        1.104318      -0.240378      -2.702114
H       -2.400553       0.569224      -1.787688
H        1.070130      -1.849609       2.025245
6
t =    2120.000000
C       -0.383551       0.054663      -1.323215
C        0.373062      -0.075673       1.296700
H        0.256667       1.687271       2.746600
H        1.085905      -0.324920      -2.653433
H       -2.343883       0.628194      -1.774354
H        1.126097      -1.740301       1.996920
6
t =    2140.000000
C       -0.390686       0.058072      -1.333516
C        0.376550      -0.078365       1.304622
H        0.202200       1.603482       2.741526
H        1.068045      -0.405511      -2.609765
H       -2.284509       0.682567      -1.763301
H        1.182464      -1.638828       1.975605
6
t =    2160.000000
C       -0.397443       0.061503      -1.341549
C        0.378796      -0.079250       1.310831
H        0.152624       1.514066       2.730266
H        1.052380      -0.482374      -2.572869
H       -2.226050       0.733005      -1.755537
H        1.242972      -1.553303       1.963919
6
t =    2180.000000
C       -0.403602       0.064880      -1.347250
C        0.379521      -0.078083       1.315150
H        0.107676       1.422466       2.714420
H        1.039887      -0.555800      -2.543804
H       -2.172396       0.780625      -1.752054
H        1.311447      -1.490002       1.963677
6
t =    2200.000000
C       -0.408889       0.068087      -1.350648
C        0.378630      -0.075020       1.317484
H        0.066572       1.332935       2.696566
H        1.030718      -0.625955      -2.522879
H       -2.127241       0.826837      -1.753746
H        1.390136      -1.451191       1.974967
6
t =    2220.000000
C       -0.413040       0.070989      -1.351852
C        0.376311      -0.070657       1.317828
H        0.027968       1.250373       2.680333
H        1.024236      -0.692743      -2.509733
H       -2.093437       0.873037      -1.761286
H        1.478438      -1.434534       1.995826
6
t =    2240.000000
C       -0.415858       0.073458      -1.351043
C        0.373020      -0.065864       1.316238
H       -0.009944       1.179793       2.670097
H        1.019228      -0.755760      -2.503518
H       -2.072386       0.920191      -1.774981
H        1.573049      -1.434556       2.022845
6
t =    2260.000000
C       -0.417272       0.075409      -1.348466
C        0.369342      -0.061512       1.312811
H       -0.049144       1.125382       2.670117
H        1.014190      -0.814346      -2.503106
H       -2.063719       0.968486      -1.794663
H        1.669253      -1.444898       2.052220
6
t =    2280.000000
C       -0.417344       0.076819      -1.344416
C        0.365839      -0.058252       1.307727
H       -0.091273       1.089411       2.683236
H        1.007599      -0.867684      -2.507267
H       -2.065441       1.017217      -1.819661
H        1.762271      -1.459927       2.080569
6
t =    2300.000000
C       -0.416245       0.077721      -1.339223
C        0.362942      -0.056404       1.301317
H       -0.137120       1.071582       2.709764
H        0.998115      -0.914921      -2.514799
H       -2.074477       1.064942      -1.848882
H        1.848043      -1.475345       2.105273
6
t =    2320.000000
C       -0.414207       0.078193      -1.333233
C        0.360916      -0.055984       1.294083
H       -0.186365       1.069253       2.747268
H        0.984692      -0.955275      -2.524609
H       -2.087349       1.109813      -1.880951
H        1.923444      -1.488147       2.124469
6
t =    2340.000000
C       -0.411479       0.078328      -1.326798
C        0.359874      -0.056809       1.286640
H       -0.237744       1.078400       2.791408
H        0.966623      -0.988117      -2.535752
H       -2.100735       1.149922      -1.914383
H        1.986203      -1.496336       2.136907
6
t =    2360.000000
C       -0.408300       0.078224      -1.320251
C        0.359831      -0.058617       1.279619
H       -0.289484       1.094701       2.837200
H        0.943538      -1.013029      -2.547456
H       -2.111812       1.183571      -1.947714
H        2.034752      -1.498612       2.141789
6
t =    2380.000000
C       -0.404883       0.077976      -1.313902
C        0.360751      -0.061149       1.273595
H       -0.339722       1.114285       2.880029
H        0.915383      -1.029854      -2.559130
H       -2.118375       1.209428      -1.979590
H        2.068076      -1.494131       2.138641
6
t =    2400.000000
C       -0.401415       0.077671      -1.308022
C        0.362570      -0.064190       1.269038
H       -0.386793       1.134034       2.916163
H        0.882396      -1.038729      -2.570378
H       -2.118839       1.226601      -2.008822
H        2.085640      -1.482340       2.127232
6
t =    2420.000000
C       -0.398054       0.077389      -1.302835
C        0.365212      -0.067574       1.266305
H       -0.429340       1.151592       2.942865
H        0.845088      -1.040113      -2.581019
H       -2.112173       1.234658      -2.034411
H        2.087361      -1.462909       2.107542
6
t =    2440.000000
C       -0.394937       0.077200      -1.298505
C        0.368584      -0.071173       1.265634
H       -0.466345       1.165240       2.958306
H        0.804233      -1.034792      -2.591103
H       -2.097851       1.233623      -2.055565
H        2.073638      -1.435749       2.079783
6
t =    2460.000000
C       -0.392175       0.077168      -1.295124
C        0.372567      -0.074867       1.267141
H       -0.497101       1.173751       2.961419
H        0.760857      -1.023873      -2.600936
H       -2.075842       1.223952      -2.071725
H        2.045441      -1.401136       2.044463
6
t =    2480.000000
C       -0.389851       0.077343      -1.292706
C        0.377003      -0.078524       1.270823
H       -0.521177       1.176278       2.951772
H        0.716219      -1.008746      -2.611080
H       -2.046642       1.206525      -2.082589
H        2.004470      -1.359899       2.002481
6
t =    2500.000000
C       -0.388010       0.077754      -1.291183
C        0.381665      -0.081967       1.276549
H       -0.538397       1.172306       2.929492
H        0.671755      -0.991023      -2.622325
H       -2.011334       1.182642      -2.088144
H        1.953416      -1.313676       1.955250
6
t =    2520.000000
C       -0.386644       0.078404      -1.290415
C        0.386231      -0.084953       1.284057
H       -0.548827       1.161656       2.895237
H        0.628988      -0.972426      -2.635611
H       -1.971669       1.154043      -2.088717
H        1.896320      -1.265215       1.904809
6
t =    2540.000000
C       -0.385677       0.079253      -1.290201
C        0.390252      -0.087154       1.292956
H       -0.552806       1.144545       2.850235
H        0.589404      -0.954644      -2.651889
H       -1.930122       1.122912      -2.085010
H        1.838932      -1.218649       1.853881
6
t =    2560.000000
C       -0.384952       0.080208      -1.290309
C        0.393162      -0.088169       1.302737
H       -0.551015       1.121698       2.796365
H        0.554295      -0.939155      -2.671937
H       -1.889879       1.091855      -2.078120
H        1.788736      -1.179517       1.805735
6
t =    2580.000000
C       -0.384238       0.081124      -1.290504
C        0.394353      -0.087591       1.312818
H       -0.544594       1.094491       2.736287
H        0.524619      -0.927058      -2.696157
H       -1.854680       1.063763      -2.069487
H        1.754108      -1.154108       1.763696
6
t =    2600.000000
C       -0.383257       0.081816      -1.290590
C        0.393382      -0.085162       1.322612
H       -0.535311       1.065139       2.673585
H        0.500906      -0.918950      -2.724417
H       -1.828420       1.041532      -2.060715
H        1.742159      -1.147788       1.730296
6
t =    2620.000000
C       -0.381740       0.082094      -1.290448
C        0.390216      -0.080974       1.331595
H       -0.525699       1.036828       2.612846
H        0.483238      -0.914890      -2.756000
H       -1.814503       1.027620      -2.053244
H        1.755928      -1.162801       1.706489
6
t =    2640.000000
C       -0.379496       0.081812      -1.290068
C        0.385355      -0.075559       1.339331
H       -0.519043       1.013652       2.559501
H        0.471301      -0.914457      -2.789662
H       -1.815071       1.023532      -2.047960
H        1.792944      -1.197089       1.691584
6
t =    2660.000000
C       -0.376468       0.080906      -1.289559
C        0.379688      -0.069768       1.345459
H       -0.518991       1.000102       2.519170
H        0.464490      -0.916867      -2.823799
H       -1.830422       1.029458      -2.044888
H        1.846469      -1.245221       1.683951
6
t =    2680.000000
C       -0.372747       0.079408      -1.289131
C        0.374190      -0.064496       1.349732
H       -0.528649       0.999972       2.496436
H        0.462032      -0.921129      -2.856648
H       -1.858929       1.044235      -2.043175
H        1.908258      -1.300550       1.681848
6
t =    2700.000000
C       -0.368545       0.077429      -1.289048
C        0.369628      -0.060415       1.352086
H       -0.549418       1.015010       2.493426
H        0.463101      -0.926180      -2.886489
H       -1.897482       1.065675      -2.041357
H        1.970791      -1.357001       1.683865
6
t =    2720.000000
C       -0.364133       0.075125      -1.289582
C        0.366424      -0.057844       1.352701
H       -0.580276       1.044116       2.509060
H        0.466904      -0.930999      -2.911798
H       -1.942239       1.091064      -2.037770
H        2.028223      -1.409853       1.688987
6
t =    2740.000000
C       -0.359792       0.072666      -1.290963
C        0.364673      -0.056776       1.351955
H       -0.618058       1.083724       2.539554
H        0.472743      -0.934682      -2.931357
H       -1.989317       1.117625      -2.030907
H        2.076409      -1.455786       1.696511
6
t =    2760.000000
C       -0.355775       0.070213      -1.293354
C        0.364260      -0.057001       1.350318
H       -0.658520       1.129049       2.579772
H        0.480054      -0.936486      -2.944317
H       -2.035260       1.142830      -2.019624
H        2.112583      -1.492627       1.705936
6
t =    2780.000000
C       -0.352291       0.067909      -1.296842
C        0.364986      -0.058242       1.348242
H       -0.697438       1.175351       2.624550
H        0.488431      -0.935851      -2.950233
H       -2.077255       1.164547      -2.003208
H        2.134999      -1.519061       1.716897
6
t =    2800.000000
C       -0.349505       0.065876      -1.301429
C        0.366639      -0.060237       1.346099
H       -0.731256       1.218678       2.669464
H        0.497637      -0.932421      -2.949075
H       -2.113173       1.181075      -1.981358
H        2.142660      -1.534394       1.729118
6
t =    2820.000000
C       -0.347536       0.064219      -1.307042
C        0.369031      -0.062766       1.344158
H       -0.757291       1.256091       2.711068
H        0.507612      -0.926044      -2.941235
H       -2.141519       1.191141      -1.954128
H        2.135152      -1.538404       1.742395
6
t =    2840.000000
C       -0.346471       0.063025      -1.313536
C        0.371993      -0.065656       1.342592
H       -0.773673       1.285593       2.746839
H        0.518475      -0.916777      -2.927513
H       -2.161366       1.193862      -1.921861
H        2.112571      -1.531263       1.756588
6
t =    2860.000000
C       -0.346363       0.062364      -1.320701
C        0.375366      -0.068761       1.341497
H       -0.779204       1.305945       2.775011
H        0.530522      -0.904877      -2.909093
H       -2.172294       1.188728      -1.885144
H        2.075530      -1.513544       1.771637
6
t =    2880.000000
C       -0.347236       0.062289      -1.328275
C        0.378986      -0.071939       1.340895
H       -0.773222       1.316486       2.794417
H        0.544214      -0.890780      -2.887489
H       -2.174368       1.175592      -1.844761
H        2.025228      -1.486303       1.787592
6
t =    2900.000000
C       -0.349081       0.062827      -1.335958
C        0.382660      -0.075030       1.340754
H       -0.755511       1.316997       2.804372
H        0.560141      -0.875055      -2.864456
H       -2.168155       1.154674      -1.801674
H        1.963595      -1.451240       1.804673
6
t =    2920.000000
C       -0.351844       0.063975      -1.343424
C        0.386151      -0.077824       1.340980
H       -0.726249       1.307641       2.804600
H        0.578963      -0.858320      -2.841844
H       -2.154791       1.126579      -1.756997
H        1.893477      -1.410912       1.823360
6
t =    2940.000000
C       -0.355412       0.065682      -1.350346
C        0.389160      -0.080054       1.341415
H       -0.685990       1.288974       2.795232
H        0.601312      -0.841137      -2.821412
H       -2.136073       1.092323      -1.711969
H        1.818810      -1.368956       1.844509
6
t =    2960.000000
C       -0.359593       0.067846      -1.356417
C        0.391327      -0.081386       1.341824
H       -0.635695       1.262031       2.776857
H        0.627671      -0.823875      -2.804626
H       -2.114563       1.053330      -1.667915
H        1.744626      -1.330188       1.869461
6
t =    2980.000000
C       -0.364103       0.070303      -1.361373
C        0.392272      -0.081461       1.341889
H       -0.576782       1.228488       2.750636
H        0.658245      -0.806595      -2.792469
H       -2.093615       1.011387      -1.626182
H        1.676631      -1.300332       1.900028
6
t =    3000.000000
C       -0.368569       0.072838      -1.365007
C        0.391695      -0.079988       1.341216
H       -0.511204       1.190863       2.718490
H        0.692865      -0.788993      -2.785342
H       -2.077246       0.968490      -1.588056
H        1.620112      -1.285132       1.938208
6
t =    3020.000000
C       -0.372562       0.075211      -1.367182
C        0.389511      -0.076887       1.339376
H       -0.441487       1.152739       2.683315
H        0.730960      -0.770407      -2.783070
H       -2.069732       0.926558      -1.554648
H        1.578350      -1.288847       1.985504
6
t =    3040.000000
C       -0.375667       0.077204      -1.367823
C        0.385953      -0.072421       1.335961
H       -0.370658       1.118876       2.649139
H        0.771608      -0.749903      -2.785009
H       -2.074903       0.887018      -1.526809
H        1.551364      -1.312850       2.042086
6
t =    3060.000000
C       -0.377559       0.078659      -1.366911
C        0.381544      -0.067204       1.330625
H       -0.301903       1.095002       2.620975
H        0.813659      -0.726403      -2.790224
H       -2.095261       0.850391      -1.505068
H        1.535947      -1.355290       2.106397
6
t =    3080.000000
C       -0.378078       0.079511      -1.364449
C        0.376918      -0.062050       1.323107
H       -0.237887       1.086991       2.604063
H        0.855872      -0.698808      -2.797679
H       -2.131287       0.816086      -1.489645
H        1.527003      -1.412084       2.175536
6
t =    3100.000000
C       -0.377246       0.079784      -1.360448
C        0.372613      -0.057721       1.313280
H       -0.179878       1.099400       2.602397
H        0.897042      -0.666103      -2.806384
H       -2.181294       0.782523      -1.480515
H        1.519182      -1.478433       2.246148
6
t =    3120.000000
C       -0.375232       0.079561      -1.354898
C        0.368930      -0.054699       1.301203
H       -0.127229       1.133901       2.617109
H        0.936074      -0.627445      -2.815488
H       -2.241887       0.747569      -1.477477
H        1.507967      -1.549963       2.315210
6
t =    3140.000000
C       -0.372287       0.078947      -1.347768
C        0.365928      -0.053096       1.287153
H       -0.077686       1.188645       2.645868
H        0.972010      -0.582221      -2.824313
H       -2.308785       0.709054      -1.480226
H        1.490065      -1.623189       2.380437
6
t =    3160.000000
C       -0.368677       0.078042      -1.339014
C        0.363510      -0.052723       1.271541
H       -0.028396       1.259018       2.683806
H        1.004022      -0.530096      -2.832327
H       -2.377597       0.665188      -1.488387
H        1.463376      -1.695498       2.440321
6
t =    3180.000000
C       -0.364643       0.076930      -1.328600
C        0.361531      -0.053243       1.254816
H        0.023110       1.339202       2.725229
H        1.031392      -0.471029      -2.839104
H       -2.444337       0.614778      -1.501523
H        1.426786      -1.764910       2.493956
6
t =    3200.000000
C       -0.360391       0.075673      -1.316541
C        0.359860      -0.054312       1.237393
H        0.078419       1.423560       2.765013
H        1.053511      -0.405250      -2.844265
H       -2.505641       0.557264      -1.519115
H        1.379921      -1.829832       2.540788
6
t =    3220.000000
C       -0.356093       0.074317      -1.302930
C        0.358413      -0.055658       1.219645
H        0.138251       1.507391       2.799236
H        1.069888      -0.333201      -2.847441
H       -2.558780       0.492617      -1.540521
H        1.322908      -1.888889       2.580416
6
t =    3240.000000
C       -0.351902       0.072891      -1.287968
C        0.357142      -0.057095       1.201925
H        0.202710       1.587141       2.825244
H        1.080183      -0.255438      -2.848250
H       -2.601585       0.421174      -1.564946
H        1.256193      -1.940864       2.612486
6
t =    3260.000000
C       -0.347961       0.071417      -1.271963
C        0.356025      -0.058518       1.184581
H        0.271583       1.660323       2.841457
H        1.084232      -0.172540      -2.846276
H       -2.632338       0.343453      -1.591411
H        1.180388      -1.984729       2.636705
6
t =    3280.000000
C       -0.344408       0.069908      -1.255319
C        0.355051      -0.059874       1.167953
H        0.344608       1.725333       2.847149
H        1.082057      -0.085000      -2.841051
H       -2.649679       0.259997      -1.618752
H        1.096179      -2.019712       2.652927
6
t =    3300.000000
C       -0.341382       0.068369      -1.238507
C        0.354202      -0.061143       1.152357
H        0.421642       1.781256       2.842259
H        1.073857       0.006842      -2.832054
H       -2.652529       0.171280      -1.645648
H        1.004269      -2.045328       2.661233
6
t =    3320.000000
C       -0.339004       0.066795      -1.221994
C        0.353446      -0.062322       1.138050
H        0.502527       1.827611       2.827233
H        1.059973       0.102624      -2.818802
H       -2.640100       0.077890      -1.670775
H        0.905533      -2.061293       2.661876
6
t =    3340.000000
C       -0.337363       0.065173      -1.206161
C        0.352743      -0.063418       1.125229
H        0.586266       1.863986       2.802920
H        1.040860       0.201141      -2.801127
H       -2.612073      -0.018644      -1.693063
H        0.801710      -2.067294       2.654937
6
t =    3360.000000
C       -0.336526       0.063496      -1.191338
C        0.352091      -0.064442       1.114135
H        0.670086       1.889881       2.770532
H        1.017215       0.299386      -2.779440
H       -2.568931      -0.114960      -1.711802
H        0.696190      -2.062962       2.639977
6
t =    3380.000000
C       -0.336586       0.061767      -1.177928
C        0.351593      -0.065416       1.105206
H        0.750707       1.904897       2.731153
H        0.990108       0.393996      -2.754765
H       -2.512199      -0.207306      -1.726767
H        0.592589      -2.048054       2.616300
6
t =    3400.000000
C       -0.337614       0.059975      -1.166248
C        0.351435      -0.066363       1.098950
H        0.826583       1.908685       2.685004
H        0.960689       0.483889      -2.728598
H       -2.444361      -0.294113      -1.738585
H        0.492407      -2.022314       2.583515
6
t =    3420.000000
C       -0.339594       0.058111      -1.156407
C        0.351812      -0.067299       1.095762
H        0.897230       1.900833       2.631782
H        0.929980       0.569551      -2.702664
H       -2.368607      -0.375435      -1.748581
H        0.395809      -1.985459       2.541578
6
t =    3440.000000
C       -0.342424       0.056187      -1.148417
C        0.352863      -0.068221       1.095859
H        0.962081       1.881222       2.571540
H        0.898945       0.651411      -2.678487
H       -2.288617      -0.451546      -1.758142
H        0.303187      -1.937714       2.490915
6
t =    3460.000000
C       -0.345918       0.054245      -1.142246
C        0.354658      -0.069091       1.099263
H        1.020405       1.850238       2.504945
H        0.868501       0.729514      -2.657210
H       -2.208476      -0.522717      -1.768535
H        0.215396      -1.880178       2.432612
6
t =    3480.000000
C       -0.349817       0.052361      -1.137817
C        0.357208      -0.069823       1.105809
H        1.071483       1.808788       2.433165
H        0.839458       0.803620      -2.639578
H       -2.132530      -0.589382      -1.780971
H        0.133475      -1.815030       2.368526
6
t =    3500.000000
C       -0.353829       0.050643      -1.135023
C        0.360494      -0.070254       1.115161
H        1.114735       1.758246       2.357706
H        0.812473       0.873289      -2.625964
H       -2.065025      -0.652195      -1.796603
H        0.058351      -1.745755       2.301378
6
t =    3520.000000
C       -0.357680       0.049222      -1.133771
C        0.364490      -0.070135       1.126860
H        1.149814       1.700416       2.280283
H        0.788027       0.937924      -2.616391
H       -2.009542      -0.711927      -1.816372
H       -0.009495      -1.677327       2.234784
6
t =    3540.000000
C       -0.361180       0.048228      -1.134031
C        0.369197      -0.069135       1.140368
H        1.176766       1.637555       2.202783
H        0.766391       0.996827      -2.610544
H       -1.968378      -0.769234      -1.840780
H       -0.070354      -1.616125       2.173112
6
t =    3560.000000
C       -0.364261       0.047764      -1.135874
C        0.374641      -0.066920       1.155121
H        1.196269       1.572546       2.127357
H        0.747603       1.049286      -2.607802
H       -1.942130      -0.824422      -1.869683
H       -0.125444      -1.569243       2.120982
6
t =    3580.000000
C       -0.366980       0.047888      -1.139455
C        0.380824      -0.063300       1.170580
H        1.209945       1.509223       2.056635
H        0.731459       1.094659      -2.607311
H       -1.929703      -0.877291      -1.902244
H       -0.176645      -1.542996       2.082341
6
t =    3600.000000
C       -0.369473       0.048600      -1.144958
C        0.387626      -0.058418       1.186277
H        1.220589       1.452680       1.993866
H        0.717568       1.132449      -2.608122
H       -1.928731      -0.927140      -1.937072
H       -0.225687      -1.540998       2.059380
6
t =    3620.000000
C       -0.371910       0.049849      -1.152535
C        0.394733      -0.052839       1.201848
H        1.232082       1.409129       1.942752
H        0.705460       1.162336      -2.609348
H       -1.936208      -0.972900      -1.972491
H       -0.273193      -1.562870       2.051951
6
t =    3640.000000
C       -0.374453       0.051548      -1.162253
C        0.401649      -0.047441       1.217045
H        1.248725       1.384868       1.906789
H        0.694701       1.184181      -2.610294
H       -1.949066      -1.013338      -2.006801
H       -0.318287      -1.604523       2.057934
6
t =    3660.000000
C       -0.377232       0.053589      -1.174076
C        0.407846      -0.043115       1.231737
H        1.273944       1.384316       1.888260
H        0.684981       1.198038      -2.610538
H       -1.964559      -1.047235      -2.038482
H       -0.358984      -1.659744       2.074227
6
t =    3680.000000
C       -0.380339       0.055852      -1.187865
C        0.412943      -0.040451       1.245915
H        1.308900       1.408057       1.887422
H        0.676165       1.204154      -2.609971
H       -1.980449      -1.073529      -2.066297
H       -0.392940      -1.721972       2.097674
6
t =    3700.000000
C       -0.383826       0.058218      -1.203389
C        0.416808      -0.039609       1.259668
H        1.351965       1.452351       1.902478
H        0.668320       1.202972      -2.608790
H       -1.995054      -1.091391      -2.089331
H       -0.418056      -1.785419       2.125566
6
t =    3720.000000
C       -0.387718       0.060568      -1.220345
C        0.419521      -0.040399       1.273120
H        1.399472       1.510542       1.930353
H        0.661722       1.195141      -2.607488
H       -2.007227      -1.100258      -2.106985
H       -0.432754      -1.845484       2.155763
6
t =    3740.000000
C       -0.392013       0.062791      -1.238368
C        0.421266      -0.042471       1.286366
H        1.447047       1.575210       1.967649
H        0.656849       1.181492      -2.606814
H       -2.016301      -1.099849      -2.118956
H       -0.436016      -1.898714       2.186641
6
t =    3760.000000
C       -0.396693       0.064784      -1.257052
C        0.422245      -0.045459       1.299438
H        1.490683       1.639768       2.011291
H        0.654355       1.163004      -2.607713
H       -2.022057      -1.090167      -2.125210
H       -0.427327      -1.942617       2.216982
6
t =    3780.000000
C       -0.401719       0.066465      -1.275968
C        0.422625      -0.049063       1.312298
H        1.527225       1.699119       2.058776
H        0.655014       1.140735      -2.611235
H       -2.024696      -1.071506      -2.125967
H       -0.406580      -1.975459       2.245878
6
t =    3800.000000
C       -0.407027       0.067773      -1.294679
C        0.422537      -0.053052       1.324855
H        1.554420       1.749657       2.108167
H        0.659636       1.115715      -2.618415
H       -2.024849      -1.044453      -2.121692
H       -0.373991      -1.996118       2.272663
6
t =    3820.000000
C       -0.412515       0.068690      -1.312759
C        0.422071      -0.057253       1.336978
H        1.570789       1.788991       2.157981
H        0.668940       1.088818      -2.630123
H       -2.023595      -1.009890      -2.113084
H       -0.330028      -2.004010       2.296873
6
t =    3840.000000
C       -0.418033       0.069240      -1.329813
C        0.421295      -0.061523       1.348517
H        1.575452       1.815618       2.207064
H        0.683425       1.060637      -2.646916
H       -2.022479      -0.968983      -2.101067
H       -0.275352      -1.999068       2.318240
6
t =    3860.000000
C       -0.423368       0.069500      -1.345489
C        0.420255      -0.065725       1.359306
H        1.567981       1.828660       2.254482
H        0.703240       1.031393      -2.668921
H       -2.023481      -0.923128      -2.086752
H       -0.210789      -1.981787       2.336698
6
t =    3880.000000
C       -0.428250       0.069590      -1.359488
C        0.418986      -0.069708       1.369173
H        1.548287       1.827698       2.299443
H        0.728116       1.000923      -2.695788
H       -2.028914      -0.873843      -2.071369
H       -0.137303      -1.953291       2.352423
6
t =    3900.000000
C       -0.432369       0.069652      -1.371571
C        0.417516      -0.073291       1.377933
H        1.516559       1.812698       2.341263
H        0.757358       0.968733      -2.726722
H       -2.041184      -0.822581      -2.056145
H       -0.055989      -1.915432       2.365880
6
t =    3920.000000
C       -0.435417       0.069819      -1.381559
C        0.415864      -0.076259       1.385380
H        1.473229       1.784024       2.379367
H        0.789918       0.934120      -2.760585
H       -2.062406      -0.770496      -2.042139
H        0.031963      -1.870877       2.377882
6
t =    3940.000000
C       -0.437131       0.070188      -1.389335
C        0.414035      -0.078368       1.391283
H        1.418971       1.742509       2.413322
H        0.824507       0.896312      -2.796038
H       -2.093934      -0.718216      -2.030067
H        0.125336      -1.823118       2.389618
6
t =    3960.000000
C       -0.437345       0.070797      -1.394840
C        0.412011      -0.079367       1.395375
H        1.354724       1.689578       2.442916
H        0.859733       0.854593      -2.831679
H       -2.135945      -0.665733      -2.020182
H        0.223027      -1.776308       2.402599
6
t =    3980.000000
C       -0.436013       0.071626      -1.398060
C        0.409726      -0.079053       1.397365
H        1.281719       1.627409       2.468276
H        0.894214       0.808396      -2.866150
H       -2.187254      -0.612484      -2.012261
H        0.324204      -1.734794       2.418433
6
t =    4000.000000
C       -0.433207       0.072611      -1.399019
C        0.407067      -0.077351       1.396960
H        1.201507       1.559099       2.490032
H        0.926667       0.757364      -2.898210
H       -2.245456      -0.557580      -2.005701
H        0.428415      -1.702362       2.438417
