               t           phase
     20.00000000     -3.97521876
     40.00000000     -1.77773331
     60.00000000     -5.96295570
     80.00000000     -3.92144825
    100.00000000     -1.87569913
    120.00000000     -6.05206227
    140.00000000     -3.84722085
    160.00000000     -1.52929566
    180.00000000     -5.37767721
    200.00000000     -2.82205268
    220.00000000     -0.14082218
    240.00000000     -3.62163906
    260.00000000     -0.72284354
    280.00000000     -4.05396158
    300.00000000     -1.08609042
    320.00000000     -4.38156637
    340.00000000     -1.31411898
    360.00000000     -4.36446100
    380.00000000     -0.90941015
    400.00000000     -3.52092542
    420.00000000     -5.97329222
    440.00000000     -2.05360714
    460.00000000     -4.37375573
    480.00000000     -0.37047202
    500.00000000     -2.57370670
    520.00000000     -4.63888209
    540.00000000     -0.21336290
    560.00000000     -1.79930566
    580.00000000     -3.06148809
    600.00000000     -3.96149811
    620.00000000     -4.48420148
    640.00000000     -4.66924383
    660.00000000     -4.59650235
    680.00000000     -4.36147383
    700.00000000     -4.06316300
    720.00000000     -3.82652405
    740.00000000     -3.82280136
    760.00000000     -4.23846335
    780.00000000     -5.23623706
    800.00000000     -0.63374906
    820.00000000     -3.01001260
    840.00000000     -6.00590256
    860.00000000     -3.20251138
    880.00000000     -0.73050401
    900.00000000     -4.73726206
    920.00000000     -2.54780576
    940.00000000     -0.35576963
    960.00000000     -4.36134550
    980.00000000     -1.91655031
   1000.00000000     -5.51271567
   1020.00000000     -2.52604529
   1040.00000000     -5.49231351
   1060.00000000     -1.84211727
   1080.00000000     -4.15587115
   1100.00000000     -6.16361052
   1120.00000000     -1.58051770
   1140.00000000     -2.95894452
   1160.00000000     -4.00997599
   1180.00000000     -4.76090599
   1200.00000000     -5.28206523
   1220.00000000     -5.67434733
   1240.00000000     -6.04024052
   1260.00000000     -0.17388180
   1280.00000000     -0.70546005
   1300.00000000     -1.40850050
   1320.00000000     -2.33564729
   1340.00000000     -3.51910316
   1360.00000000     -4.96913082
   1380.00000000     -0.40151276
   1400.00000000     -2.36962884
   1420.00000000     -4.56096816
   1440.00000000     -0.64556139
   1460.00000000     -3.12929913
   1480.00000000     -5.66343982
   1500.00000000     -1.90729836
   1520.00000000     -4.39466695
   1540.00000000     -0.56949243
   1560.00000000     -3.06324396
   1580.00000000     -5.70440683
   1600.00000000     -2.32450980
   1620.00000000     -5.53534079
   1640.00000000     -2.69649660
   1660.00000000     -6.21298719
   1680.00000000     -3.36961534
   1700.00000000     -0.38622265
   1720.00000000     -3.54489897
   1740.00000000     -0.26070305
   1760.00000000     -3.02394804
   1780.00000000     -5.45666095
   1800.00000000     -1.23266609
   1820.00000000     -2.96118361
   1840.00000000     -4.46430318
   1860.00000000     -5.85945273
   1880.00000000     -0.95323181
   1900.00000000     -2.35829634
   1920.00000000     -3.79630421
   1940.00000000     -5.24003775
   1960.00000000     -0.35714197
   1980.00000000     -1.65908882
   2000.00000000     -2.82329471
   2020.00000000     -3.82471812
   2040.00000000     -4.65638532
   2060.00000000     -5.33014941
   2080.00000000     -5.90040803
   2100.00000000     -0.19330802
   2120.00000000     -0.92940898
   2140.00000000     -1.98648404
   2160.00000000     -3.47122090
   2180.00000000     -5.38956497
   2200.00000000     -1.37784058
   2220.00000000     -3.90463335
   2240.00000000     -0.34752957
   2260.00000000     -3.25851657
   2280.00000000     -0.06364779
   2300.00000000     -3.31363679
   2320.00000000     -0.43434150
   2340.00000000     -4.00681415
   2360.00000000     -1.49094650
   2380.00000000     -5.46319760
   2400.00000000     -3.32877333
   2420.00000000     -1.29933101
   2440.00000000     -5.55571976
   2460.00000000     -3.42165379
   2480.00000000     -1.09157729
   2500.00000000     -4.81081735
   2520.00000000     -2.04972400
   2540.00000000     -5.48991847
   2560.00000000     -2.72406426
   2580.00000000     -0.16116067
   2600.00000000     -4.10150276
   2620.00000000     -1.88510339
   2640.00000000     -5.95508594
   2660.00000000     -3.67393748
   2680.00000000     -1.31438476
   2700.00000000     -5.17151922
   2720.00000000     -2.69762556
   2740.00000000     -0.21647424
   2760.00000000     -4.07747224
   2780.00000000     -1.77961412
   2800.00000000     -5.91923866
   2820.00000000     -3.90745014
   2840.00000000     -1.95783694
   2860.00000000     -6.25665961
   2880.00000000     -4.13840170
   2900.00000000     -1.80989732
   2920.00000000     -5.52202994
   2940.00000000     -2.73233155
   2960.00000000     -6.08153655
   2980.00000000     -3.09734425
   3000.00000000     -0.12991339
   3020.00000000     -3.47085442
   3040.00000000     -0.51323270
   3060.00000000     -3.76661838
   3080.00000000     -0.60463172
   3100.00000000     -3.51782073
   3120.00000000     -6.13406169
   3140.00000000     -2.10686896
   3160.00000000     -4.00486783
   3180.00000000     -5.61255031
   3200.00000000     -0.74326169
   3220.00000000     -2.04895148
   3240.00000000     -3.29888805
   3260.00000000     -4.50678097
   3280.00000000     -5.65035749
   3300.00000000     -0.39797933
   3320.00000000     -1.27172155
   3340.00000000     -2.00557546
   3360.00000000     -2.69618867
   3380.00000000     -3.44946171
   3400.00000000     -4.30439103
   3420.00000000     -5.22336331
   3440.00000000     -6.16038516
   3460.00000000     -0.82857272
   3480.00000000     -1.84073706
   3500.00000000     -3.00205605
   3520.00000000     -4.42499438
   3540.00000000     -6.21768872
   3560.00000000     -2.16626563
   3580.00000000     -4.84243461
   3600.00000000     -1.62348657
   3620.00000000     -4.98301857
   3640.00000000     -2.24505887
   3660.00000000     -5.85388101
   3680.00000000     -3.12441906
   3700.00000000     -0.26557720
   3720.00000000     -3.56297162
   3740.00000000     -0.51613940
   3760.00000000     -3.77320636
   3780.00000000     -0.82223429
   3800.00000000     -4.23894123
   3820.00000000     -1.42511522
   3840.00000000     -4.88817739
   3860.00000000     -1.99136584
   3880.00000000     -5.23199243
   3900.00000000     -1.98425636
   3920.00000000     -4.76914727
   3940.00000000     -0.99128566
   3960.00000000     -3.20567434
   3980.00000000     -5.13544728
   4000.00000000     -0.52092406
