6
t =    2330.000000
C       -0.660586      -0.408026      -1.214050
C        0.625910       0.134278       1.149609
H       -0.517073      -0.142591       3.052031
H        0.987196      -1.187771      -2.350352
H       -1.027900       1.030901      -2.905482
H        0.970554       3.559004       2.971107
6
t =    2335.000000
C       -0.658958      -0.408497      -1.214642
C        0.626876       0.138872       1.151373
H       -0.517623      -0.169069       3.033030
H        0.965274      -1.201903      -2.336810
H       -1.033451       1.034616      -2.906990
H        0.967691       3.546797       2.964124
6
t =    2340.000000
C       -0.657163      -0.408850      -1.215188
C        0.627702       0.143299       1.153019
H       -0.517731      -0.194888       3.013698
H        0.943178      -1.216273      -2.323182
H       -1.039500       1.037908      -2.907758
H        0.964743       3.535194       2.957499
6
t =    2345.000000
C       -0.655205      -0.409081      -1.215685
C        0.628388       0.147554       1.154545
H       -0.517416      -0.220022       2.994087
H        0.920962      -1.230898      -2.309513
H       -1.046048       1.040763      -2.907786
H        0.961704       3.524183       2.951222
6
t =    2350.000000
C       -0.653081      -0.409182      -1.216128
C        0.628932       0.151634       1.155948
H       -0.516679      -0.244437       2.974256
H        0.898675      -1.245808      -2.295858
H       -1.053120       1.043166      -2.907081
H        0.958565       3.513723       2.945257
6
t =    2355.000000
C       -0.650759      -0.409139      -1.216569
C        0.629276       0.155744       1.157394
H       -0.514967      -0.268782       2.954213
H        0.876104      -1.261464      -2.282283
H       -1.060672       1.045297      -2.905703
H        0.955236       3.502146       2.938392
6
t =    2360.000000
C       -0.648360      -0.409025      -1.217066
C        0.629497       0.160038       1.158946
H       -0.512438      -0.293808       2.933808
H        0.853281      -1.278017      -2.268727
H       -1.068131       1.047330      -2.903529
H        0.951791       3.489201       2.930495
6
t =    2380.000000
C       -0.638123      -0.407842      -1.219594
C        0.629233       0.179106       1.166215
H       -0.494493      -0.400970       2.848866
H        0.760034      -1.353599      -2.215073
H       -1.096639       1.054444      -2.886829
H        0.936852       3.423714       2.888637
6
t =    2400.000000
C       -0.627261      -0.405159      -1.222766
C        0.627338       0.201244       1.175032
H       -0.465387      -0.519411       2.761351
H        0.666899      -1.446915      -2.165149
H       -1.122319       1.059271      -2.857708
H        0.919785       3.335104       2.829895
6
t =    2420.000000
C       -0.616023      -0.400598      -1.226328
C        0.623984       0.226377       1.185164
H       -0.426513      -0.648716       2.674138
H        0.576199      -1.560328      -2.121098
H       -1.144846       1.061074      -2.816952
H        0.900273       3.222460       2.754064
6
t =    2440.000000
C       -0.604477      -0.393897      -1.230066
C        0.619311       0.254274       1.196299
H       -0.379060      -0.787930       2.589723
H        0.488349      -1.694424      -2.083465
H       -1.164051       1.059182      -2.765749
H        0.878024       3.085701       2.661567
6
t =    2460.000000
C       -0.592493      -0.385048      -1.233816
C        0.613405       0.284539       1.208085
H       -0.323592      -0.935300       2.509708
H        0.401592      -1.846706      -2.050815
H       -1.179826       1.053293      -2.705887
H        0.852735       2.925517       2.553377
6
t =    2480.000000
C       -0.579829      -0.374362      -1.237409
C        0.606289       0.316663       1.220206
H       -0.259853      -1.088152       2.434421
H        0.312811      -2.011454      -2.020282
H       -1.192154       1.043824      -2.639988
H        0.824042       2.742867       2.430703
6
t =    2500.000000
C       -0.566207      -0.362413      -1.240612
C        0.597933       0.350035       1.232400
H       -0.186975      -1.242747       2.363047
H        0.218885      -2.180901      -1.988730
H       -1.201392       1.032097      -2.571509
H        0.791625       2.538996       2.294986
6
t =    2520.000000
C       -0.551380      -0.349902      -1.243099
C        0.588267       0.383818       1.244370
H       -0.104000      -1.394340       2.294305
H        0.117735      -2.346928      -1.953745
H       -1.208550       1.020285      -2.504496
H        0.755494       2.317227       2.148815
6
t =    2540.000000
C       -0.535155      -0.337539      -1.244474
C        0.577190       0.416577       1.255545
H       -0.010384      -1.537683       2.227181
H        0.008640      -2.502372      -1.913992
H       -1.215317       1.011174      -2.443207
H        0.716449       2.087862       1.998214
6
t =    2560.000000
C       -0.517406      -0.325945      -1.244331
C        0.564529       0.445426       1.264685
H        0.093761      -1.667681       2.161267
H       -0.108019      -2.641622      -1.869086
H       -1.223818       1.007683      -2.391573
H        0.676888       1.879052       1.857062
6
t =    2580.000000
C       -0.498079      -0.315590      -1.242332
C        0.549964       0.464751       1.269485
H        0.207720      -1.779858       2.096738
H       -0.231182      -2.760652      -1.819285
H       -1.236154       1.012136      -2.352516
H        0.641729       1.752412       1.751777
6
t =    2600.000000
C       -0.477216      -0.306757      -1.238293
C        0.533185       0.467764       1.267560
H        0.330385      -1.870689       2.034145
H       -0.359491      -2.856839      -1.765222
H       -1.253815       1.025512      -2.327339
H        0.616391       1.785003       1.709957
6
t =    2620.000000
C       -0.454992      -0.299538      -1.232252
C        0.514448       0.454824       1.259483
H        0.460507      -1.937897       1.974209
H       -0.491507      -2.928805      -1.707732
H       -1.277183       1.047076      -2.315519
H        0.600138       1.970736       1.724822
6
t =    2640.000000
C       -0.431783      -0.293817      -1.224375
C        0.494373       0.432617       1.247671
H        0.596713      -1.980815       1.917836
H       -0.625384      -2.976419      -1.647772
H       -1.305090       1.074636      -2.315096
H        0.588394       2.229989       1.767669
6
t =    2645.000000
C       -0.426011      -0.292619      -1.222147
C        0.489320       0.426396       1.244384
H        0.631070      -1.987748       1.904748
H       -0.658339      -2.983827      -1.632801
H       -1.312204       1.081686      -2.316515
H        0.585547       2.297092       1.779811
6
t =    2650.000000
C       -0.420275      -0.291531      -1.219838
C        0.484282       0.419950       1.240997
H        0.665452      -1.993011       1.892121
H       -0.691021      -2.989167      -1.617909
H       -1.319346       1.088649      -2.318524
H        0.582677       2.364538       1.792386
6
t =    2655.000000
C       -0.414586      -0.290571      -1.217475
C        0.479278       0.413310       1.237545
H        0.699809      -1.996396       1.879980
H       -0.723433      -2.992201      -1.603145
H       -1.326523       1.095390      -2.321076
H        0.579748       2.431847       1.805294
6
t =    2660.000000
C       -0.408943      -0.289749      -1.215083
C        0.474314       0.406504       1.234053
H        0.734140      -1.997749       1.868313
H       -0.755620      -2.992833      -1.588522
H       -1.333755       1.101827      -2.324106
H        0.576753       2.498633       1.818455
6
t =    2665.000000
C       -0.403340      -0.289062      -1.212675
C        0.469387       0.399557       1.230539
H        0.768460      -1.996978       1.857097
H       -0.787633      -2.991070      -1.574035
H       -1.341052       1.107905      -2.327541
H        0.573700       2.564570       1.831794
6
t =    2670.000000
C       -0.397775      -0.288505      -1.210256
C        0.464492       0.392488       1.227007
H        0.802781      -1.994094       1.846312
H       -0.819486      -2.987001      -1.559668
H       -1.348397       1.113613      -2.331321
H        0.570601       2.629446       1.845245
6
t =    2675.000000
C       -0.392247      -0.288067      -1.207829
C        0.459626       0.385314       1.223459
H        0.837104      -1.989118       1.835942
H       -0.851184      -2.980721      -1.545409
H       -1.355769       1.118932      -2.335387
H        0.567466       2.693079       1.858756
6
t =    2680.000000
C       -0.386758      -0.287741      -1.205394
C        0.454788       0.378051       1.219898
H        0.871424      -1.982081       1.825980
H       -0.882723      -2.972325      -1.531249
H       -1.363134       1.123846      -2.339686
H        0.564301       2.755323       1.872281
6
t =    2685.000000
C       -0.381311      -0.287516      -1.202955
C        0.449977       0.370711       1.216321
H        0.905728      -1.973010       1.816422
H       -0.914093      -2.961912      -1.517184
H       -1.370460       1.128335      -2.344167
H        0.561110       2.816059       1.885793
6
t =    2705.000000
C       -0.359972      -0.287544      -1.193169
C        0.431033       0.340715       1.201860
H        1.042566      -1.916553       1.782267
H       -1.037845      -2.901116      -1.461834
H       -1.399029       1.141846      -2.363445
H        0.548084       3.042801       1.939529
6
t =    2725.000000
C       -0.339080      -0.287803      -1.184353
C        0.411944       0.311675       1.187687
H        1.181093      -1.826308       1.756898
H       -1.160565      -2.824280      -1.403974
H       -1.425969       1.149037      -2.381005
H        0.537738       3.217382       1.988394
6
t =    2745.000000
C       -0.319436      -0.288381      -1.175457
C        0.392464       0.282592       1.173304
H        1.321080      -1.716846       1.737293
H       -1.273997      -2.725621      -1.344872
H       -1.447793       1.149657      -2.396355
H        0.531059       3.361808       2.029571
6
t =    2765.000000
C       -0.301448      -0.289129      -1.166504
C        0.372998       0.253239       1.158523
H        1.460559      -1.591311       1.723793
H       -1.376786      -2.607206      -1.285508
H       -1.462920       1.142581      -2.408259
H        0.527098       3.483340       2.065007
6
t =    2785.000000
C       -0.285570      -0.290003      -1.157896
C        0.353945       0.223650       1.143538
H        1.597849      -1.452855       1.717043
H       -1.467282      -2.471517      -1.226704
H       -1.470291       1.127418      -2.415355
H        0.525473       3.587069       2.095986
6
t =    2805.000000
C       -0.272269      -0.291037      -1.150127
C        0.335754       0.194066       1.128723
H        1.731426      -1.304755       1.717515
H       -1.544124      -2.321624      -1.169419
H       -1.469018       1.104427      -2.416742
H        0.525690       3.676631       2.123504
6
t =    2825.000000
C       -0.261923      -0.292275      -1.143645
C        0.318882       0.164837       1.114514
H        1.859804      -1.150142       1.725372
H       -1.606700      -2.161532      -1.114713
H       -1.458592       1.074506      -2.412131
H        0.527171       3.754620       2.148345
6
t =    2845.000000
C       -0.254769      -0.293734      -1.138771
C        0.303819       0.136337       1.101313
H        1.981073      -0.991759       1.740475
H       -1.655463      -1.996402      -1.063770
H       -1.439032       1.039247      -2.401897
H        0.529277       3.823077       2.171205
6
t =    2850.000000
C       -0.253492      -0.294131      -1.137810
C        0.300431       0.129384       1.098206
H        2.009796      -0.951986       1.745338
H       -1.665761      -1.955366      -1.051860
H       -1.432830       1.029997      -2.398648
H        0.529784       3.839041       2.176740
6
t =    2855.000000
C       -0.252420      -0.294542      -1.136948
C        0.297206       0.122506       1.095175
H        2.037809      -0.912194       1.750633
H       -1.675336      -1.914552      -1.040312
H       -1.426127       1.020627      -2.395151
H        0.530271       3.854589       2.182221
6
t =    2860.000000
C       -0.251552      -0.294966      -1.136177
C        0.294158       0.115709       1.092217
H        2.065028      -0.872448       1.756360
H       -1.684221      -1.874095      -1.029165
H       -1.418955       1.011205      -2.391439
H        0.530723       3.869780       2.187667
6
t =    2865.000000
C       -0.250887      -0.295405      -1.135484
C        0.291302       0.109004       1.089325
H        2.091343      -0.832839       1.762523
H       -1.692439      -1.834151      -1.018469
H       -1.411364       1.001812      -2.387547
H        0.531126       3.884689       2.193106
6
t =    2870.000000
C       -0.250424      -0.295863      -1.134850
C        0.288656       0.102402       1.086483
H        2.116603      -0.793514       1.769132
H       -1.699984      -1.794910      -1.008293
H       -1.403439       0.992564      -2.383510
H        0.531467       3.899432       2.198572
6
t =    2875.000000
C       -0.250158      -0.296348      -1.134249
C        0.286241       0.095925       1.083670
H        2.140611      -0.754721       1.776210
H       -1.706788      -1.756606      -0.998728
H       -1.395322       0.983614      -2.379346
H        0.531739       3.914176       2.204110
6
t =    2880.000000
C       -0.250079      -0.296879      -1.133646
C        0.284074       0.089619       1.080847
H        2.163067      -0.716975       1.783795
H       -1.712598      -1.719581      -0.989904
H       -1.387324       0.975219      -2.375003
H        0.531959       3.929219       2.209779
6
t =    2885.000000
C       -0.250140      -0.297505      -1.133041
C        0.282132       0.083589       1.077992
H        2.183623      -0.681366       1.791903
H       -1.716753      -1.684302      -0.981889
H       -1.380141       0.967778      -2.370169
H        0.532229       3.945016       2.215620
6
t =    2890.000000
C       -0.250236      -0.298270      -1.132604
C        0.280285       0.077964       1.075212
H        2.202473      -0.648953       1.800354
H       -1.718590      -1.650897      -0.974300
H       -1.374538       0.961442      -2.364180
H        0.532747       3.961623       2.221491
6
t =    2895.000000
C       -0.250305      -0.299161      -1.132504
C        0.278437       0.072752       1.072648
H        2.220217      -0.619453       1.808934
H       -1.718435      -1.619052      -0.966650
H       -1.370430       0.955899      -2.356782
H        0.533559       3.978489       2.227200
6
t =    2900.000000
C       -0.250332      -0.300147      -1.132798
C        0.276570       0.067916       1.070359
H        2.237180      -0.592344       1.817552
H       -1.716816      -1.588590      -0.958738
H       -1.367523       0.950905      -2.348033
H        0.534619       3.995237       2.232678
6
t =    2905.000000
C       -0.250308      -0.301208      -1.133499
C        0.274685       0.063425       1.068362
H        2.253507      -0.567274       1.826165
H       -1.714149      -1.559463      -0.950472
H       -1.365617       0.946333      -2.338028
H        0.535882       4.011717       2.237921
6
t =    2910.000000
C       -0.250219      -0.302329      -1.134612
C        0.272781       0.059250       1.066663
H        2.269290      -0.544012       1.834733
H       -1.710775      -1.531664      -0.941785
H       -1.364597       0.942114      -2.326846
H        0.537312       4.027933       2.242962
6
t =    2915.000000
C       -0.250048      -0.303496      -1.136134
C        0.270857       0.055352       1.065261
H        2.284609      -0.522338       1.843213
H       -1.707021      -1.505174      -0.932613
H       -1.364371       0.938193      -2.314583
H        0.538884       4.044003       2.247862
6
t =    2935.000000
C       -0.248451      -0.308461      -1.146169
C        0.263024       0.041966       1.062547
H        2.341845      -0.448520       1.875871
H       -1.691755      -1.411919      -0.890661
H       -1.370123       0.925047      -2.256345
H        0.546374       4.108577       2.266811
6
t =    2955.000000
C       -0.245561      -0.312885      -1.160791
C        0.256123       0.029288       1.063699
H        2.391579      -0.378620       1.905857
H       -1.693525      -1.339737      -0.841072
H       -1.378799       0.916122      -2.195823
H        0.554861       4.179044       2.287099
6
t =    2975.000000
C       -0.241299      -0.316445      -1.178994
C        0.250750       0.016487       1.068283
H        2.431716      -0.307529       1.932685
H       -1.719513      -1.290265      -0.783928
H       -1.388940       0.913551      -2.139535
H        0.564069       4.255858       2.308998
6
t =    2995.000000
C       -0.235700      -0.319274      -1.200001
C        0.247157       0.003325       1.075902
H        2.460736      -0.234068       1.955880
H       -1.769910      -1.262137      -0.719502
H       -1.401276       0.919497      -2.091187
H        0.573900       4.338727       2.332443
6
t =    3015.000000
C       -0.229106      -0.321739      -1.223046
C        0.245436      -0.010243       1.086120
H        2.477604      -0.158393       1.975092
H       -1.839634      -1.251299      -0.649263
H       -1.416844       0.935439      -2.052770
H        0.584300       4.427171       2.357303
6
t =    3035.000000
C       -0.222056      -0.324215      -1.247372
C        0.245594      -0.024186       1.098470
H        2.481673      -0.081181       1.990100
H       -1.921192      -1.252792      -0.575733
H       -1.436105       0.961730      -2.024844
H        0.595221       4.520657       2.383435
6
t =    3055.000000
C       -0.215120      -0.326942      -1.272284
C        0.247582      -0.038440       1.112467
H        2.472637      -0.003285       2.000814
H       -2.007340      -1.262221      -0.501785
H       -1.458562       0.997461      -2.006818
H        0.606620       4.618651       2.410696
6
t =    3075.000000
C       -0.208808      -0.329987      -1.297182
C        0.251313      -0.052932       1.127631
H        2.450518       0.074429       2.007272
H       -2.092413      -1.276310      -0.430057
H       -1.482796       1.040661      -1.997358
H        0.618455       4.720640       2.438957
6
t =    3095.000000
C       -0.203532      -0.333287      -1.321560
C        0.256679      -0.067589       1.143493
H        2.415694       0.151196       2.009658
H       -2.172541      -1.292851      -0.362715
H       -1.506784       1.088732      -1.994824
H        0.630684       4.826145       2.468092
6
t =    3115.000000
C       -0.199614      -0.336705      -1.344981
C        0.263551      -0.082345       1.159604
H        2.368948       0.226440       2.008325
H       -2.245367      -1.310450      -0.301448
H       -1.528277       1.138914      -1.997607
H        0.643267       4.934717       2.497986
6
t =    3135.000000
C       -0.197292      -0.340079      -1.367057
C        0.271780      -0.097160       1.175531
H        2.311539       0.299882       2.003841
H       -2.309659      -1.328277      -0.247564
H       -1.545098       1.188648      -2.004337
H        0.656164       5.045938       2.528531
6
t =    3155.000000
C       -0.196744      -0.343254      -1.387435
C        0.281195      -0.112024       1.190855
H        2.245254       0.371655       1.997042
H       -2.364970      -1.345875      -0.202059
H       -1.555312       1.235786      -2.013966
H        0.669339       5.159417       2.559620
6
t =    3175.000000
C       -0.198091      -0.346096      -1.405788
C        0.291592      -0.126977       1.205160
H        2.172444       0.442404       1.989103
H       -2.411345      -1.363009      -0.165647
H       -1.557301       1.278677      -2.025770
H        0.682757       5.274789       2.591157
6
t =    3195.000000
C       -0.201412      -0.348503      -1.421827
C        0.302728      -0.142103       1.218027
H        2.095969       0.513315       1.981585
H       -2.449035      -1.379554      -0.138728
H       -1.549819       1.316155      -2.039291
H        0.696388       5.391711       2.623050
6
t =    3215.000000
C       -0.206737      -0.350412      -1.435309
C        0.314312      -0.157522       1.229039
H        2.019051       0.586001       1.976399
H       -2.478226      -1.395390      -0.121375
H       -1.532051       1.347467      -2.054226
H        0.710205       5.509869       2.655217
6
t =    3235.000000
C       -0.214054      -0.351802      -1.446049
C        0.326024      -0.173359       1.237809
H        1.944921       0.662258       1.975615
H       -2.498836      -1.410344      -0.113418
H       -1.503629       1.372180      -2.070306
H        0.724183       5.628978       2.687591
6
t =    3255.000000
C       -0.223318      -0.352700      -1.453919
C        0.337571      -0.189713       1.244011
H        1.876229       0.743736       1.981083
H       -2.510476      -1.424177      -0.114622
H       -1.464588       1.390134      -2.087245
H        0.738295       5.748801       2.720117
6
t =    3275.000000
C       -0.234468      -0.353181      -1.458827
C        0.348759      -0.206616       1.247423
H        1.814314       0.831477       1.994019
H       -2.512523      -1.436598      -0.124864
H       -1.415284       1.401459      -2.104766
H        0.752511       5.869147       2.752756
6
t =    3295.000000
C       -0.247440      -0.353366      -1.460701
C        0.359547      -0.223996       1.247938
H        1.758786       0.925409       2.014710
H       -2.504244      -1.447298      -0.144220
H       -1.356330       1.406636      -2.122651
H        0.766805       5.989874       2.785483
6
t =    3315.000000
C       -0.262167      -0.353423      -1.459475
C        0.370039      -0.241645       1.245570
H        1.707745       1.024019       2.042461
H       -2.484906      -1.455991      -0.173023
H       -1.288554       1.406533      -2.140792
H        0.781152       6.110882       2.818277
6
t =    3335.000000
C       -0.278585      -0.353565      -1.455090
C        0.380425      -0.259231       1.240438
H        1.658565       1.124481       2.075794
H       -2.453896      -1.462477      -0.211897
H       -1.212949       1.402422      -2.159200
H        0.795533       6.232102       2.851124
6
t =    3355.000000
C       -0.296623      -0.354043      -1.447500
C        0.390903      -0.276332       1.232744
H        1.608799       1.223130       2.112771
H       -2.410834      -1.466717      -0.261755
H       -1.130633       1.395947      -2.177976
H        0.809934       6.353486       2.884014
6
t =    3375.000000
C       -0.316186      -0.355130      -1.436677
C        0.401611      -0.292485       1.222739
H        1.556860       1.316028       2.151290
H       -2.355689      -1.468929      -0.323676
H       -1.042820       1.389010      -2.197236
H        0.824348       6.475004       2.916940
6
t =    3395.000000
C       -0.337114      -0.357083      -1.422599
C        0.412576      -0.307237       1.210651
H        1.502262       1.399439       2.189389
H       -2.288897      -1.469615      -0.398596
H       -0.950799       1.383541      -2.217069
H        0.838771       6.596645       2.949898
6
t =    3415.000000
C       -0.359165      -0.360084      -1.405194
C        0.423731      -0.320221       1.196599
H        1.445211       1.470288       2.225495
H       -2.211550      -1.469455      -0.486952
H       -0.855790       1.381105      -2.237745
H        0.853199       6.718411       2.982889
6
t =    3435.000000
C       -0.382048      -0.364161      -1.384383
C        0.435012      -0.331222       1.180648
H        1.385943       1.526466       2.258388
H       -2.125726      -1.469323      -0.588583
H       -0.758631       1.382419      -2.259889
H        0.867632       6.840311       3.015915
6
t =    3455.000000
C       -0.405417      -0.369111      -1.360225
C        0.446397      -0.340160       1.162936
H        1.324553       1.566720       2.286937
H       -2.035032      -1.470863      -0.702696
H       -0.659683       1.387012      -2.284139
H        0.882066       6.962358       3.048973
6
t =    3475.000000
C       -0.428774      -0.374452      -1.333004
C        0.457880      -0.347033       1.143725
H        1.261221       1.590336       2.309991
H       -1.945309      -1.477450      -0.827738
H       -0.559128       1.393214      -2.310613
H        0.896501       7.084558       3.082062
6
t =    3495.000000
C       -0.451381      -0.379399      -1.303205
C        0.469431      -0.351886       1.123370
H        1.196333       1.596944       2.326427
H       -1.865009      -1.494995      -0.961616
H       -0.457338       1.398490      -2.338733
H        0.910934       7.206917       3.115181
6
t =    3515.000000
C       -0.472348      -0.382953      -1.271373
C        0.480995      -0.354799       1.102275
H        1.130464       1.586478       2.335252
H       -1.803872      -1.531566      -1.102809
H       -0.355076       1.400009      -2.367367
H        0.925366       7.329439       3.148328
6
t =    3535.000000
C       -0.490996      -0.384210      -1.237956
C        0.492499      -0.355892       1.080876
H        1.064306       1.559227       2.335710
H       -1.768679      -1.594250      -1.251783
H       -0.253473       1.395232      -2.395112
H        0.939796       7.452127       3.181504
6
t =    3555.000000
C       -0.507316      -0.382842      -1.203344
C        0.503883      -0.355321       1.059629
H        0.998646       1.515931       2.327420
H       -1.758284      -1.683964      -1.410430
H       -0.153877       1.382306      -2.420522
H        0.954228       7.574981       3.214707
6
t =    3575.000000
C       -0.521982      -0.379282      -1.168113
C        0.515118      -0.353285       1.039010
H        0.934374       1.457911       2.310520
H       -1.763777      -1.793489      -1.579011
H       -0.057699       1.360196      -2.442259
H        0.968661       7.697997       3.247939
6
t =    3595.000000
C       -0.535907      -0.374386      -1.133167
C        0.526217      -0.350031       1.019490
H        0.872521       1.387249       2.285856
H       -1.774087      -1.911432      -1.754352
H        0.033678       1.328593      -2.459177
H        0.983098       7.821163       3.281198
6
t =    3615.000000
C       -0.549833      -0.368992      -1.099601
C        0.537223      -0.345876       1.001489
H        0.814282       1.307027       2.255215
H       -1.780773      -2.027371      -1.931110
H        0.118941       1.287759      -2.470399
H        0.997540       7.944466       3.314483
6
t =    3635.000000
C       -0.564226      -0.363717      -1.068476
C        0.548193      -0.341229       0.985311
H        0.760984       1.221594       2.221630
H       -1.779136      -2.134117      -2.103834
H        0.196898       1.238376      -2.475374
H        1.011987       8.067886       3.347792
6
t =    3655.000000
C       -0.579324      -0.358950      -1.040677
C        0.559187      -0.336608       0.971073
H        0.713979       1.136733       2.189658
H       -1.767342      -2.227602      -2.268113
H        0.266525       1.181420      -2.473917
H        1.026440       8.191405       3.381122
6
t =    3675.000000
C       -0.595211      -0.354908      -1.016845
C        0.570252      -0.332627       0.958657
H        0.674423       1.059451       2.165402
H       -1.745302      -2.306057      -2.420865
H        0.327000       1.118025      -2.466198
H        1.040897       8.315004       3.414471
6
t =    3695.000000
C       -0.611863      -0.351680      -0.997355
C        0.581429      -0.329917       0.947742
H        0.643001       0.996991       2.155837
H       -1.713894      -2.369311      -2.560279
H        0.377740       1.049372      -2.452684
H        1.055358       8.438668       3.447837
6
t =    3715.000000
C       -0.629186      -0.349259      -0.982333
C        0.592765      -0.328968       0.937939
H        0.619730       0.954893       2.167096
H       -1.674485      -2.418295      -2.685654
H        0.418423       0.976623      -2.434075
H        1.069822       8.562386       3.481216
6
t =    3735.000000
C       -0.647048      -0.347577      -0.971688
C        0.604306      -0.329957       0.928994
H        0.604043       0.934914       2.202178
H       -1.628617      -2.454655      -2.797193
H        0.449040       0.900942      -2.411270
H        1.084289       8.686148       3.514607
6
t =    3755.000000
C       -0.665316      -0.346539      -0.965148
C        0.616082      -0.332683       0.920932
H        0.595125       0.934308       2.259587
H       -1.577778      -2.480397      -2.895742
H        0.469951       0.823587      -2.385395
H        1.098758       8.809948       3.548008
6
t =    3775.000000
C       -0.683873      -0.346060      -0.962308
C        0.628080      -0.336683       0.914014
H        0.592233       0.947166       2.333980
H       -1.523266      -2.497574      -2.982497
H        0.481956       0.745995      -2.357887
H        1.113229       8.933781       3.581417
6
t =    3780.000000
C       -0.688543      -0.346020      -0.962097
C        0.631104      -0.337798       0.912518
H        0.592363       0.951423       2.354115
H       -1.509228      -2.500823      -3.002545
H        0.483766       0.726821      -2.351037
H        1.116847       8.964743       3.589771
6
t =    3785.000000
C       -0.693225      -0.346011      -0.962076
C        0.634137      -0.338951       0.911121
H        0.592828       0.955997       2.374754
H       -1.495040      -2.503681      -3.021958
H        0.485125       0.707764      -2.344231
H        1.120465       8.995708       3.598125
6
t =    3790.000000
C       -0.697916      -0.346033      -0.962236
C        0.637176      -0.340134       0.909827
H        0.593620       0.960795       2.395786
H       -1.480716      -2.506174      -3.040753
H        0.486058       0.688854      -2.337502
H        1.124084       9.026674       3.606479
6
t =    3795.000000
C       -0.702617      -0.346087      -0.962569
C        0.640221      -0.341341       0.908640
H        0.594734       0.965727       2.417105
H       -1.466266      -2.508325      -3.058951
H        0.486595       0.670119      -2.330883
H        1.127702       9.057641       3.614833
6
t =    3800.000000
C       -0.707327      -0.346172      -0.963065
C        0.643269      -0.342565       0.907565
H        0.596163       0.970702       2.438600
H       -1.451702      -2.510158      -3.076569
H        0.486767       0.651591      -2.324413
H        1.131320       9.088611       3.623188
6
t =    3805.000000
C       -0.712044      -0.346288      -0.963714
C        0.646318      -0.343800       0.906605
H        0.597901       0.975648       2.460179
H       -1.437035      -2.511695      -3.093624
H        0.486604       0.633299      -2.318127
H        1.134939       9.119581       3.631543
6
t =    3810.000000
C       -0.716768      -0.346437      -0.964507
C        0.649366      -0.345040       0.905762
H        0.599943       0.980494       2.481750
H       -1.422275      -2.512956      -3.110135
H        0.486139       0.615272      -2.312063
H        1.138557       9.150554       3.639898
6
t =    3815.000000
C       -0.721498      -0.346617      -0.965434
C        0.652411      -0.346280       0.905038
H        0.602284       0.985173       2.503224
H       -1.407430      -2.513961      -3.126117
H        0.485407       0.597541      -2.306259
H        1.142176       9.181527       3.648254
6
t =    3820.000000
C       -0.726234      -0.346831      -0.966485
C        0.655449      -0.347516       0.904436
H        0.604917       0.989624       2.524518
H       -1.392509      -2.514728      -3.141584
H        0.484442       0.580137      -2.300755
H        1.145794       9.212503       3.656610
6
t =    3825.000000
C       -0.730975      -0.347078      -0.967651
C        0.658480      -0.348743       0.903957
H        0.607838       0.993793       2.545553
H       -1.377519      -2.515274      -3.156553
H        0.483281       0.563089      -2.295591
H        1.149413       9.243479       3.664967
6
t =    3830.000000
C       -0.735720      -0.347359      -0.968921
C        0.661499      -0.349957       0.903600
H        0.611041       0.997630       2.566259
H       -1.362467      -2.515615      -3.171035
H        0.481961       0.546426      -2.290804
H        1.153032       9.274457       3.673323
6
t =    3835.000000
C       -0.740470      -0.347676      -0.970286
C        0.664505      -0.351156       0.903368
H        0.614522       1.001091       2.586567
H       -1.347361      -2.515766      -3.185044
H        0.480518       0.530178      -2.286434
H        1.156651       9.305436       3.681680
6
t =    3840.000000
C       -0.745223      -0.348028      -0.971737
C        0.667494      -0.352336       0.903258
H        0.618274       1.004138       2.606415
H       -1.332207      -2.515741      -3.198591
H        0.478990       0.514371      -2.282518
H        1.160269       9.336417       3.690037
6
t =    3845.000000
C       -0.749978      -0.348418      -0.973264
C        0.670464      -0.353494       0.903272
H        0.622292       1.006734       2.625747
H       -1.317009      -2.515553      -3.211688
H        0.477412       0.499032      -2.279094
H        1.163888       9.367399       3.698394
6
t =    3850.000000
C       -0.754736      -0.348844      -0.974857
C        0.673413      -0.354629       0.903407
H        0.626571       1.008850       2.644510
H       -1.301774      -2.515214      -3.224345
H        0.475819       0.484185      -2.276195
H        1.167507       9.398382       3.706751
6
t =    3855.000000
C       -0.759495      -0.349309      -0.976509
C        0.676337      -0.355738       0.903663
H        0.631105       1.010459       2.662655
H       -1.286506      -2.514736      -3.236570
H        0.474246       0.469854      -2.273855
H        1.171126       9.429366       3.715109
6
t =    3875.000000
C       -0.778532      -0.351555      -0.983609
C        0.687757      -0.359903       0.905876
H        0.651743       1.011590       2.728621
H       -1.225154      -2.511528      -3.281251
H        0.468471       0.417895      -2.270383
H        1.185602       9.553315       3.748542
6
t =    3880.000000
C       -0.783279      -0.352217      -0.985431
C        0.690516      -0.360865       0.906704
H        0.657471       1.010389       2.743108
H       -1.209785      -2.510489      -3.291433
H        0.467424       0.406406      -2.271214
H        1.189221       9.584305       3.756900
6
t =    3885.000000
C       -0.788019      -0.352919      -0.987265
C        0.693234      -0.361795       0.907639
H        0.663421       1.008586       2.756766
H       -1.194408      -2.509362      -3.301225
H        0.466553       0.395526      -2.272736
H        1.192840       9.615297       3.765259
6
t =    3890.000000
C       -0.792750      -0.353661      -0.989104
C        0.695909      -0.362693       0.908678
H        0.669587       1.006174       2.769571
H       -1.179026      -2.508154      -3.310632
H        0.465874       0.385263      -2.274958
H        1.196460       9.646289       3.773617
6
t =    3895.000000
C       -0.797469      -0.354442      -0.990945
C        0.698537      -0.363558       0.909818
H        0.675963       1.003146       2.781502
H       -1.163640      -2.506870      -3.319657
H        0.465397       0.375620      -2.277883
H        1.200079       9.677282       3.781976
6
t =    3900.000000
C       -0.802175      -0.355263      -0.992781
C        0.701116      -0.364391       0.911056
H        0.682542       0.999500       2.792541
H       -1.148256      -2.505516      -3.328303
H        0.465132       0.366601      -2.281512
H        1.203698       9.708276       3.790335
6
t =    3905.000000
C       -0.806864      -0.356122      -0.994608
C        0.703644      -0.365190       0.912388
H        0.689321       0.995235       2.802670
H       -1.132874      -2.504098      -3.336574
H        0.465079       0.358204      -2.285837
H        1.207317       9.739271       3.798695
6
t =    3910.000000
C       -0.811533      -0.357019      -0.996421
C        0.706119      -0.365957       0.913810
H        0.696291       0.990351       2.811876
H       -1.117499      -2.502618      -3.344472
H        0.465238       0.350426      -2.290847
H        1.210936       9.770267       3.807054
6
t =    3915.000000
C       -0.816178      -0.357953      -0.998219
C        0.708538      -0.366692       0.915320
H        0.703447       0.984849       2.820148
H       -1.102132      -2.501083      -3.351998
H        0.465604       0.343261      -2.296528
H        1.214555       9.801264       3.815413
6
t =    3920.000000
C       -0.820797      -0.358923      -0.999997
C        0.710900      -0.367394       0.916913
H        0.710784       0.978731       2.827477
H       -1.086776      -2.499494      -3.359153
H        0.466169       0.336703      -2.302861
H        1.218174       9.832261       3.823773
6
t =    3925.000000
C       -0.825385      -0.359927      -1.001753
C        0.713201      -0.368065       0.918586
H        0.718294       0.972004       2.833855
H       -1.071434      -2.497856      -3.365939
H        0.466921       0.330741      -2.309823
H        1.221793       9.863260       3.832132
6
t =    3945.000000
C       -0.843391      -0.364279      -1.008535
C        0.721790      -0.370440       0.926034
H        0.750009       0.939049       2.849808
H       -1.010223      -2.490834      -3.389387
H        0.471646       0.312758      -2.343691
H        1.236269       9.987263       3.865572
6
t =    3965.000000
C       -0.860566      -0.369072      -1.014860
C        0.729278      -0.372373       0.934427
H        0.783999       0.896998       2.850500
H       -0.949408      -2.483186      -3.406866
H        0.477711       0.303239      -2.384967
H        1.250744      10.111278       3.899013
6
t =    3985.000000
C       -0.876621      -0.374210      -1.020727
C        0.735572      -0.373944       0.943473
H        0.819861       0.846769       2.836568
H       -0.889128      -2.474957      -3.418224
H        0.483320       0.301090      -2.430966
H        1.265218      10.235305       3.932455
6
t =    4005.000000
C       -0.891283      -0.379599      -1.026174
C        0.740597      -0.375264       0.952842
H        0.857220       0.789672       2.809374
H       -0.829532      -2.466122      -3.423223
H        0.486624       0.305200      -2.478915
H        1.279692      10.359342       3.965898
