               t           phase
   2330.00000000      0.31064487
   2335.00000000     -3.42254523
   2340.00000000     -0.88869745
   2345.00000000     -4.65386236
   2350.00000000     -2.13685690
   2355.00000000     -5.87918082
   2360.00000000     -3.28260713
   2380.00000000     -4.72697372
   2400.00000000     -4.88533988
   2420.00000000     -3.51612068
   2440.00000000     -0.40816028
   2460.00000000     -1.73112663
   2480.00000000     -1.24820253
   2500.00000000     -5.49797415
   2520.00000000     -2.48315063
   2540.00000000     -5.93142409
   2560.00000000     -5.24238115
   2580.00000000     -1.73572080
   2600.00000000     -6.25288742
   2620.00000000     -3.28238214
   2640.00000000     -3.98446736
   2645.00000000     -5.36329093
   2650.00000000     -0.44883259
   2655.00000000     -1.83406804
   2660.00000000     -3.25505107
   2665.00000000     -4.71763611
   2670.00000000     -6.22389961
   2675.00000000     -1.49510900
   2680.00000000     -3.09860399
   2685.00000000     -4.75153985
   2705.00000000     -5.80271602
   2725.00000000     -1.36221938
   2745.00000000     -3.89030009
   2765.00000000     -0.36413873
   2785.00000000     -3.22076266
   2805.00000000     -6.18706475
   2825.00000000     -3.07985743
   2845.00000000     -0.35606630
   2850.00000000     -2.88940668
   2855.00000000     -5.46614213
   2860.00000000     -1.80953756
   2865.00000000     -4.49482031
   2870.00000000     -0.96683872
   2875.00000000     -3.81027286
   2880.00000000     -0.48975109
   2885.00000000     -3.60372447
   2890.00000000     -0.59461986
   2895.00000000     -4.01232218
   2900.00000000     -1.25954485
   2905.00000000     -4.87923780
   2910.00000000     -2.28749506
   2915.00000000     -6.03516642
   2935.00000000     -2.42989909
   2955.00000000     -5.40365272
   2975.00000000     -2.10282573
   2995.00000000     -4.87864675
   3015.00000000     -1.02322740
   3035.00000000     -3.08430947
   3055.00000000     -4.85913811
   3075.00000000     -0.18626731
   3095.00000000     -1.75098120
   3115.00000000     -3.36555173
   3135.00000000     -5.09615854
   3155.00000000     -0.69770317
   3175.00000000     -2.75053664
   3195.00000000     -4.96526240
   3215.00000000     -1.03334554
   3235.00000000     -3.47312127
   3255.00000000     -5.92570874
   3275.00000000     -2.00704307
   3295.00000000     -4.17363430
   3315.00000000     -6.04746727
   3335.00000000     -1.28246490
   3355.00000000     -2.41488984
   3375.00000000     -3.15247779
   3395.00000000     -3.48982097
   3415.00000000     -3.41141382
   3435.00000000     -2.89819786
   3455.00000000     -1.96155203
   3475.00000000     -0.67997545
   3495.00000000     -5.45686443
   3515.00000000     -3.76694765
   3535.00000000     -1.75581524
   3555.00000000     -5.48842233
   3575.00000000     -2.33958764
   3595.00000000     -5.11131260
   3615.00000000     -1.66812197
   3635.00000000     -5.01083112
   3655.00000000     -2.89543396
   3675.00000000     -1.77561973
   3695.00000000     -1.64941735
   3715.00000000     -2.34128965
   3735.00000000     -3.56199847
   3755.00000000     -5.02834370
   3775.00000000     -0.28846530
   3780.00000000     -3.81887404
   3785.00000000     -1.06880077
   3790.00000000     -4.60587657
   3795.00000000     -1.86511761
   3800.00000000     -5.41451864
   3805.00000000     -2.68946673
   3810.00000000     -6.25776499
   3815.00000000     -3.55456264
   3820.00000000     -0.86445677
   3825.00000000     -4.47190289
   3830.00000000     -1.81163281
   3835.00000000     -5.45093197
   3840.00000000     -2.82414288
   3845.00000000     -0.21495336
   3850.00000000     -3.90683629
   3855.00000000     -1.33349369
   3875.00000000     -3.77297343
   3880.00000000     -1.28364284
   3885.00000000     -5.09190142
   3890.00000000     -2.63024696
   3895.00000000     -0.18071275
   3900.00000000     -4.02511453
   3905.00000000     -1.59567233
   3910.00000000     -5.45746684
   3915.00000000     -3.04277137
   3920.00000000     -0.63343997
   3925.00000000     -4.51137071
   3945.00000000     -1.17827046
   3965.00000000     -4.11636952
   3985.00000000     -0.72115001
   4005.00000000     -3.54751046
