310

C         25.72300       29.68500       26.90100
C         25.51000       29.88900       25.49000
C         26.07700       30.59500       27.82800
C         25.16300       28.92900       24.60400
H         25.62000       28.64500       27.18200
H         25.33300       30.87700       25.08600
H         26.26500       30.17800       28.85200
H         26.32100       31.69500       27.63100
H         24.81000       29.04000       23.56900
H         25.10400       27.88700       24.94600
H         25.42700       24.48900       30.37300
C         26.44000       24.44600       29.87100
H         26.64400       23.46500       29.42400
H         27.17500       24.60600       30.69500
O         26.52800       25.52300       28.94100
H         27.45500       25.52000       28.51300
H         24.39200       26.94700       30.63100
C         24.99400       27.81000       30.79000
H         24.60800       28.52400       30.06700
H         26.00300       27.47700       30.52400
O         24.86200       28.26500       32.21300
H         24.09500       27.89900       32.69000
H         28.62000       30.99100       33.82600
C         29.45800       30.80500       34.47700
H         29.75900       31.79500       35.00700
H         30.24400       30.37400       33.85800
O         29.03000       29.88700       35.46800
H         28.66400       29.16500       34.91500
H         33.81600       35.34600       28.41600
C         33.08300       35.68200       27.72800
H         32.33700       34.87300       27.64200
H         33.60100       35.73900       26.77300
O         32.47900       36.92600       28.18600
H         31.80500       37.15000       27.49100
H         26.94400       26.58000       32.83600
C         27.04400       26.98100       33.79400
H         27.85500       26.38900       34.23000
H         26.14500       26.88000       34.38300
O         27.40500       28.36900       33.63300
H         26.69100       28.78000       33.19000
H         30.81700       25.94500       27.76400
C         30.35500       24.97300       27.49800
H         31.19900       24.24400       27.57700
H         30.09400       25.07600       26.46600
O         29.25300       24.66600       28.33600
H         29.61400       24.34100       29.21900
H         29.32900       22.49600       22.83100
C         29.78500       23.34900       23.35100
H         29.04800       24.10900       23.14500
H         30.76500       23.54000       22.84500
O         29.89600       23.33400       24.71900
H         29.04100       23.08000       25.07600
H         28.59200       26.67500       29.69800
C         29.14200       26.98900       30.59100
H         29.19800       26.17900       31.26200
H         28.58500       27.67300       31.16100
O         30.39300       27.56400       30.12600
H         30.17300       28.49500       29.81900
H         25.86800       23.24400       26.76600
C         26.71300       23.44100       26.10400
H         27.17100       24.40100       26.30700
H         26.33700       23.51200       25.11300
O         27.73700       22.53100       26.22300
H         27.94100       22.47200       27.18500
H         30.37000       25.94900       24.16900
C         31.45600       26.04700       24.28600
H         31.97600       25.40500       23.73100
H         31.75700       25.97300       25.32900
O         31.87900       27.31900       23.95500
H         31.01900       27.78300       23.65500
H         32.11800       27.34100       34.17600
C         31.31400       27.40400       33.52000
H         30.40500       27.79300       34.08100
H         31.04700       26.44100       33.05400
O         31.76700       28.16000       32.40700
H         31.07100       28.11900       31.69000
H         17.97000       32.06500       26.56600
C         18.63000       31.41400       27.09600
H         19.02700       30.64900       26.37200
H         18.09900       31.08200       27.91800
O         19.69600       32.17600       27.60500
H         20.15900       31.65300       28.29100
H         19.95000       29.17100       22.33600
C         18.98100       29.48600       22.64700
H         18.87600       29.03100       23.64600
H         18.29800       29.14400       21.95100
O         19.01500       30.92100       22.58100
H         19.94700       31.24200       22.54300
H         19.62400       25.63500       26.37400
C         19.15800       25.12800       25.55900
H         19.68800       24.22200       25.21000
H         18.89100       25.80000       24.72900
O         17.91500       24.60000       25.98600
H         18.15000       23.99900       26.72000
H         24.70200       30.51900       34.61800
C         24.34400       31.49000       34.25800
H         23.82900       31.91000       35.11200
H         23.53200       31.44600       33.43400
O         25.49400       32.21200       33.90000
H         26.13000       32.12800       34.65000
H         20.94400       28.99600       26.59200
C         21.79000       28.44400       26.05700
H         21.89200       27.33600       26.13700
H         22.69600       28.74600       26.50000
O         21.72400       28.68900       24.63800
H         22.22600       27.99200       24.19800
H         23.97100       22.98400       28.31700
C         23.26000       22.92500       29.08500
H         22.42400       22.39000       28.71300
H         22.87300       23.94100       29.34800
O         23.85500       22.32800       30.22900
H         24.14200       21.44500       29.89000
H         20.22500       30.07400       33.94600
C         19.82800       30.03800       32.94600
H         19.74300       30.97900       32.47700
H         18.93000       29.42800       32.95600
O         20.81300       29.31400       32.27800
H         21.26700       28.76000       32.94900
H         22.52900       31.65700       31.03800
C         22.31100       31.39400       30.01200
H         23.15600       30.77800       29.67300
H         22.25900       32.47400       29.58100
O         21.13200       30.70200       29.72100
H         21.02500       30.04900       30.49500
H         20.28200       26.04500       30.28000
C         20.94300       26.48100       29.54200
H         21.86600       26.76400       30.04800
H         20.44000       27.39000       29.05900
O         21.26600       25.60900       28.52600
H         22.19700       25.81400       28.23200
H         23.00500       25.80400       26.28000
C         23.90500       25.63500       26.77800
H         24.57600       26.30700       26.31800
H         24.29300       24.61800       26.68900
O         23.95300       25.99300       28.16900
H         24.79100       25.80300       28.58300
H         23.13300       31.47300       25.22700
C         22.52700       31.91900       26.03300
H         23.08200       32.64600       26.66500
H         22.28200       31.08900       26.69700
O         21.42500       32.56400       25.53000
H         20.69900       32.61900       26.11800
H         22.41900       31.12200       21.15400
C         22.73000       31.23600       22.20400
H         23.72200       31.68900       22.38300
H         22.73000       30.26100       22.72700
O         21.84400       32.10200       22.76700
H         21.95300       32.11000       23.78600
H         23.76300       36.19800       29.63700
C         24.74600       36.43400       29.30200
H         25.16700       35.55100       28.92000
H         25.19400       36.79900       30.25800
O         24.66500       37.49500       28.35900
H         24.12600       37.22600       27.57700
H         27.15200       37.18100       27.51400
C         27.28300       36.25700       26.90100
H         26.97400       36.46100       25.85200
H         26.73600       35.51100       27.45000
O         28.61600       35.81600       26.90200
H         29.20600       36.50900       26.58500
H         30.04600       36.23400       31.91700
C         30.37500       35.19400       32.06400
H         30.61300       35.07500       33.11400
H         31.28400       34.89300       31.44200
O         29.32000       34.31100       31.86800
H         28.66600       34.53000       32.52800
H         21.68700       34.51900       31.54400
C         22.37700       34.27200       32.36100
H         21.91500       33.45100       32.83500
H         22.45100       35.02600       33.13000
O         23.69300       34.03800       32.01300
H         23.98300       33.24200       32.44900
H         25.78000       36.22600       33.61800
C         26.36400       35.70300       32.90900
H         27.16900       36.25200       32.44400
H         25.66600       35.45700       32.08800
O         27.02800       34.63100       33.44700
H         26.43200       33.87000       33.53500
H         26.14600       32.39600       30.01100
C         26.85600       32.16600       30.80900
H         26.67900       31.22300       31.27300
H         26.75600       32.86900       31.55300
O         28.18900       32.26900       30.34100
H         28.71600       32.91700       30.87500
H         28.63600       32.54100       27.29800
C         29.67000       32.34000       27.17700
H         29.80800       31.35200       26.67100
H         30.02000       32.33300       28.21500
O         30.22900       33.47300       26.52400
H         29.72400       34.34400       26.62800
H         23.75200       34.80100       26.30700
C         23.81600       35.54900       25.56100
H         23.07700       35.43200       24.78200
H         24.78700       35.59900       25.09600
O         23.44900       36.80500       26.09500
H         23.49700       37.58900       25.45500
H         20.35800       27.76200       18.58700
C         19.69600       27.60800       19.49300
H         20.11700       28.10200       20.31900
H         19.71600       26.58000       19.53300
O         18.36900       28.05100       19.28600
H         17.92500       27.53100       19.93300
H         28.86700       25.15900       19.17700
C         28.09200       25.34700       18.45300
H         27.74500       26.35400       18.33400
H         27.23100       24.76800       18.74000
O         28.61400       24.92800       17.23300
H         29.52400       25.33300       17.17000
H         22.00500       27.26600       16.56700
C         22.67100       26.73100       17.17100
H         23.48400       26.15000       16.61300
H         22.09800       26.08400       17.75600
O         23.28500       27.72100       17.99600
H         24.10400       28.01200       17.64200
H         23.90000       24.04600       20.02800
C         24.33100       23.08000       20.45400
H         23.68600       22.24700       20.24900
H         24.30300       23.24100       21.52100
O         25.51200       22.98200       19.76000
H         26.06800       22.25600       20.15600
H         29.20200       28.97700       25.28700
C         28.99400       29.30300       24.26100
H         29.73800       30.07200       24.01200
H         27.97100       29.66700       24.19600
O         29.19500       28.23700       23.34700
H         28.35600       27.95900       22.89500
H         22.07900       22.94100       22.28500
C         21.75200       23.59500       23.08000
H         20.91900       23.19000       23.71200
H         21.44700       24.57100       22.64900
O         22.80900       23.91000       23.92600
H         22.97800       23.20100       24.59300
H         23.91400       20.13000       25.44700
C         23.68100       20.92500       26.15400
H         24.60100       21.30700       26.52200
H         23.14500       20.41900       26.93400
O         22.80600       21.83200       25.51000
H         22.07700       21.29400       25.06800
H         26.18900       30.93200       18.38300
C         25.86800       30.00200       18.89500
H         24.80600       29.88300       18.65200
H         26.06600       30.08800       19.92900
O         26.47100       28.84800       18.45200
H         27.44900       29.02100       18.19800
H         20.56300       29.66700       16.85700
C         20.58500       30.61500       17.47800
H         20.59300       31.51200       16.83500
H         21.53100       30.64400       18.08900
O         19.39900       30.62900       18.29300
H         19.28400       29.70200       18.62800
H         21.63100       27.04900       21.72700
C         22.72600       26.91400       21.89800
H         23.29100       27.77400       21.47600
H         23.06800       26.07800       21.28100
O         22.94100       26.58900       23.29200
H         23.06600       25.63900       23.54300
H         25.51700       27.89300       21.78400
C         26.18600       27.01800       21.68500
H         25.68800       26.27700       21.12000
H         26.39100       26.61600       22.68200
O         27.33400       27.51000       20.98900
H         27.10400       27.98900       20.16600
H         27.24900       33.29800       19.72300
C         26.37200       33.98200       19.86100
H         26.47000       34.87000       19.21900
H         26.40800       34.27300       20.94900
O         25.16900       33.31400       19.42500
H         24.44600       33.61600       20.02100
H         28.41800       36.98500       23.52700
C         27.89700       36.76900       22.64100
H         26.93200       36.29200       22.85900
H         28.49100       36.10000       22.08900
O         27.78100       37.97500       21.86500
H         28.25800       37.94900       21.01700
H         31.53700       33.96200       21.60300
C         31.49000       33.59100       22.61100
H         32.53100       33.57700       23.01700
H         31.00500       32.63000       22.66800
O         30.76000       34.44800       23.42100
H         31.27500       34.56200       24.27500
H         23.40700       35.58100       20.89400
C         22.82400       35.01500       21.60700
H         21.90800       35.60500       21.87300
H         23.39000       34.68900       22.43400
O         22.38500       33.92600       20.81600
H         22.21300       33.16600       21.40500
H         31.68200       29.78000       22.76500
C         32.02600       29.70700       21.72800
H         33.03000       29.34300       21.78000
H         31.97700       30.67800       21.18800
O         31.12600       28.69600       21.23100
H         30.39000       28.59800       21.85800
H         26.36900       33.06700       23.86600
C         27.28300       33.65500       24.08100
H         27.74700       33.28100       25.01400
H         26.98300       34.77100       24.13600
O         28.22800       33.32800       23.03900
H         29.07400       33.78400       23.01700
H         32.56400       30.40300       30.37100
C         31.73300       31.04800       30.12500
H         31.75300       31.18400       29.03100
H         31.84900       31.94300       30.73400
O         30.52000       30.43700       30.46400
H         29.83600       31.08400       30.18800
H         28.74200       31.96000       20.62400
C         28.39000       30.95800       20.98400
H         29.24400       30.42800       21.40600
H         28.06600       30.38900       20.08900
O         27.32200       31.07900       21.96700
H         27.43500       31.94300       22.43000
