6
t =    3405.000000
C       -0.417156      -0.199399      -1.072225
C        0.515809       0.259320       1.171510
H        2.384745      -0.189505       2.231533
H       -0.528955       1.925700      -2.097006
H       -1.114904      -1.381000      -2.573570
H       -1.915839      -1.068368       1.256232
6
t =    3410.000000
C       -0.417679      -0.202010      -1.072353
C        0.516534       0.260957       1.173043
H        2.385725      -0.209247       2.224093
H       -0.559847       1.917556      -2.081489
H       -1.088350      -1.376422      -2.582120
H       -1.914843      -1.033523       1.240141
6
t =    3415.000000
C       -0.418225      -0.204459      -1.072543
C        0.517319       0.262547       1.174635
H        2.385853      -0.229068       2.216573
H       -0.590818       1.908720      -2.066030
H       -1.061883      -1.372408      -2.590443
H       -1.913260      -0.998708       1.224007
6
t =    3420.000000
C       -0.418805      -0.206759      -1.072782
C        0.518179       0.264107       1.176291
H        2.385152      -0.249038       2.208963
H       -0.621926       1.899219      -2.050607
H       -1.035453      -1.369006      -2.598608
H       -1.911152      -0.963904       1.207653
6
t =    3425.000000
C       -0.419435      -0.208921      -1.073056
C        0.519131       0.265655       1.178018
H        2.383652      -0.269236       2.201243
H       -0.653247       1.889080      -2.035182
H       -1.008987      -1.366252      -2.606689
H       -1.908581      -0.929069       1.190896
6
t =    3430.000000
C       -0.420126      -0.210962      -1.073356
C        0.520189       0.267208       1.179825
H        2.381386      -0.289740       2.193383
H       -0.684857       1.878322      -2.019700
H       -0.982394      -1.364173      -2.614764
H       -1.905608      -0.894138       1.173575
6
t =    3435.000000
C       -0.420889      -0.212897      -1.073680
C        0.521362       0.268780       1.181721
H        2.378388      -0.310614       2.185353
H       -0.716829       1.866958      -2.004095
H       -0.955583      -1.362780      -2.622899
H       -1.902278      -0.859037       1.155584
6
t =    3440.000000
C       -0.421731      -0.214736      -1.074029
C        0.522656       0.270379       1.183713
H        2.374689      -0.331899       2.177126
H       -0.749212       1.854996      -1.988308
H       -0.928474      -1.362073      -2.631141
H       -1.898624      -0.823702       1.136875
6
t =    3445.000000
C       -0.422657      -0.216487      -1.074408
C        0.524072       0.272010       1.185806
H        2.370312      -0.353617       2.168684
H       -0.782033       1.842437      -1.972290
H       -0.901009      -1.362045      -2.639523
H       -1.894674      -0.788092       1.117447
6
t =    3450.000000
C       -0.423667      -0.218155      -1.074821
C        0.525609       0.273677       1.188001
H        2.365277      -0.375778       2.160017
H       -0.815304       1.829284      -1.956007
H       -0.873149      -1.362685      -2.648061
H       -1.890446      -0.752184       1.097324
6
t =    3455.000000
C       -0.424762      -0.219744      -1.075272
C        0.527265       0.275380       1.190296
H        2.359603      -0.398380       2.151121
H       -0.849024       1.815540      -1.939437
H       -0.844865      -1.363980      -2.656760
H       -1.885961      -0.715974       1.076547
6
t =    3475.000000
C       -0.429977      -0.225310      -1.077476
C        0.535051       0.282552       1.200463
H        2.330651      -0.493142       2.113268
H       -0.988288       1.754713      -1.870156
H       -0.727346      -1.375543      -2.693136
H       -1.865650      -0.568203       0.987369
6
t =    3495.000000
C       -0.436374      -0.229647      -1.080432
C        0.544464       0.290238       1.211914
H        2.292602      -0.594106       2.072255
H       -1.133231       1.685244      -1.796396
H       -0.602718      -1.395906      -2.730864
H       -1.842982      -0.417524       0.891882
6
t =    3515.000000
C       -0.443725      -0.232805      -1.084190
C        0.555266       0.298333       1.224290
H        2.246440      -0.700216       2.028751
H       -1.282094       1.608465      -1.719643
H       -0.471754      -1.423027      -2.767761
H       -1.819793      -0.266561       0.793599
6
t =    3535.000000
C       -0.451722      -0.234890      -1.088795
C        0.567225       0.306718       1.237227
H        2.193235      -0.810282       1.983398
H       -1.433056       1.526216      -1.642171
H       -0.335924      -1.454395      -2.801105
H       -1.798400      -0.118147       0.696296
6
t =    3555.000000
C       -0.459963      -0.236053      -1.094296
C        0.580102       0.315251       1.250378
H        2.134073      -0.923005       1.936720
H       -1.584428       1.440644      -1.566818
H       -0.197383      -1.487344      -2.828086
H       -1.781386       0.025097       0.604200
6
t =    3575.000000
C       -0.467977      -0.236474      -1.100725
C        0.593647       0.323767       1.263426
H        2.069981      -1.036936       1.889053
H       -1.734759       1.353890      -1.496718
H       -0.058829      -1.519370      -2.846207
H       -1.771149       0.161157       0.521744
6
t =    3595.000000
C       -0.475296      -0.236325      -1.108048
C        0.607604       0.332076       1.276093
H        2.001880      -1.150403       1.840548
H       -1.882859       1.267745      -1.435025
H        0.076740      -1.548365      -2.853551
H       -1.769334       0.288801       0.452955
6
t =    3615.000000
C       -0.481541      -0.235744      -1.116129
C        0.621731       0.339966       1.288135
H        1.930568      -1.261491       1.791228
H       -2.027747       1.183404      -1.384696
H        0.206298      -1.572711      -2.848879
H       -1.776320       0.407443       0.400782
6
t =    3635.000000
C       -0.486480      -0.234814      -1.124732
C        0.635817       0.347229       1.299357
H        1.856692      -1.368132       1.741097
H       -2.168642       1.101333      -1.348248
H        0.327026      -1.591236      -2.831607
H       -1.790964       0.516878       0.366700
6
t =    3655.000000
C       -0.490029      -0.233591      -1.133592
C        0.649687       0.353691       1.309628
H        1.780683      -1.468305       1.690204
H       -2.304973       1.021166      -1.327384
H        0.436449      -1.603038      -2.801750
H       -1.810716       0.617264       0.350742
6
t =    3675.000000
C       -0.492211      -0.232128      -1.142501
C        0.663166       0.359231       1.318896
H        1.702880      -1.560131       1.638652
H       -2.436081       0.941787      -1.322632
H        0.532455      -1.607435      -2.759841
H       -1.832102       0.709222       0.352041
6
t =    3695.000000
C       -0.493122      -0.230430      -1.151312
C        0.676034       0.363762       1.327115
H        1.623811      -1.641813       1.586770
H       -2.560630       0.861842      -1.333427
H        0.613207      -1.604191      -2.706710
H       -1.851383       0.793175       0.369310
6
t =    3715.000000
C       -0.492916      -0.228428      -1.159875
C        0.688043       0.367230       1.334190
H        1.544077      -1.711805       1.535242
H       -2.676562       0.780201      -1.358442
H        0.677290      -1.593548      -2.643463
H       -1.865010       0.868787       0.401008
6
t =    3735.000000
C       -0.491779      -0.226038      -1.168054
C        0.698940       0.369632       1.339996
H        1.464206      -1.768978       1.484847
H       -2.781487       0.696121      -1.395960
H        0.724005      -1.576237      -2.571583
H       -1.870000       0.935406       0.445967
6
t =    3755.000000
C       -0.489896      -0.223199      -1.175776
C        0.708475       0.371029       1.344424
H        1.384566      -1.812593       1.436267
H       -2.872997       0.609237      -1.444253
H        0.753409      -1.553470      -2.492857
H       -1.863977       0.992445       0.504024
6
t =    3775.000000
C       -0.487453      -0.219897      -1.183049
C        0.716400       0.371541       1.347390
H        1.305314      -1.842279       1.390043
H       -2.948816       0.519399      -1.501758
H        0.766286      -1.526858      -2.409374
H       -1.845017       1.039687       0.576224
6
t =    3795.000000
C       -0.484638      -0.216165      -1.189933
C        0.722465       0.371339       1.348846
H        1.226474      -1.858023       1.346584
H       -3.006849       0.426545      -1.566970
H        0.764168      -1.498382      -2.323651
H       -1.811533       1.077531       0.664489
6
t =    3815.000000
C       -0.481649      -0.212061      -1.196494
C        0.726395       0.370615       1.348766
H        1.148140      -1.860151       1.306213
H       -3.045254       0.330759      -1.638207
H        0.749402      -1.470468      -2.238801
H       -1.762202       1.107027       0.770999
6
t =    3835.000000
C       -0.478689      -0.207633      -1.202771
C        0.727868       0.369568       1.347140
H        1.070719      -1.849325       1.269260
H       -3.062525       0.232409      -1.713439
H        0.725150      -1.446128      -2.158605
H       -1.695800       1.129700       0.897762
6
t =    3855.000000
C       -0.475958      -0.202880      -1.208805
C        0.726467       0.368389       1.343957
H        0.995182      -1.826510       1.236289
H       -3.057500       0.132284      -1.790276
H        0.695186      -1.429129      -2.087296
H       -1.610935       1.147198       1.046684
6
t =    3875.000000
C       -0.473733      -0.197665      -1.214651
C        0.721779       0.367250       1.339170
H        0.923210      -1.793070       1.208507
H       -3.029108       0.031805      -1.866207
H        0.663729      -1.424027      -2.028613
H       -1.506354       1.160339       1.219001
6
t =    3895.000000
C       -0.472676      -0.191675      -1.220048
C        0.713944       0.366217       1.332731
H        0.856385      -1.751493       1.187534
H       -2.976222      -0.067142      -1.939215
H        0.636247      -1.434718      -1.985116
H       -1.384015       1.169123       1.411096
6
t =    3915.000000
C       -0.473316      -0.184775      -1.224602
C        0.703389       0.365257       1.324626
H        0.796048      -1.705255       1.174476
H       -2.898720      -0.162909      -2.007670
H        0.617212      -1.462706      -1.958889
H       -1.248615       1.175658       1.617789
6
t =    3935.000000
C       -0.475717      -0.177046      -1.228231
C        0.690443       0.364357       1.314791
H        0.743817      -1.658234       1.170319
H       -2.797716      -0.253801      -2.070202
H        0.607752      -1.507356      -1.949763
H       -1.104978       1.182609       1.836352
6
t =    3955.000000
C       -0.479670      -0.168749      -1.231070
C        0.675474       0.363504       1.303128
H        0.701365      -1.614612       1.175988
H       -2.675411      -0.338006      -2.125906
H        0.606473      -1.565544      -1.955186
H       -0.958026       1.192496       2.065155
6
t =    3975.000000
C       -0.484813      -0.160281      -1.233341
C        0.658789       0.362713       1.289556
H        0.670339      -1.578585       1.192253
H       -2.535188      -0.413684      -2.174472
H        0.610713      -1.632331      -1.971239
H       -0.811341       1.207265       2.302829
6
t =    3995.000000
C       -0.490670      -0.152071      -1.235265
C        0.640469       0.362089       1.274144
H        0.652283      -1.553842       1.219666
H       -2.381895      -0.479101      -2.216400
H        0.617683      -1.702293      -1.993629
H       -0.665455       1.227317       2.546823
6
t =    4015.000000
C       -0.496658      -0.144492      -1.236977
C        0.620391       0.361819       1.257244
H        0.648485      -1.542864       1.258504
H       -2.222201      -0.532903      -2.253373
H        0.625160      -1.770614      -2.018377
H       -0.518242       1.251182       2.791989
