               t           phase
   3405.00000000     -0.44901859
   3410.00000000     -3.41785837
   3415.00000000     -0.10351210
   3420.00000000     -3.06374060
   3425.00000000     -6.00494411
   3430.00000000     -2.63259544
   3435.00000000     -5.50222225
   3440.00000000     -2.03839478
   3445.00000000     -4.80079326
   3450.00000000     -1.21861961
   3455.00000000     -3.85566950
   3475.00000000     -1.20924006
   3495.00000000     -3.92777074
   3515.00000000     -5.94745108
   3535.00000000     -1.30790587
   3555.00000000     -2.94322602
   3575.00000000     -4.91869981
   3595.00000000     -1.22319827
   3615.00000000     -4.58673575
   3635.00000000     -2.49458626
   3655.00000000     -1.19029304
   3675.00000000     -0.58487695
   3695.00000000     -0.57949584
   3715.00000000     -1.08227191
   3735.00000000     -1.99658890
   3755.00000000     -3.19954314
   3775.00000000     -4.53177994
   3795.00000000     -5.80225075
   3815.00000000     -0.52089393
   3835.00000000     -1.04220821
   3855.00000000     -0.86366056
   3875.00000000     -6.09360127
   3895.00000000     -4.07478175
   3915.00000000     -1.08092706
   3935.00000000     -3.43275221
   3955.00000000     -4.91227709
   3975.00000000     -5.65383540
   3995.00000000     -5.88117278
   4015.00000000     -5.92339972
