6
t = 3425.000000   , Parent I = 1   , Child I = 0   , TDC = 0.021450      
C       -0.221955      -0.110556      -0.567837
C        0.274712       0.140579       0.623380
H        1.261374      -0.142474       1.164848
H       -0.345683       0.999658      -1.076972
H       -0.533933      -0.722989      -1.379401
H       -1.009978      -0.491642       0.630195
