               t                       amp. coeff.       amp. norm
     20.00000000            1.00000000+0.00000000j      1.00000000
     40.00000000            1.00000000+0.00000000j      1.00000000
     60.00000000            1.00000000+0.00000000j      1.00000000
     80.00000000            1.00000000+0.00000000j      1.00000000
    100.00000000            1.00000000+0.00000000j      1.00000000
    120.00000000            1.00000000+0.00000000j      1.00000000
    140.00000000            1.00000000+0.00000000j      1.00000000
    160.00000000            1.00000000+0.00000000j      1.00000000
    180.00000000            1.00000000+0.00000000j      1.00000000
    200.00000000            1.00000000+0.00000000j      1.00000000
    220.00000000            1.00000000+0.00000000j      1.00000000
    240.00000000            1.00000000+0.00000000j      1.00000000
    260.00000000            1.00000000+0.00000000j      1.00000000
    280.00000000            1.00000000+0.00000000j      1.00000000
    300.00000000            1.00000000+0.00000000j      1.00000000
    320.00000000            1.00000000+0.00000000j      1.00000000
    340.00000000            1.00000000+0.00000000j      1.00000000
    360.00000000            1.00000000+0.00000000j      1.00000000
    380.00000000            1.00000000+0.00000000j      1.00000000
    400.00000000            1.00000000+0.00000000j      1.00000000
    420.00000000            1.00000000+0.00000000j      1.00000000
    440.00000000            1.00000000+0.00000000j      1.00000000
    460.00000000            1.00000000+0.00000000j      1.00000000
    480.00000000            1.00000000+0.00000000j      1.00000000
    500.00000000            1.00000000+0.00000000j      1.00000000
    520.00000000            1.00000000+0.00000000j      1.00000000
    540.00000000            1.00000000+0.00000000j      1.00000000
    560.00000000            1.00000000+0.00000000j      1.00000000
    580.00000000            1.00000000+0.00000000j      1.00000000
    600.00000000            1.00000000+0.00000000j      1.00000000
    620.00000000            1.00000000+0.00000000j      1.00000000
    640.00000000            1.00000000+0.00000000j      1.00000000
    660.00000000            1.00000000+0.00000000j      1.00000000
    680.00000000            1.00000000+0.00000000j      1.00000000
    700.00000000            1.00000000+0.00000000j      1.00000000
    720.00000000            1.00000000+0.00000000j      1.00000000
    740.00000000            1.00000000+0.00000000j      1.00000000
    760.00000000            1.00000000+0.00000000j      1.00000000
    780.00000000            1.00000000+0.00000000j      1.00000000
    800.00000000            1.00000000+0.00000000j      1.00000000
    820.00000000            1.00000000+0.00000000j      1.00000000
    840.00000000            1.00000000+0.00000000j      1.00000000
    860.00000000            1.00000000+0.00000000j      1.00000000
    880.00000000            1.00000000+0.00000000j      1.00000000
    900.00000000            1.00000000+0.00000000j      1.00000000
    920.00000000            1.00000000+0.00000000j      1.00000000
    940.00000000            1.00000000+0.00000000j      1.00000000
    960.00000000            1.00000000+0.00000000j      1.00000000
    980.00000000            1.00000000+0.00000000j      1.00000000
   1000.00000000            1.00000000+0.00000000j      1.00000000
   1020.00000000            1.00000000+0.00000000j      1.00000000
   1040.00000000            1.00000000+0.00000000j      1.00000000
   1060.00000000            1.00000000+0.00000000j      1.00000000
   1080.00000000            1.00000000+0.00000000j      1.00000000
   1100.00000000            1.00000000+0.00000000j      1.00000000
   1120.00000000            1.00000000+0.00000000j      1.00000000
   1140.00000000            1.00000000+0.00000000j      1.00000000
   1160.00000000            1.00000000+0.00000000j      1.00000000
   1180.00000000            1.00000000+0.00000000j      1.00000000
   1200.00000000            1.00000000+0.00000000j      1.00000000
   1220.00000000            1.00000000+0.00000000j      1.00000000
   1240.00000000            1.00000000+0.00000000j      1.00000000
   1260.00000000            1.00000000+0.00000000j      1.00000000
   1280.00000000            1.00000000+0.00000000j      1.00000000
   1300.00000000            1.00000000+0.00000000j      1.00000000
   1320.00000000            1.00000000+0.00000000j      1.00000000
   1340.00000000            1.00000000+0.00000000j      1.00000000
   1360.00000000            1.00000000+0.00000000j      1.00000000
   1380.00000000            1.00000000+0.00000000j      1.00000000
   1400.00000000            1.00000000+0.00000000j      1.00000000
   1420.00000000            1.00000000+0.00000000j      1.00000000
   1440.00000000            1.00000000+0.00000000j      1.00000000
   1460.00000000            1.00000000+0.00000000j      1.00000000
   1480.00000000            1.00000000+0.00000000j      1.00000000
   1500.00000000            1.00000000+0.00000000j      1.00000000
   1520.00000000            1.00000000+0.00000000j      1.00000000
   1540.00000000            1.00000000+0.00000000j      1.00000000
   1560.00000000            1.00000000+0.00000000j      1.00000000
   1580.00000000            1.00000000+0.00000000j      1.00000000
   1600.00000000            1.00000000+0.00000000j      1.00000000
   1620.00000000            1.00000000+0.00000000j      1.00000000
   1640.00000000            1.00000000+0.00000000j      1.00000000
   1660.00000000            1.00000000+0.00000000j      1.00000000
   1680.00000000            1.00000000+0.00000000j      1.00000000
   1700.00000000            1.00000000+0.00000000j      1.00000000
   1720.00000000            1.00000000+0.00000000j      1.00000000
   1740.00000000            1.00000000+0.00000000j      1.00000000
   1760.00000000            1.00000000+0.00000000j      1.00000000
   1780.00000000            1.00000000+0.00000000j      1.00000000
   1800.00000000            1.00000000+0.00000000j      1.00000000
   1820.00000000            1.00000000+0.00000000j      1.00000000
   1840.00000000            1.00000000+0.00000000j      1.00000000
   1860.00000000            1.00000000+0.00000000j      1.00000000
   1880.00000000            1.00000000+0.00000000j      1.00000000
   1900.00000000            1.00000000+0.00000000j      1.00000000
   1920.00000000            1.00000000+0.00000000j      1.00000000
   1940.00000000            1.00000000+0.00000000j      1.00000000
   1960.00000000            1.00000000+0.00000000j      1.00000000
   1980.00000000            1.00000000+0.00000000j      1.00000000
   2000.00000000            1.00000000+0.00000000j      1.00000000
   2020.00000000            1.00000000+0.00000000j      1.00000000
   2040.00000000            1.00000000+0.00000000j      1.00000000
   2060.00000000            1.00000000+0.00000000j      1.00000000
   2080.00000000            1.00000000+0.00000000j      1.00000000
   2100.00000000            1.00000000+0.00000000j      1.00000000
   2120.00000000            1.00000000+0.00000000j      1.00000000
   2140.00000000            1.00000000+0.00000000j      1.00000000
   2160.00000000            1.00000000+0.00000000j      1.00000000
   2180.00000000            1.00000000+0.00000000j      1.00000000
   2200.00000000            1.00000000+0.00000000j      1.00000000
   2220.00000000            1.00000000+0.00000000j      1.00000000
   2240.00000000            1.00000000+0.00000000j      1.00000000
   2260.00000000            1.00000000+0.00000000j      1.00000000
   2280.00000000            1.00000000+0.00000000j      1.00000000
   2300.00000000            1.00000000+0.00000000j      1.00000000
   2320.00000000            1.00000000+0.00000000j      1.00000000
   2340.00000000            1.00000000+0.00000000j      1.00000000
   2360.00000000            1.00000000+0.00000000j      1.00000000
   2380.00000000            1.00000000+0.00000000j      1.00000000
   2400.00000000            1.00000000+0.00000000j      1.00000000
   2420.00000000            1.00000000+0.00000000j      1.00000000
   2440.00000000            1.00000000+0.00000000j      1.00000000
   2460.00000000            1.00000000+0.00000000j      1.00000000
   2480.00000000            1.00000000+0.00000000j      1.00000000
   2500.00000000            1.00000000+0.00000000j      1.00000000
   2520.00000000            1.00000000+0.00000000j      1.00000000
   2540.00000000            1.00000000+0.00000000j      1.00000000
   2560.00000000            1.00000000+0.00000000j      1.00000000
   2580.00000000            1.00000000+0.00000000j      1.00000000
   2600.00000000            1.00000000+0.00000000j      1.00000000
   2620.00000000            1.00000000+0.00000000j      1.00000000
   2640.00000000            1.00000000+0.00000000j      1.00000000
   2660.00000000            1.00000000+0.00000000j      1.00000000
   2680.00000000            1.00000000+0.00000000j      1.00000000
   2700.00000000            1.00000000+0.00000000j      1.00000000
   2720.00000000            1.00000000+0.00000000j      1.00000000
   2740.00000000            1.00000000+0.00000000j      1.00000000
   2760.00000000            1.00000000+0.00000000j      1.00000000
   2780.00000000            1.00000000+0.00000000j      1.00000000
   2800.00000000            1.00000000+0.00000000j      1.00000000
   2820.00000000            1.00000000+0.00000000j      1.00000000
   2840.00000000            1.00000000+0.00000000j      1.00000000
   2860.00000000            1.00000000+0.00000000j      1.00000000
   2880.00000000            1.00000000+0.00000000j      1.00000000
   2900.00000000            1.00000000+0.00000000j      1.00000000
   2920.00000000            1.00000000+0.00000000j      1.00000000
   2940.00000000            1.00000000+0.00000000j      1.00000000
   2960.00000000            1.00000000+0.00000000j      1.00000000
   2980.00000000            1.00000000+0.00000000j      1.00000000
   3000.00000000            1.00000000+0.00000000j      1.00000000
   3005.00000000           0.99999856+-0.00000000j      0.99999856
   3010.00000000           0.99983433+-0.00000464j      0.99983433
   3015.00000000           0.99900541+-0.00008507j      0.99900541
   3020.00000000           0.99631159+-0.00045978j      0.99631170
   3025.00000000           0.98909910+-0.00165780j      0.98910049
   3030.00000000           0.97300236+-0.00465776j      0.97301351
   3035.00000000           0.94458958+-0.01059173j      0.94464896
   3040.00000000           0.90679625+-0.01974689j      0.90701123
   3045.00000000           0.86833813+-0.03106104j      0.86889349
   3050.00000000           0.83631529+-0.04297054j      0.83741850
   3055.00000000           0.81303699+-0.05423621j      0.81484398
   3060.00000000           0.79772777+-0.06409722j      0.80029873
   3065.00000000           0.78855552+-0.07217183j      0.79185136
   3085.00000000           0.78906211+-0.07914750j      0.79302165
   3105.00000000           0.78962997+-0.07925817j      0.79359773
   3125.00000000           0.78963133+-0.07924281j      0.79359755
   3145.00000000           0.78963090+-0.07924298j      0.79359714
   3165.00000000           0.78963091+-0.07924298j      0.79359714
   3185.00000000           0.78963091+-0.07924298j      0.79359714
   3205.00000000           0.78963091+-0.07924298j      0.79359714
   3210.00000000           0.78962568+-0.07924246j      0.79359188
   3215.00000000           0.78960537+-0.07924304j      0.79357174
   3220.00000000           0.78957574+-0.07924671j      0.79354262
   3225.00000000           0.78956089+-0.07925019j      0.79352820
   3230.00000000           0.78956090+-0.07925019j      0.79352820
   3235.00000000           0.78954159+-0.07926015j      0.79350999
   3240.00000000           0.78949142+-0.07928828j      0.79346288
   3245.00000000           0.78942816+-0.07932585j      0.79340369
   3250.00000000           0.78912822+-0.07947934j      0.79312061
   3255.00000000           0.78892024+-0.07959105j      0.79292489
   3275.00000000           0.78893108+-0.07955245j      0.79293180
   3295.00000000           0.78892621+-0.07954683j      0.79292640
   3315.00000000           0.78892710+-0.07954468j      0.79292706
   3335.00000000           0.78891270+-0.07954745j      0.79291301
   3355.00000000           0.78891165+-0.07956165j      0.79291339
   3375.00000000           0.78891194+-0.07956168j      0.79291368
   3380.00000000           0.78891193+-0.07956167j      0.79291367
   3385.00000000           0.78891178+-0.07956166j      0.79291352
   3390.00000000           0.78891132+-0.07956163j      0.79291307
   3395.00000000           0.78891009+-0.07956156j      0.79291183
   3400.00000000           0.78890884+-0.07956149j      0.79291058
   3405.00000000           0.78890894+-0.07956150j      0.79291068
   3410.00000000           0.78890692+-0.07956142j      0.79290866
   3415.00000000           0.78890384+-0.07956130j      0.79290559
   3420.00000000           0.78890214+-0.07956124j      0.79290389
   3425.00000000           0.78890147+-0.07956123j      0.79290322
   3430.00000000           0.78890079+-0.07956123j      0.79290254
   3435.00000000           0.78889888+-0.07956125j      0.79290065
   3440.00000000           0.78889450+-0.07956134j      0.79289630
   3445.00000000           0.78888702+-0.07956154j      0.79288888
   3450.00000000           0.78887742+-0.07956186j      0.79287936
   3455.00000000           0.78886796+-0.07956231j      0.79286999
   3460.00000000           0.78886056+-0.07956285j      0.79286268
   3465.00000000           0.78885591+-0.07956336j      0.79285810
   3485.00000000           0.78813108+-0.07925310j      0.79210583
   3505.00000000           0.78781248+-0.07934208j      0.79179775
   3525.00000000           0.78816611+-0.07917606j      0.79213299
   3545.00000000           0.78827212+-0.07864931j      0.79218599
   3565.00000000           0.78824036+-0.07861631j      0.79215111
   3585.00000000           0.78819830+-0.07862073j      0.79210970
   3605.00000000           0.78806910+-0.07886616j      0.79200554
   3625.00000000           0.78815703+-0.07899695j      0.79210607
   3645.00000000           0.78822778+-0.07897350j      0.79217413
   3665.00000000           0.78822021+-0.07894220j      0.79216348
   3685.00000000           0.78820823+-0.07894569j      0.79215190
   3705.00000000           0.78820998+-0.07894913j      0.79215399
   3725.00000000           0.78821022+-0.07894864j      0.79215418
   3745.00000000           0.78820897+-0.07894789j      0.79215286
   3765.00000000           0.78820932+-0.07894725j      0.79215314
   3785.00000000           0.78820883+-0.07894717j      0.79215264
   3805.00000000           0.78820883+-0.07894740j      0.79215267
   3825.00000000           0.78820886+-0.07894731j      0.79215269
   3845.00000000           0.78820883+-0.07894731j      0.79215266
   3865.00000000           0.78820884+-0.07894732j      0.79215267
   3885.00000000           0.78820884+-0.07894732j      0.79215267
   3905.00000000           0.78820884+-0.07894732j      0.79215267
   3925.00000000           0.78820884+-0.07894732j      0.79215267
   3945.00000000           0.78820884+-0.07894732j      0.79215267
   3965.00000000           0.78820884+-0.07894732j      0.79215267
   3985.00000000           0.78820884+-0.07894732j      0.79215267
   4005.00000000           0.78820884+-0.07894732j      0.79215267
