               t            V-V0            T-T0            E-E0
   3380.00000000      0.00440377     -0.00439463      0.00000914
   3385.00000000      0.00826187     -0.00824359      0.00001828
   3390.00000000      0.01146822     -0.01144380      0.00002443
   3395.00000000      0.01395479     -0.01393096      0.00002384
   3400.00000000      0.01572823     -0.01571248      0.00001574
   3405.00000000      0.01687796     -0.01687287      0.00000509
   3410.00000000      0.01753741     -0.01754393     -0.00000652
   3415.00000000      0.01784797     -0.01786418     -0.00001621
   3420.00000000      0.01792892     -0.01795238     -0.00002346
   3440.00000000      0.01740971     -0.01763253     -0.00022281
   3460.00000000      0.01722010     -0.01749526     -0.00027517
   3480.00000000      0.01818467     -0.01847935     -0.00029467
   3500.00000000      0.02057690     -0.02087472     -0.00029782
   3520.00000000      0.02437178     -0.02464545     -0.00027367
   3540.00000000      0.02914120     -0.02935691     -0.00021570
   3560.00000000      0.03403786     -0.03417938     -0.00014151
   3580.00000000      0.03814920     -0.03825648     -0.00010727
   3600.00000000      0.04120088     -0.04135043     -0.00014955
   3605.00000000      0.04187372     -0.04202431     -0.00015059
   3610.00000000      0.04253802     -0.04269057     -0.00015255
   3615.00000000      0.04321483     -0.04336868     -0.00015384
   3620.00000000      0.04390542     -0.04408153     -0.00017611
   3625.00000000      0.04467952     -0.04484318     -0.00016366
   3630.00000000      0.04550026     -0.04566482     -0.00016456
   3635.00000000      0.04639660     -0.04656181     -0.00016522
   3640.00000000      0.04737611     -0.04754169     -0.00016558
   3645.00000000      0.04844176     -0.04860738     -0.00016562
   3650.00000000      0.04959166     -0.04975699     -0.00016534
   3655.00000000      0.05081965     -0.05098367     -0.00016402
   3660.00000000      0.05211255     -0.05227573     -0.00016318
   3665.00000000      0.05345477     -0.05361687     -0.00016210
   3670.00000000      0.05482565     -0.05498647     -0.00016083
   3675.00000000      0.05620071     -0.05636008     -0.00015938
   3695.00000000      0.06125793     -0.06128569     -0.00002775
   3715.00000000      0.06387649     -0.06377862      0.00009787
   3735.00000000      0.06205426     -0.06188965      0.00016461
   3755.00000000      0.05461526     -0.05446474      0.00015052
   3775.00000000      0.04153729     -0.04146467      0.00007262
   3795.00000000      0.02374114     -0.02377645     -0.00003531
   3815.00000000      0.00262592     -0.00277040     -0.00014447
   3835.00000000     -0.02041647      0.02022280     -0.00019368
   3855.00000000     -0.04468940      0.04437204     -0.00031736
   3875.00000000     -0.06794435      0.06693526     -0.00100908
   3895.00000000     -0.08453689      0.08381288     -0.00072401
   3915.00000000     -0.09719853      0.09709350     -0.00010502
   3935.00000000     -0.11330564      0.11332863      0.00002299
   3955.00000000     -0.13408558      0.13361401     -0.00047157
   3975.00000000     -0.15287759      0.15190017     -0.00097741
   3995.00000000     -0.16249595      0.16133353     -0.00116242
   4015.00000000     -0.15997691      0.15885191     -0.00112500
