               t           phase
   3380.00000000      1.14946033
   3385.00000000     -1.58109740
   3390.00000000     -4.34682212
   3395.00000000     -0.85776849
   3400.00000000     -3.67328390
   3405.00000000     -0.22042553
   3410.00000000     -3.06003441
   3415.00000000     -5.90471229
   3420.00000000     -2.46833589
   3440.00000000     -1.28060861
   3460.00000000     -0.08843316
   3480.00000000     -5.19789694
   3500.00000000     -4.09217042
   3520.00000000     -3.10895874
   3540.00000000     -2.29298323
   3560.00000000     -1.66421721
   3580.00000000     -1.21102058
   3600.00000000     -0.90222658
   3605.00000000     -3.98637826
   3610.00000000     -0.79406186
   3615.00000000     -3.89166899
   3620.00000000     -0.71301943
   3625.00000000     -3.82490523
   3630.00000000     -0.66157720
   3635.00000000     -3.79003586
   3640.00000000     -0.64469765
   3645.00000000     -3.79277226
   3650.00000000     -0.66873324
   3655.00000000     -3.83975333
   3660.00000000     -0.74016963
   3665.00000000     -3.93691887
   3670.00000000     -0.86401410
   3675.00000000     -4.08798471
   3695.00000000     -4.53806601
   3715.00000000     -5.12833314
   3735.00000000     -5.72426305
   3755.00000000     -6.13142989
   3775.00000000     -6.13171492
   3795.00000000     -5.52248969
   3815.00000000     -4.14457523
   3835.00000000     -1.89069377
   3855.00000000     -4.97764966
   3875.00000000     -0.86528881
   3895.00000000     -2.25692816
   3915.00000000     -3.01948875
   3935.00000000     -3.17227841
   3955.00000000     -2.60780072
   3975.00000000     -1.30215825
   3995.00000000     -5.74450211
   4015.00000000     -3.76801773
