               t            V-V0            T-T0            E-E0
   1625.00000000      0.00010531     -0.00010505      0.00000026
   1630.00000000      0.00023799     -0.00023662      0.00000137
   1635.00000000      0.00038362     -0.00038004      0.00000358
   1640.00000000      0.00050273     -0.00049036      0.00001237
   1645.00000000      0.00047350     -0.00043402      0.00003947
   1650.00000000     -0.00008156      0.00020177      0.00012021
   1655.00000000     -0.00206447      0.00222831      0.00016384
   1660.00000000     -0.00584559      0.00592048      0.00007489
   1665.00000000     -0.01061778      0.01065307      0.00003529
   1670.00000000     -0.01585907      0.01588149      0.00002242
   1675.00000000     -0.02138845      0.02140498      0.00001653
   1695.00000000     -0.04544027      0.04540449     -0.00003578
   1715.00000000     -0.07205308      0.07199390     -0.00005919
   1735.00000000     -0.10061286      0.10038490     -0.00022796
   1755.00000000     -0.12874042      0.12816716     -0.00057326
   1775.00000000     -0.15217989      0.15130728     -0.00087261
   1795.00000000     -0.16779082      0.16696108     -0.00082974
   1815.00000000     -0.17710909      0.17662282     -0.00048627
   1835.00000000     -0.18524151      0.18490617     -0.00033534
   1855.00000000     -0.19435689      0.19372951     -0.00062737
   1875.00000000     -0.20062333      0.19966351     -0.00095982
   1895.00000000     -0.19928808      0.19829647     -0.00099161
   1915.00000000     -0.18934595      0.18847707     -0.00086887
   1935.00000000     -0.17185077      0.17082870     -0.00102207
   1955.00000000     -0.14698810      0.14659653     -0.00039157
   1975.00000000     -0.12156631      0.12151631     -0.00004999
   1995.00000000     -0.09917501      0.09850676     -0.00066826
   2015.00000000     -0.07876783      0.07858078     -0.00018705
   2035.00000000     -0.06486099      0.06458846     -0.00027252
   2055.00000000     -0.05665439      0.05633670     -0.00031769
   2075.00000000     -0.05335962      0.05301297     -0.00034665
   2095.00000000     -0.05440484      0.05402732     -0.00037752
   2115.00000000     -0.05918759      0.05877144     -0.00041615
   2135.00000000     -0.06698986      0.06652502     -0.00046484
   2155.00000000     -0.07691567      0.07637803     -0.00053764
   2175.00000000     -0.08766909      0.08699798     -0.00067111
   2195.00000000     -0.09708793      0.09619520     -0.00089274
   2215.00000000     -0.10201432      0.10091794     -0.00109638
   2235.00000000     -0.10024041      0.09930362     -0.00093679
   2255.00000000     -0.09523828      0.09497459     -0.00026369
   2275.00000000     -0.09689390      0.09696068      0.00006678
   2295.00000000     -0.10967891      0.10907906     -0.00059985
   2315.00000000     -0.12486192      0.12363916     -0.00122276
   2335.00000000     -0.13325383      0.13211781     -0.00113602
   2355.00000000     -0.13462777      0.13374861     -0.00087916
   2375.00000000     -0.13195491      0.13110610     -0.00084881
   2395.00000000     -0.12598117      0.12510585     -0.00087532
   2415.00000000     -0.11669321      0.11590851     -0.00078470
   2435.00000000     -0.10546051      0.10483151     -0.00062900
   2455.00000000     -0.09447846      0.09393058     -0.00054788
   2475.00000000     -0.08509606      0.08456389     -0.00053217
   2495.00000000     -0.07842682      0.07812835     -0.00029848
   2515.00000000     -0.07694114      0.07665898     -0.00028216
   2535.00000000     -0.08106417      0.08069322     -0.00037095
   2555.00000000     -0.08961489      0.08913772     -0.00047717
   2575.00000000     -0.10104681      0.10047688     -0.00056992
   2595.00000000     -0.11387542      0.11321965     -0.00065578
   2615.00000000     -0.12669474      0.12594565     -0.00074908
   2635.00000000     -0.13804361      0.13719467     -0.00084894
   2655.00000000     -0.14644095      0.14551088     -0.00093007
   2675.00000000     -0.15072295      0.14977071     -0.00095224
   2695.00000000     -0.15056493      0.14968574     -0.00087920
   2715.00000000     -0.14689238      0.14617043     -0.00072195
   2735.00000000     -0.14160326      0.14101562     -0.00058763
   2755.00000000     -0.13611428      0.13550121     -0.00061307
   2775.00000000     -0.12979313      0.12906268     -0.00073045
   2795.00000000     -0.12111174      0.12048048     -0.00063126
   2815.00000000     -0.11145906      0.11117857     -0.00028049
   2835.00000000     -0.10515530      0.10494598     -0.00020933
   2855.00000000     -0.10296405      0.10235799     -0.00060606
   2875.00000000     -0.09985601      0.09891273     -0.00094327
   2895.00000000     -0.09127824      0.09034445     -0.00093379
   2915.00000000     -0.07715961      0.07642506     -0.00073455
   2935.00000000     -0.06023967      0.05970758     -0.00053209
   2955.00000000     -0.04351605      0.04312315     -0.00039290
   2975.00000000     -0.02916724      0.02885353     -0.00031371
   2995.00000000     -0.01850602      0.01823161     -0.00027440
   3015.00000000     -0.01224086      0.01198304     -0.00025781
   3035.00000000     -0.01074876      0.01050338     -0.00024538
   3055.00000000     -0.01435628      0.01414172     -0.00021456
   3075.00000000     -0.02361949      0.02345874     -0.00016075
   3095.00000000     -0.03934388      0.03922766     -0.00011621
   3115.00000000     -0.06211380      0.06197776     -0.00013604
   3135.00000000     -0.09132393      0.09091640     -0.00040753
   3155.00000000     -0.12264190      0.12141836     -0.00122354
   3175.00000000     -0.14654282      0.14496514     -0.00157768
   3195.00000000     -0.15745056      0.15590576     -0.00154480
   3215.00000000     -0.15603304      0.15487888     -0.00115416
   3235.00000000     -0.14896133      0.14863635     -0.00032498
   3255.00000000     -0.14783986      0.14784114      0.00000128
   3275.00000000     -0.15682419      0.15613289     -0.00069129
   3295.00000000     -0.16671962      0.16532276     -0.00139686
   3315.00000000     -0.16731175      0.16583814     -0.00147361
   3335.00000000     -0.15644041      0.15525122     -0.00118919
   3355.00000000     -0.13739773      0.13652544     -0.00087229
   3375.00000000     -0.11444946      0.11381449     -0.00063497
   3380.00000000     -0.10854546      0.10791325     -0.00063221
   3385.00000000     -0.10265914      0.10202953     -0.00062961
   3390.00000000     -0.09682887      0.09620162     -0.00062726
   3395.00000000     -0.09100128      0.09046200     -0.00053929
   3400.00000000     -0.08547298      0.08484503     -0.00062796
   3405.00000000     -0.08000828      0.07938208     -0.00062620
   3410.00000000     -0.07472213      0.07409753     -0.00062460
   3415.00000000     -0.06963921      0.06901608     -0.00062313
   3420.00000000     -0.06478236      0.06416058     -0.00062178
   3440.00000000     -0.04796760      0.04741972     -0.00054788
   3460.00000000     -0.03621220      0.03571414     -0.00049806
   3480.00000000     -0.03025130      0.02976616     -0.00048514
   3500.00000000     -0.03022821      0.02970329     -0.00052492
   3520.00000000     -0.03548365      0.03486035     -0.00062330
   3540.00000000     -0.04447790      0.04371127     -0.00076664
   3560.00000000     -0.05494237      0.05400409     -0.00093827
   3580.00000000     -0.06425971      0.06318138     -0.00107833
   3600.00000000     -0.07034179      0.06923593     -0.00110586
   3605.00000000     -0.07126624      0.07016149     -0.00110475
   3610.00000000     -0.07197417      0.07087065     -0.00110351
   3615.00000000     -0.07248409      0.07138209     -0.00110200
   3620.00000000     -0.07272330      0.07170796     -0.00101535
   3625.00000000     -0.07300558      0.07188515     -0.00112043
   3630.00000000     -0.07306674      0.07194754     -0.00111920
   3635.00000000     -0.07302372      0.07190534     -0.00111838
   3640.00000000     -0.07289219      0.07177410     -0.00111809
   3645.00000000     -0.07268056      0.07156216     -0.00111840
   3650.00000000     -0.07238886      0.07126950     -0.00111936
   3655.00000000     -0.07200823      0.07088726     -0.00112097
   3660.00000000     -0.07152095      0.07039775     -0.00112319
   3665.00000000     -0.07090087      0.06977488     -0.00112599
   3670.00000000     -0.07011406      0.06898475     -0.00112932
   3675.00000000     -0.06911945      0.06798631     -0.00113315
   3695.00000000     -0.06196186      0.06050870     -0.00145315
   3715.00000000     -0.04651520      0.04470569     -0.00180951
   3735.00000000     -0.01918100      0.01741942     -0.00176158
   3755.00000000      0.01678881     -0.01755008     -0.00076127
   3775.00000000      0.04544258     -0.04508327      0.00035932
   3795.00000000      0.05111448     -0.05113019     -0.00001571
   3815.00000000      0.03890226     -0.03998585     -0.00108359
   3835.00000000      0.02515351     -0.02664548     -0.00149197
   3855.00000000      0.01850714     -0.01983975     -0.00133261
   3875.00000000      0.01881095     -0.01984001     -0.00102906
   3895.00000000      0.02279679     -0.02356502     -0.00076822
   3915.00000000      0.02725444     -0.02784952     -0.00059508
   3935.00000000      0.02999642     -0.03050658     -0.00051016
   3955.00000000      0.02998919     -0.03048616     -0.00049697
   3975.00000000      0.02717897     -0.02771285     -0.00053389
   3995.00000000      0.02221178     -0.02281415     -0.00060237
   4015.00000000      0.01616620     -0.01685347     -0.00068727
