               t              S0              S1
   3380.00000000      0.69685107      0.70778278
   3385.00000000      0.69666877      0.70536090
   3390.00000000      0.69629971      0.70292599
   3395.00000000      0.69567305      0.70046780
   3400.00000000      0.69469615      0.69800358
   3405.00000000      0.69322307      0.69561275
   3410.00000000      0.69111300      0.69339199
   3415.00000000      0.68847505      0.69120600
   3420.00000000      0.68553313      0.68883724
   3425.00000000      0.68240367      0.68621345
   3430.00000000      0.67913865      0.68336124
   3435.00000000      0.67576856      0.68035809
   3440.00000000      0.67231851      0.67730841
   3445.00000000      0.66881847      0.67432410
   3450.00000000      0.66531179      0.67150700
   3455.00000000      0.66185751      0.66893872
   3460.00000000      0.65852456      0.66668015
   3465.00000000      0.65538232      0.66477612
   3485.00000000      0.64578392      0.66123850
   3505.00000000      0.64225082      0.66466454
   3525.00000000      0.64442110      0.67422324
   3545.00000000      0.65074739      0.68829645
   3565.00000000      0.65945756      0.70517711
   3585.00000000      0.66908731      0.72343374
   3605.00000000      0.67871418      0.74204326
   3625.00000000      0.68796419      0.76038138
   3645.00000000      0.69684663      0.77810251
   3665.00000000      0.70549118      0.79497572
   3685.00000000      0.71392668      0.81077515
   3705.00000000      0.72200078      0.82526971
   3725.00000000      0.72946645      0.83829846
   3745.00000000      0.73621811      0.84992094
   3765.00000000      0.74267404      0.86068481
   3785.00000000      0.75020579      0.87197276
   3805.00000000      0.76130315      0.88615455
   3825.00000000      0.77872425      0.90594900
   3845.00000000      0.80268786      0.93238994
   3865.00000000      0.82718247      0.96125077
   3885.00000000      0.84045845      0.98113391
   3905.00000000      0.83299735      0.98109980
   3925.00000000      0.80698413      0.96218761
   3945.00000000      0.77586726      0.93742760
   3965.00000000      0.75329187      0.92027010
   3985.00000000      0.74479039      0.91609606
   4005.00000000      0.74862798      0.92305135
