6
t = 3850.000000   , Parent I = 1   , Child I = 0   , TDC = -0.019948     
C       -0.272417       0.002913      -1.338520
C        0.234001      -0.243236       1.270364
H        1.443814       1.216798       1.992510
H       -0.485176       1.853625      -1.829215
H       -0.126344      -1.715801      -2.227610
H       -0.374996       1.506950       2.875866
