19

C       -0.065986      -0.002158       0.050467
C        1.363254       0.029149       0.056987
C        1.981211       1.233964      -0.086762
C        1.380263       2.462178      -0.035545
C       -0.006949       2.410496      -0.023702
C       -0.711384       1.228067      -0.011034
C       -2.180979       1.299981      -0.054363
C       -4.188978       0.021461      -0.042549
O       -2.892263       2.251794       0.048598
O       -2.723097       0.052368       0.017594
O       -0.638155       3.595673       0.093769
H       -0.483534      -1.021945      -0.025433
H        1.853334      -0.962519       0.115694
H        3.012204       1.321082       0.186948
H        2.067412       3.421355      -0.149244
H       -1.499470       3.378023       0.000865
H       -4.468923       0.489280       1.003062
H       -4.414321      -0.962281       0.136803
H       -4.614329       0.496054      -0.998236
