*** Started at: Mon Jun 19 21:49:45 PDT 2017 on fire-12-04 ***
==> RHF <==

ResourceList:
  CPU threads:  16
  GPU contexts:  1
  GPU context details:
  N  ID                 Name  CC  CPU Buffer  GPU Buffer
  0   0      GeForce GTX 970 5.2        1024        1024

Molecule: lactose
  Natom        =          45
  Charge       =       0.000
  Multiplicity =       1.000

Basis: cc-pvdz
  nao     =   432
  ncart   =   455
  nprim   =   616
  nshell  =   204
  natom   =    45
  pure?   =   Yes
  max L   =     2

Basis: cc-pvdz-minao
  nao     =   137
  ncart   =   137
  nprim   =   594
  nshell  =    91
  natom   =    45
  pure?   =   Yes
  max L   =     1

Nuclear Repulsion Energy =   2.2761472077717785E+03

Integral Thresholds:
  Threshold PQ =   1.000E-14
  Threshold DP =   1.000E-06
  Threshold SP =   1.000E-14

PairList:
  symm? =         Yes
  thre  =   1.000E-14
  npair =       63757

One-Electron Integrals:

Canonical Orthogonalization:
  Threshold =   1.000E-06
  Nmo       =         432
  Ndiscard  =           0

SAD Guess:

DIIS:
  Max Vectors =     6

Orbital Spaces:
  Nocc = 91
  Nvir = 341

Convergence Options:
  Max Iterations =          50
  E Convergence  =   1.000E-06
  G Convergence  =   1.000E-05

RHF Iterations:

Iter:                   Energy          dE          dG
   0:  -1.2835383033664398E+03  -1.284E+03   7.318E-01
   1:  -1.2897927336460409E+03  -6.254E+00   3.037E-02
   2:  -1.2901742223116714E+03  -3.815E-01   1.597E-02
   3:  -1.2903329272287160E+03  -1.587E-01   4.325E-03
   4:  -1.2903414394368397E+03  -8.512E-03   8.511E-04
   5:  -1.2903420155619208E+03  -5.761E-04   3.758E-04
   6:  -1.2903420863153915E+03  -7.075E-05   9.787E-05
   7:  -1.2903420978517072E+03  -1.154E-05   3.470E-05
   8:  -1.2903420986827566E+03  -8.310E-07   1.342E-05
   9:  -1.2903420988040107E+03  -1.213E-07   3.591E-06

RHF Converged

RHF Energy =  -1.2903420988040107E+03

Tensor: I
  Ndim  = 1
  Size  = 91
  Shape = (91)

  Data:

      0  -20.5933862
      1  -20.5905176
      2  -20.5891585
      3  -20.5867321
      4  -20.5811663
      5  -20.5726371
      6  -20.5726021
      7  -20.5725162
      8  -20.5694604
      9  -20.5679092
     10  -20.5642022
     11  -11.3810365
     12  -11.3380635
     13  -11.3297067
     14  -11.3274913
     15  -11.3251457
     16  -11.3210414
     17  -11.3195614
     18  -11.3082902
     19  -11.3021900
     20  -11.3021373
     21  -11.2952779
     22  -11.2745383
     23   -1.4329586
     24   -1.4166106
     25   -1.3800642
     26   -1.3631159
     27   -1.3579593
     28   -1.3492601
     29   -1.3462342
     30   -1.3423883
     31   -1.3308820
     32   -1.3235130
     33   -1.2772329
     34   -1.0740694
     35   -1.0721803
     36   -1.0456549
     37   -1.0176077
     38   -0.9449167
     39   -0.9283642
     40   -0.9051468
     41   -0.8615412
     42   -0.8379958
     43   -0.8324282
     44   -0.7939727
     45   -0.7803564
     46   -0.7275612
     47   -0.7152123
     48   -0.7142873
     49   -0.7068947
     50   -0.6960527
     51   -0.6938349
     52   -0.6798909
     53   -0.6731144
     54   -0.6694795
     55   -0.6655988
     56   -0.6460855
     57   -0.6401430
     58   -0.6323853
     59   -0.6291330
     60   -0.6108573
     61   -0.6044563
     62   -0.6019986
     63   -0.5986074
     64   -0.5810028
     65   -0.5674005
     66   -0.5638906
     67   -0.5592932
     68   -0.5523013
     69   -0.5498291
     70   -0.5484987
     71   -0.5437157
     72   -0.5294264
     73   -0.5210368
     74   -0.5187837
     75   -0.5100907
     76   -0.5036497
     77   -0.4991293
     78   -0.4926054
     79   -0.4866423
     80   -0.4764746
     81   -0.4704804
     82   -0.4636152
     83   -0.4605679
     84   -0.4545489
     85   -0.4490673
     86   -0.4401995
     87   -0.4330338
     88   -0.4285855
     89   -0.4141856
     90   -0.3992740

Tensor: I
  Ndim  = 1
  Size  = 341
  Shape = (341)

  Data:

      0    0.1188989
      1    0.1396144
      2    0.1487086
      3    0.1583453
      4    0.1637086
      5    0.1660733
      6    0.1775163
      7    0.1830781
      8    0.1886687
      9    0.2078896
     10    0.2127886
     11    0.2162022
     12    0.2309523
     13    0.2377884
     14    0.2439941
     15    0.2452223
     16    0.2615166
     17    0.2670755
     18    0.2711233
     19    0.2804270
     20    0.2881736
     21    0.2908343
     22    0.2993138
     23    0.3144320
     24    0.3231141
     25    0.3261430
     26    0.3291223
     27    0.3377612
     28    0.3547503
     29    0.3578127
     30    0.3659656
     31    0.3769216
     32    0.3865138
     33    0.3906307
     34    0.4005354
     35    0.4113755
     36    0.4223035
     37    0.4270756
     38    0.4341914
     39    0.4542640
     40    0.4634688
     41    0.4750713
     42    0.5014599
     43    0.5168167
     44    0.5213778
     45    0.5531216
     46    0.6275402
     47    0.6525732
     48    0.6590320
     49    0.6682634
     50    0.6792508
     51    0.6871495
     52    0.6912481
     53    0.7011763
     54    0.7042160
     55    0.7098236
     56    0.7127803
     57    0.7169848
     58    0.7290958
     59    0.7334959
     60    0.7384739
     61    0.7408921
     62    0.7538349
     63    0.7573236
     64    0.7613181
     65    0.7669520
     66    0.7734830
     67    0.7783611
     68    0.7807431
     69    0.7847747
     70    0.7925140
     71    0.7967342
     72    0.8011775
     73    0.8044291
     74    0.8204860
     75    0.8222566
     76    0.8273076
     77    0.8344704
     78    0.8436680
     79    0.8503866
     80    0.8536413
     81    0.8617275
     82    0.8681249
     83    0.8712968
     84    0.8753358
     85    0.8792436
     86    0.8919084
     87    0.8971754
     88    0.9024701
     89    0.9055845
     90    0.9154822
     91    0.9237017
     92    0.9302709
     93    0.9349586
     94    0.9403268
     95    0.9450164
     96    0.9538128
     97    0.9728076
     98    0.9760474
     99    0.9932422
    100    1.0139045
    101    1.0352234
    102    1.0376383
    103    1.0572212
    104    1.0850967
    105    1.1026910
    106    1.1214470
    107    1.1294194
    108    1.1523304
    109    1.1623648
    110    1.1862024
    111    1.2074545
    112    1.2230449
    113    1.2300673
    114    1.2379859
    115    1.2419249
    116    1.2518333
    117    1.2569570
    118    1.2627401
    119    1.2686589
    120    1.2863897
    121    1.2930736
    122    1.2972147
    123    1.3046162
    124    1.3113141
    125    1.3163873
    126    1.3215559
    127    1.3297290
    128    1.3387119
    129    1.3492174
    130    1.3532571
    131    1.3643599
    132    1.3755411
    133    1.3827433
    134    1.3955476
    135    1.4024507
    136    1.4234147
    137    1.4310042
    138    1.4393185
    139    1.4443816
    140    1.4591451
    141    1.4659475
    142    1.4727115
    143    1.4772032
    144    1.4843357
    145    1.4958547
    146    1.5061481
    147    1.5147953
    148    1.5241480
    149    1.5350631
    150    1.5394221
    151    1.5500881
    152    1.5601428
    153    1.5646443
    154    1.5788277
    155    1.5814282
    156    1.5955265
    157    1.6020518
    158    1.6082881
    159    1.6190548
    160    1.6284536
    161    1.6312060
    162    1.6358284
    163    1.6446483
    164    1.6537919
    165    1.6580991
    166    1.6645181
    167    1.6723454
    168    1.6826552
    169    1.6883295
    170    1.7026479
    171    1.7111550
    172    1.7113964
    173    1.7220262
    174    1.7431721
    175    1.7484923
    176    1.7505212
    177    1.7622125
    178    1.7731726
    179    1.7855480
    180    1.7921554
    181    1.8188455
    182    1.8274331
    183    1.8360116
    184    1.8424013
    185    1.8475630
    186    1.8600970
    187    1.8677161
    188    1.8680767
    189    1.8737692
    190    1.8856471
    191    1.8937668
    192    1.9044085
    193    1.9067371
    194    1.9211114
    195    1.9322528
    196    1.9472080
    197    1.9535795
    198    1.9588806
    199    1.9701355
    200    1.9820921
    201    1.9849834
    202    1.9973281
    203    2.0073641
    204    2.0103132
    205    2.0144844
    206    2.0162266
    207    2.0279073
    208    2.0391435
    209    2.0429456
    210    2.0478395
    211    2.0510569
    212    2.0554032
    213    2.0713554
    214    2.0910318
    215    2.0945591
    216    2.0994806
    217    2.1065290
    218    2.1070719
    219    2.1321193
    220    2.1392404
    221    2.1396031
    222    2.1490125
    223    2.1636058
    224    2.1734635
    225    2.1801113
    226    2.1846764
    227    2.1870396
    228    2.2076942
    229    2.2124956
    230    2.2200998
    231    2.2250299
    232    2.2272784
    233    2.2333875
    234    2.2454553
    235    2.2530229
    236    2.2688640
    237    2.2750970
    238    2.2925694
    239    2.2984981
    240    2.3033239
    241    2.3122041
    242    2.3190847
    243    2.3346105
    244    2.3378275
    245    2.3502458
    246    2.3560844
    247    2.3629150
    248    2.3727738
    249    2.3773833
    250    2.3941342
    251    2.4057775
    252    2.4203512
    253    2.4404629
    254    2.4588838
    255    2.4700504
    256    2.4818313
    257    2.4893840
    258    2.5087181
    259    2.5189509
    260    2.5419059
    261    2.5468649
    262    2.5634510
    263    2.5783582
    264    2.5962645
    265    2.6075647
    266    2.6278792
    267    2.6414479
    268    2.6464334
    269    2.6723017
    270    2.6734122
    271    2.6837614
    272    2.7048336
    273    2.7301187
    274    2.7405187
    275    2.7632290
    276    2.7893324
    277    2.7996729
    278    2.8250187
    279    2.8516441
    280    2.8893787
    281    2.9013193
    282    2.9265461
    283    3.0038318
    284    3.1398773
    285    3.1520032
    286    3.1574214
    287    3.1636463
    288    3.1897382
    289    3.2026778
    290    3.2043608
    291    3.2172080
    292    3.2186342
    293    3.2251069
    294    3.2375822
    295    3.2409336
    296    3.2493591
    297    3.2743501
    298    3.2835055
    299    3.2922623
    300    3.3075799
    301    3.3114423
    302    3.3166956
    303    3.3225140
    304    3.3330517
    305    3.3467188
    306    3.3596999
    307    3.3733927
    308    3.3863581
    309    3.3939377
    310    3.4055855
    311    3.4182779
    312    3.4331266
    313    3.4366031
    314    3.4545251
    315    3.4728535
    316    3.4873984
    317    3.5060651
    318    3.5156896
    319    3.5346317
    320    3.5466152
    321    3.5681546
    322    3.6053871
    323    3.6326412
    324    3.6591638
    325    3.6632839
    326    3.6776636
    327    3.7046226
    328    3.7132488
    329    3.7251098
    330    3.7595565
    331    3.8039933
    332    3.8697096
    333    3.8748987
    334    3.9465096
    335    3.9479770
    336    3.9776147
    337    3.9912158
    338    4.0567233
    339    4.0810251
    340    4.1046660

"I love it when a plan comes together!"
        --LTC John "Hannibal" Smith

==> End RHF <==

*** Stopped at: Mon Jun 19 21:50:25 PDT 2017 on fire-12-04 ***
*** Runtime: 39.430 [s] ***

