6

C       -0.169087       0.029076      -0.662973
C        0.159865      -0.027061       0.660226
H        0.800244       0.705055       1.001122
H        0.472823       0.659650      -1.308269
H       -1.003392      -0.535459      -1.111807
H       -0.159928      -0.853205       1.451667
