6
t = 3695.000000   , Parent I = 1   , Child I = 0   , TDC = -0.136017     
C       -0.140299      -0.016704      -0.648440
C        0.131801      -0.089201       0.655585
H        0.788945       0.609896       1.383888
H       -0.283809       0.895501      -1.506131
H       -0.211241      -0.801867      -1.520210
H       -0.192764       0.557514       1.557395
