6
t = 2575.000000   , Parent I = 1   , Child I = 0   , TDC = -0.045515     
C       -0.109487       0.196270      -0.704652
C        0.191073      -0.078253       0.644861
H        0.027458       0.626259       1.513794
H        0.030073      -0.459694      -1.757762
H       -1.347571      -0.566340      -0.369799
H        0.318551      -1.005408       1.325696
