               t            V-V0            T-T0            E-E0
   3210.00000000      0.00344244     -0.00342917      0.00001327
   3215.00000000      0.00650718     -0.00647289      0.00003429
   3220.00000000      0.00893828     -0.00887209      0.00006618
   3225.00000000      0.01035849     -0.01025311      0.00010538
   3230.00000000      0.01032407     -0.01019585      0.00012822
   3235.00000000      0.00857457     -0.00846284      0.00011172
   3240.00000000      0.00526589     -0.00519624      0.00006965
   3245.00000000      0.00085081     -0.00082254      0.00002827
   3250.00000000     -0.00419172      0.00418794     -0.00000378
   3255.00000000     -0.00947316      0.00944633     -0.00002683
   3275.00000000     -0.02843588      0.02782789     -0.00060799
   3295.00000000     -0.03774788      0.03653388     -0.00121401
   3315.00000000     -0.02907742      0.02686752     -0.00220990
   3335.00000000      0.00699499     -0.00912403     -0.00212904
   3355.00000000      0.05899265     -0.05757228      0.00142037
   3375.00000000      0.07285873     -0.06952556      0.00333317
   3380.00000000      0.06565969     -0.06236982      0.00328987
   3385.00000000      0.05483850     -0.05161229      0.00322622
   3390.00000000      0.04138964     -0.03823503      0.00315461
   3395.00000000      0.02496739     -0.02347109      0.00149629
   3400.00000000      0.01114555     -0.00833109      0.00281446
   3405.00000000     -0.00362374      0.00639935      0.00277561
   3410.00000000     -0.01715933      0.01991420      0.00275487
   3415.00000000     -0.02901580      0.03176281      0.00274701
   3420.00000000     -0.03896452      0.04171717      0.00275265
   3425.00000000     -0.04696200      0.04972668      0.00276468
   3430.00000000     -0.05308631      0.05586751      0.00278120
   3435.00000000     -0.05749655      0.06029628      0.00279974
   3440.00000000     -0.06039459      0.06321323      0.00281864
   3445.00000000     -0.06199944      0.06483651      0.00283707
   3450.00000000     -0.06253279      0.06538777      0.00285498
   3455.00000000     -0.06221526      0.06508834      0.00287308
   3460.00000000     -0.06127120      0.06416295      0.00289175
   3465.00000000     -0.05992678      0.06283432      0.00290754
   3485.00000000     -0.05291594      0.05588818      0.00297224
   3505.00000000     -0.04412252      0.04717375      0.00305123
   3525.00000000     -0.03411966      0.03721539      0.00309573
   3545.00000000     -0.02327601      0.02641651      0.00314050
   3565.00000000     -0.01204134      0.01524902      0.00320768
   3585.00000000     -0.00122047      0.00450426      0.00328379
   3605.00000000      0.00823221     -0.00489759      0.00333462
   3625.00000000      0.01568988     -0.01235215      0.00333773
   3645.00000000      0.02116294     -0.01786138      0.00330157
   3665.00000000      0.02518764     -0.02193903      0.00324862
   3685.00000000      0.02847945     -0.02527658      0.00320287
   3705.00000000      0.03161307     -0.02843764      0.00317543
   3725.00000000      0.03486067     -0.03168366      0.00317701
   3745.00000000      0.03811948     -0.03492140      0.00319808
   3765.00000000      0.04100369     -0.03777553      0.00322815
   3785.00000000      0.04300690     -0.03975061      0.00325629
   3805.00000000      0.04365988     -0.04038336      0.00327652
   3825.00000000      0.04262030     -0.03932970      0.00329060
   3845.00000000      0.03969313     -0.03640302      0.00329012
   3865.00000000      0.03487534     -0.03159785      0.00327749
   3885.00000000      0.02836550     -0.02511673      0.00324877
   3905.00000000      0.02060250     -0.01740161      0.00320089
   3925.00000000      0.01229603     -0.00916385      0.00313217
   3945.00000000      0.00443121     -0.00138511      0.00304610
   3965.00000000     -0.00181189      0.00476964      0.00295775
   3985.00000000     -0.00531393      0.00821308      0.00289916
   4005.00000000     -0.00550370      0.00841509      0.00291139
