               t           phase
   3210.00000000      2.26332871
   3215.00000000     -0.76498176
   3220.00000000     -3.82024591
   3225.00000000     -0.61086043
   3230.00000000     -3.69092289
   3235.00000000     -0.47878169
   3240.00000000     -3.52512643
   3245.00000000     -0.25050256
   3250.00000000     -3.21250895
   3255.00000000     -6.12345405
   3275.00000000     -4.75304646
   3295.00000000     -2.86328545
   3315.00000000     -1.02631488
   3335.00000000     -0.11178850
   3355.00000000     -0.75585574
   3375.00000000     -2.39036799
   3380.00000000     -6.04068226
   3385.00000000     -3.31904582
   3390.00000000     -0.47776010
   3395.00000000     -3.77634401
   3400.00000000     -0.64210650
   3405.00000000     -3.64617744
   3410.00000000     -0.22640165
   3415.00000000     -2.96333565
   3420.00000000     -5.59140988
   3425.00000000     -1.84649466
   3430.00000000     -4.31392820
   3435.00000000     -0.44518531
   3440.00000000     -2.82272657
   3445.00000000     -5.17738354
   3450.00000000     -1.23779776
   3455.00000000     -3.57995193
   3460.00000000     -5.92803780
   3465.00000000     -2.00402320
   3485.00000000     -5.33291459
   3505.00000000     -2.69022030
   3525.00000000     -0.41962125
   3545.00000000     -4.84655236
   3565.00000000     -3.42764895
   3585.00000000     -2.44375572
   3605.00000000     -1.85979184
   3625.00000000     -1.61187795
   3645.00000000     -1.62447062
   3665.00000000     -1.83128307
   3685.00000000     -2.18880309
   3705.00000000     -2.67777729
   3725.00000000     -3.29508391
   3745.00000000     -4.04098676
   3765.00000000     -4.90686759
   3785.00000000     -5.86739285
   3805.00000000     -0.59530190
   3825.00000000     -1.59697147
   3845.00000000     -2.51865927
   3865.00000000     -3.28603539
   3885.00000000     -3.82883830
   3905.00000000     -4.08979546
   3925.00000000     -4.03476925
   3945.00000000     -3.66336299
   3965.00000000     -3.01752509
   3985.00000000     -2.18286897
   4005.00000000     -1.27524614
