               t              S0              S1
   3210.00000000      0.73158730      0.78096713
   3215.00000000      0.73465203      0.77687853
   3220.00000000      0.73708314      0.77319771
   3225.00000000      0.73850335      0.77020445
   3230.00000000      0.73846893      0.76822915
   3235.00000000      0.73671943      0.76740621
   3240.00000000      0.73341075      0.76744858
   3245.00000000      0.72899567      0.76778912
   3250.00000000      0.72395314      0.76788228
   3255.00000000      0.71867170      0.76735548
   3275.00000000      0.69970898      0.75815121
   3295.00000000      0.69039698      0.74737156
   3315.00000000      0.69906744      0.75019967
   3335.00000000      0.73513985      0.77806850
   3355.00000000      0.78713751      0.82090027
   3375.00000000      0.80100359      0.82656286
   3380.00000000      0.79380455      0.81759939
   3385.00000000      0.78298336      0.80513647
   3390.00000000      0.76953450      0.79015866
   3395.00000000      0.75311225      0.77236155
   3400.00000000      0.73929041      0.75713559
   3405.00000000      0.72452112      0.74108312
   3410.00000000      0.71098553      0.72631264
   3415.00000000      0.69912905      0.71325937
   3420.00000000      0.68918034      0.70213583
   3425.00000000      0.68118286      0.69298131
   3430.00000000      0.67505855      0.68571111
   3435.00000000      0.67064831      0.68016505
   3440.00000000      0.66775027      0.67614581
   3445.00000000      0.66614542      0.67344836
   3450.00000000      0.66561207      0.67188199
   3455.00000000      0.66592960      0.67128839
   3460.00000000      0.66687366      0.67155774
   3465.00000000      0.66821808      0.67263147
   3485.00000000      0.67522892      0.68337713
   3505.00000000      0.68402234      0.69979208
   3525.00000000      0.69402520      0.71927555
   3545.00000000      0.70486885      0.74109988
   3565.00000000      0.71610352      0.76474678
   3585.00000000      0.72692439      0.78946931
   3605.00000000      0.73637707      0.81443188
   3625.00000000      0.74383474      0.83917976
   3645.00000000      0.74930780      0.86397686
   3665.00000000      0.75333250      0.88958696
   3685.00000000      0.75662431      0.91661988
   3705.00000000      0.75975793      0.94500340
   3725.00000000      0.76300553      0.97381966
   3745.00000000      0.76626434      1.00171833
   3765.00000000      0.76914855      1.02736308
   3785.00000000      0.77115176      1.04982896
   3805.00000000      0.77180474      1.06865269
   3825.00000000      0.77076516      1.08365109
   3845.00000000      0.76783799      1.09397171
   3865.00000000      0.76302020      1.09728563
   3885.00000000      0.75651036      1.09668040
   3905.00000000      0.74874736      1.09405714
   3925.00000000      0.74044089      1.09027873
   3945.00000000      0.73257607      1.08626271
   3965.00000000      0.72633297      1.08301233
   3985.00000000      0.72283093      1.08138945
   4005.00000000      0.72264116      1.08167589
