               t            V-V0            T-T0            E-E0
   2745.00000000      0.00385425     -0.00384656      0.00000770
   2750.00000000      0.00723095     -0.00720477      0.00002619
   2755.00000000      0.00989396     -0.00981904      0.00007492
   2760.00000000      0.01125525     -0.01109451      0.00016074
   2765.00000000      0.01053611     -0.01040731      0.00012880
   2770.00000000      0.00804755     -0.00800623      0.00004132
   2775.00000000      0.00473529     -0.00473312      0.00000217
   2780.00000000      0.00111282     -0.00112624     -0.00001342
   2785.00000000     -0.00261021      0.00258945     -0.00002075
   2805.00000000     -0.01707289      0.01688600     -0.00018689
   2825.00000000     -0.02924297      0.02896898     -0.00027400
   2845.00000000     -0.03790688      0.03758865     -0.00031823
   2865.00000000     -0.04251604      0.04222265     -0.00029340
   2885.00000000     -0.04344734      0.04326146     -0.00018588
   2905.00000000     -0.04204681      0.04197922     -0.00006760
   2925.00000000     -0.03940397      0.03914822     -0.00025575
   2945.00000000     -0.03340483      0.03292290     -0.00048193
   2965.00000000     -0.02228767      0.02208964     -0.00019802
   2985.00000000     -0.00863892      0.00857818     -0.00006073
   3005.00000000      0.00557410     -0.00554446      0.00002964
   3025.00000000      0.01897879     -0.01886170      0.00011709
   3045.00000000      0.03016633     -0.02996620      0.00020013
   3050.00000000      0.03243915     -0.03223611      0.00020304
   3055.00000000      0.03446257     -0.03426006      0.00020252
   3060.00000000      0.03622431     -0.03602079      0.00020352
   3065.00000000      0.03777128     -0.03750485      0.00026643
   3070.00000000      0.03889836     -0.03869708      0.00020129
   3075.00000000      0.03978717     -0.03958549      0.00020169
   3080.00000000      0.04036632     -0.04016444      0.00020188
   3085.00000000      0.04063143     -0.04042957      0.00020185
   3090.00000000      0.04058142     -0.04037980      0.00020162
   3095.00000000      0.04021862     -0.04001745      0.00020117
   3100.00000000      0.03954874     -0.03934822      0.00020051
   3105.00000000      0.03858080     -0.03838114      0.00019966
   3110.00000000      0.03732697     -0.03712836      0.00019862
   3130.00000000      0.02975683     -0.02964418      0.00011265
   3150.00000000      0.01921083     -0.01919776      0.00001307
   3170.00000000      0.00728244     -0.00735775     -0.00007531
   3190.00000000     -0.00452059      0.00438221     -0.00013838
   3210.00000000     -0.01500750      0.01482845     -0.00017905
   3230.00000000     -0.02330563      0.02309210     -0.00021353
   3250.00000000     -0.02869283      0.02844441     -0.00024842
   3270.00000000     -0.03056734      0.03030982     -0.00025752
   3290.00000000     -0.02884088      0.02864449     -0.00019639
   3310.00000000     -0.02451501      0.02445477     -0.00006025
   3330.00000000     -0.01966718      0.01974917      0.00008200
   3350.00000000     -0.01642942      0.01656643      0.00013701
   3370.00000000     -0.01567168      0.01575087      0.00007919
   3390.00000000     -0.01661653      0.01658380     -0.00003274
   3410.00000000     -0.01764825      0.01752764     -0.00012061
   3430.00000000     -0.01744526      0.01729867     -0.00014659
   3450.00000000     -0.01557441      0.01545628     -0.00011813
   3470.00000000     -0.01241655      0.01235284     -0.00006371
   3490.00000000     -0.00875621      0.00874748     -0.00000873
   3510.00000000     -0.00538721      0.00541409      0.00002688
   3530.00000000     -0.00286464      0.00290798      0.00004333
   3550.00000000     -0.00146779      0.00151500      0.00004720
   3570.00000000     -0.00129829      0.00134979      0.00005150
   3590.00000000     -0.00247386      0.00254275      0.00006888
   3610.00000000     -0.00530172      0.00540113      0.00009942
   3630.00000000     -0.01025173      0.01037189      0.00012016
   3650.00000000     -0.01760124      0.01769643      0.00009518
   3670.00000000     -0.02691293      0.02692040      0.00000747
   3675.00000000     -0.02938530      0.02939134      0.00000604
   3680.00000000     -0.03186890      0.03187297      0.00000407
   3685.00000000     -0.03433243      0.03433449      0.00000206
   3690.00000000     -0.03680181      0.03674106     -0.00006074
   3695.00000000     -0.03907217      0.03906395     -0.00000822
   3700.00000000     -0.04128607      0.04127603     -0.00001004
   3705.00000000     -0.04335707      0.04334538     -0.00001169
   3710.00000000     -0.04525907      0.04524595     -0.00001312
   3715.00000000     -0.04696946      0.04695518     -0.00001428
   3735.00000000     -0.05159030      0.05155601     -0.00003428
   3755.00000000     -0.05249817      0.05253457      0.00003640
   3775.00000000     -0.05071675      0.05088266      0.00016590
   3795.00000000     -0.04810699      0.04838051      0.00027352
   3815.00000000     -0.04617471      0.04645351      0.00027880
   3820.00000000     -0.04583888      0.04611675      0.00027787
   3825.00000000     -0.04554486      0.04582144      0.00027658
   3830.00000000     -0.04527442      0.04554949      0.00027508
   3835.00000000     -0.04501727      0.04527691      0.00025963
   3840.00000000     -0.04471737      0.04498353      0.00026616
   3845.00000000     -0.04438478      0.04464936      0.00026458
   3850.00000000     -0.04398646      0.04424960      0.00026314
   3855.00000000     -0.04350257      0.04376449      0.00026191
   3860.00000000     -0.04291637      0.04317731      0.00026094
   3865.00000000     -0.04221480      0.04247505      0.00026025
   3870.00000000     -0.04138887      0.04164871      0.00025984
   3875.00000000     -0.04043375      0.04069346      0.00025971
   3880.00000000     -0.03934863      0.03960847      0.00025984
   3885.00000000     -0.03813646      0.03839665      0.00026019
   3905.00000000     -0.03213082      0.03243950      0.00030868
   3925.00000000     -0.02491970      0.02528650      0.00036680
   3945.00000000     -0.01738853      0.01779737      0.00040884
   3965.00000000     -0.01020524      0.01063683      0.00043159
   3985.00000000     -0.00377425      0.00422487      0.00045062
   4005.00000000      0.00153849     -0.00105092      0.00048756
