6
t =    2745.000000
C       -0.310276       0.007869      -1.308323
C        0.436079       0.253353       1.367385
H        1.387813      -1.373425       2.329635
H       -1.476805       1.594558      -2.435543
H       -0.174615      -1.807183      -2.869902
H       -1.234393      -1.524191       2.272568
6
t =    2750.000000
C       -0.309885       0.006908      -1.303982
C        0.436166       0.256504       1.364582
H        1.374174      -1.365248       2.328853
H       -1.457524       1.592705      -2.432827
H       -0.195963      -1.808790      -2.857856
H       -1.224387      -1.554976       2.240285
6
t =    2755.000000
C       -0.309514       0.005962      -1.299736
C        0.436163       0.259459       1.361776
H        1.361321      -1.356422       2.327618
H       -1.437864       1.590288      -2.429466
H       -0.217010      -1.809578      -2.844872
H       -1.214542      -1.584527       2.208045
6
t =    2760.000000
C       -0.309165       0.005040      -1.295600
C        0.436075       0.262222       1.358966
H        1.349242      -1.346921       2.326076
H       -1.417801       1.587343      -2.425482
H       -0.237821      -1.809581      -2.830901
H       -1.204834      -1.612998       2.175842
6
t =    2765.000000
C       -0.308841       0.004146      -1.291580
C        0.435910       0.264815       1.356147
H        1.337843      -1.336757       2.324471
H       -1.397265       1.583930      -2.420918
H       -0.258544      -1.808867      -2.815879
H       -1.195146      -1.640691       2.143589
6
t =    2770.000000
C       -0.308545       0.003275      -1.287667
C        0.435676       0.267285       1.353305
H        1.326954      -1.326067       2.323047
H       -1.376171       1.580123      -2.415839
H       -0.279360      -1.807516      -2.799787
H       -1.185279      -1.667961       2.111095
6
t =    2775.000000
C       -0.308278       0.002415      -1.283838
C        0.435377       0.269673       1.350430
H        1.316463      -1.315027       2.321912
H       -1.354491       1.575983      -2.410297
H       -0.300356      -1.805582      -2.782664
H       -1.175101      -1.694981       2.078215
6
t =    2780.000000
C       -0.308039       0.001556      -1.280078
C        0.435013       0.272001       1.347515
H        1.306331      -1.303766       2.321104
H       -1.332229       1.571553      -2.404326
H       -0.321552      -1.803093      -2.764552
H       -1.164552      -1.721801       2.044886
6
t =    2785.000000
C       -0.307826       0.000695      -1.276376
C        0.434581       0.274281       1.344554
H        1.296550      -1.292374       2.320649
H       -1.309407       1.566872      -2.397957
H       -0.342944      -1.800068      -2.745487
H       -1.153601      -1.748422       2.011083
6
t =    2805.000000
C       -0.307228      -0.002831      -1.262078
C        0.432161       0.282994       1.332227
H        1.261012      -1.246206       2.322566
H       -1.212764       1.546029      -2.368785
H       -0.430363      -1.782774      -2.659999
H       -1.105625      -1.852802       1.871080
6
t =    2825.000000
C       -0.306953      -0.006643      -1.248291
C        0.428513       0.291220       1.318950
H        1.232270      -1.202164       2.331972
H       -1.109491       1.524632      -2.335802
H       -0.519749      -1.758375      -2.561589
H       -1.050641      -1.952396       1.724248
6
t =    2845.000000
C       -0.306889      -0.010842      -1.234729
C        0.423559       0.298942       1.304601
H        1.211283      -1.162100       2.350259
H       -1.001786       1.506243      -2.301717
H       -0.610180      -1.728653      -2.452546
H       -0.988744      -2.045732       1.572247
6
t =    2865.000000
C       -0.306900      -0.015480      -1.221055
C        0.417294       0.306038       1.289110
H        1.198440      -1.126704       2.378268
H       -0.891833       1.494954      -2.269763
H       -0.701033      -1.696138      -2.335892
H       -0.920300      -2.131607       1.417303
6
t =    2885.000000
C       -0.306842      -0.020515      -1.206896
C        0.409798       0.312308       1.272477
H        1.193352      -1.095434       2.415979
H       -0.781400       1.494769      -2.243282
H       -0.792206      -1.664106      -2.215366
H       -0.845945      -2.209430       1.262097
6
t =    2905.000000
C       -0.306592      -0.025754      -1.191910
C        0.401263       0.317545       1.254774
H        1.194717      -1.066697       2.462424
H       -0.671442       1.508569      -2.225029
H       -0.884315      -1.636273      -2.095118
H       -0.766552      -2.279756       1.109542
6
t =    2925.000000
C       -0.306101      -0.030846      -1.175897
C        0.392030       0.321632       1.236167
H        1.200101      -1.038347       2.515892
H       -0.561990       1.537028      -2.216403
H       -0.978634      -1.616045      -1.979144
H       -0.683000      -2.344832       0.962395
6
t =    2945.000000
C       -0.305482      -0.035324      -1.159017
C        0.382640       0.324544       1.216989
H        1.205792      -1.008327       2.574348
H       -0.452925       1.578075      -2.216841
H       -1.076094      -1.605457      -1.870843
H       -0.595912      -2.407836       0.823475
6
t =    2965.000000
C       -0.304879      -0.038643      -1.141790
C        0.373681       0.326070       1.197657
H        1.208414      -0.974667       2.635586
H       -0.345606       1.627551      -2.223957
H       -1.175840      -1.604795      -1.773076
H       -0.506627      -2.470284       0.696685
6
t =    2985.000000
C       -0.304389      -0.040382      -1.124801
C        0.365524       0.325950       1.178616
H        1.206170      -0.935500       2.697228
H       -0.241458       1.680537      -2.235162
H       -1.277036      -1.612255      -1.687474
H       -0.416089      -2.532830       0.585126
6
t =    3005.000000
C       -0.304235      -0.040385      -1.108745
C        0.358472       0.324067       1.160465
H        1.197777      -0.889397       2.757080
H       -0.141239       1.732170      -2.248285
H       -1.379029      -1.623896      -1.614365
H       -0.323825      -2.596453       0.490279
6
t =    3025.000000
C       -0.304738      -0.038689      -1.094342
C        0.352813       0.320416       1.143872
H        1.182256      -0.835367       2.813234
H       -0.045685       1.778293      -2.261522
H       -1.480607      -1.634955      -1.553307
H       -0.228947      -2.662272       0.412411
6
t =    3045.000000
C       -0.306236      -0.035426      -1.082250
C        0.348799       0.315075       1.129491
H        1.159013      -0.772828       2.864089
H        0.044380       1.815689      -2.273421
H       -1.580063      -1.641010      -1.503443
H       -0.130712      -2.731397       0.350889
6
t =    3050.000000
C       -0.306814      -0.034389      -1.079672
C        0.348083       0.313495       1.126329
H        1.151968      -0.755831       2.875779
H        0.065908       1.823313      -2.276013
H       -1.604296      -1.641193      -1.492566
H       -0.105559      -2.749356       0.337875
6
t =    3055.000000
C       -0.307478      -0.033267      -1.077279
C        0.347484       0.311818       1.123349
H        1.144431      -0.738290       2.887042
H        0.087029       1.830220      -2.278438
H       -1.628246      -1.640801      -1.482308
H       -0.080166      -2.767601       0.325786
6
t =    3060.000000
C       -0.308231      -0.032060      -1.075077
C        0.347004       0.310049       1.120556
H        1.136405      -0.720206       2.897867
H        0.107729       1.836383      -2.280683
H       -1.651885      -1.639793      -1.472653
H       -0.054529      -2.786146       0.314600
6
t =    3065.000000
C       -0.309077      -0.030772      -1.073072
C        0.346645       0.308187       1.117957
H        1.127893      -0.701583       2.908239
H        0.127997       1.841780      -2.282736
H       -1.675183      -1.638134      -1.463585
H       -0.028645      -2.805005       0.304292
6
t =    3070.000000
C       -0.310019      -0.029403      -1.071269
C        0.346407       0.306237       1.115558
H        1.118902      -0.682425       2.918148
H        0.147821       1.846391      -2.284588
H       -1.698111      -1.635789      -1.455088
H       -0.002515      -2.824190       0.294838
6
t =    3075.000000
C       -0.311059      -0.027957      -1.069671
C        0.346292       0.304200       1.113364
H        1.109438      -0.662737       2.927586
H        0.167191       1.850199      -2.286229
H       -1.720643      -1.632734      -1.447148
H        0.023861      -2.843714       0.286213
6
t =    3080.000000
C       -0.312202      -0.026433      -1.068282
C        0.346301       0.302079       1.111378
H        1.099512      -0.642526       2.936547
H        0.186095       1.853189      -2.287654
H       -1.742753      -1.628942      -1.439748
H        0.050484      -2.863587       0.278393
6
t =    3085.000000
C       -0.313447      -0.024834      -1.067105
C        0.346432       0.299876       1.109604
H        1.089132      -0.621802       2.945026
H        0.204524       1.855349      -2.288856
H       -1.764414      -1.624395      -1.432876
H        0.077352      -2.883819       0.271352
6
t =    3090.000000
C       -0.314798      -0.023162      -1.066140
C        0.346687       0.297593       1.108045
H        1.078310      -0.600574       2.953021
H        0.222469       1.856668      -2.289831
H       -1.785602      -1.619073      -1.426516
H        0.104462      -2.904417       0.265065
6
t =    3095.000000
C       -0.316256      -0.021417      -1.065389
C        0.347064       0.295232       1.106701
H        1.067061      -0.578854       2.960533
H        0.239921       1.857138      -2.290575
H       -1.806295      -1.612965      -1.420655
H        0.131810      -2.925387       0.259505
6
t =    3100.000000
C       -0.317822      -0.019601      -1.064853
C        0.347563       0.292797       1.105575
H        1.055396      -0.556654       2.967565
H        0.256870       1.856754      -2.291088
H       -1.826470      -1.606058      -1.415280
H        0.159395      -2.946734       0.254648
6
t =    3105.000000
C       -0.319496      -0.017715      -1.064530
C        0.348182       0.290289       1.104666
H        1.043333      -0.533987       2.974121
H        0.273310       1.855511      -2.291369
H       -1.846105      -1.598345      -1.410378
H        0.187210      -2.968462       0.250467
6
t =    3110.000000
C       -0.321279      -0.015760      -1.064420
C        0.348919       0.287711       1.103973
H        1.030888      -0.510871       2.980211
H        0.289233       1.853408      -2.291419
H       -1.865182      -1.589821      -1.405938
H        0.215252      -2.990572       0.246936
6
t =    3130.000000
C       -0.329500      -0.007267      -1.066086
C        0.353034       0.276719       1.103350
H        0.977464      -0.414070       3.000018
H        0.347691       1.836394      -2.289328
H       -1.935714      -1.547601      -1.392667
H        0.329616      -3.082828       0.239062
6
t =    3150.000000
C       -0.339413       0.002235      -1.070902
C        0.358836       0.264799       1.105943
H        0.919516      -0.311610       3.013767
H        0.397447       1.805908      -2.283881
H       -1.996008      -1.492652      -1.385885
H        0.447010      -3.180945       0.239589
6
t =    3170.000000
C       -0.350891       0.012670      -1.078511
C        0.366087       0.252117       1.111346
H        0.858512      -0.205005       3.023492
H        0.438345       1.762669      -2.275629
H       -2.045416      -1.425792      -1.384996
H        0.566819      -3.284410       0.247028
6
t =    3190.000000
C       -0.363751       0.023952      -1.088445
C        0.374509       0.238849       1.119000
H        0.795935      -0.095835       3.031926
H        0.470456       1.707828      -2.265376
H       -2.083698      -1.348268      -1.389505
H        0.688376      -3.392606       0.260038
6
t =    3210.000000
C       -0.377770       0.035974      -1.100156
C        0.383810       0.225168       1.128259
H        0.733102       0.014475       3.042141
H        0.494188       1.643025      -2.254243
H       -2.111126      -1.261680      -1.399023
H        0.811055      -3.504935       0.277438
6
t =    3230.000000
C       -0.392703       0.048603      -1.113030
C        0.393708       0.211231       1.138470
H        0.670983       0.124832       3.056913
H        0.510433       1.570477      -2.243777
H       -2.128616      -1.167946      -1.413276
H        0.934337      -3.620901       0.298203
6
t =    3250.000000
C       -0.408297       0.061677      -1.126408
C        0.403951       0.197178       1.149066
H        0.610115       0.234510       3.077936
H        0.520734       1.493033      -2.236048
H       -2.137875      -1.069286      -1.432107
H        1.057843      -3.740136       0.321453
6
t =    3270.000000
C       -0.424298       0.075011      -1.139603
C        0.414316       0.183142       1.159637
H        0.550659       0.342985       3.105235
H        0.527401       1.414105      -2.233691
H       -2.141524      -0.968194      -1.455476
H        1.181350      -3.862409       0.346440
6
t =    3290.000000
C       -0.440448       0.088421      -1.151918
C        0.424598       0.169264       1.169951
H        0.492587       0.449654       3.137082
H        0.533474       1.337377      -2.239787
H       -2.143121      -0.867346      -1.483452
H        1.304777      -3.987606       0.372539
6
t =    3310.000000
C       -0.456477       0.101752      -1.162687
C        0.434597       0.155710       1.179913
H        0.435901       0.553614       3.170469
H        0.542403       1.266216      -2.257488
H       -2.146984      -0.769399      -1.516192
H        1.428167      -4.115703       0.399237
6
t =    3330.000000
C       -0.472085       0.114930      -1.171333
C        0.444101       0.142671       1.189508
H        0.380772       0.653603       3.201858
H        0.557383       1.202860      -2.289343
H       -2.157678      -0.676648      -1.553873
H        1.551654      -4.246729       0.426132
6
t =    3350.000000
C       -0.486944       0.127976      -1.177444
C        0.452895       0.130347       1.198732
H        0.327549       0.748102       3.227871
H        0.580494       1.147740      -2.336500
H       -2.179147      -0.590618      -1.596553
H        1.675427      -4.380724       0.452927
6
t =    3370.000000
C       -0.500734       0.140990      -1.180829
C        0.460767       0.118937       1.207555
H        0.276681       0.835489       3.245725
H        0.612071       1.099344      -2.398152
H       -2.213699      -0.511729      -1.643972
H        1.799692      -4.517701       0.479431
6
t =    3390.000000
C       -0.513207       0.154102      -1.181537
C        0.467542       0.108621       1.215909
H        0.228555       0.914203       3.253415
H        0.650683       1.054782      -2.471575
H       -2.261304      -0.439257      -1.695346
H        1.924631      -4.657605       0.505548
6
t =    3410.000000
C       -0.524245       0.167413      -1.179821
C        0.473098       0.099547       1.223692
H        0.183362       0.982906       3.249735
H        0.693681       1.010712      -2.552724
H       -2.319611      -0.371635      -1.749296
H        2.050376      -4.800299       0.531261
6
t =    3430.000000
C       -0.533867       0.180979      -1.176071
C        0.477382       0.091811       1.230793
H        0.141054       1.040630       3.234201
H        0.737951       0.964150      -2.637049
H       -2.384658      -0.306961      -1.803945
H        2.176984      -4.945551       0.556606
6
t =    3450.000000
C       -0.542188       0.194811      -1.170743
C        0.480393       0.085459       1.237106
H        0.101425       1.086843       3.206935
H        0.780508       0.912904      -2.720167
H       -2.451861      -0.243467      -1.857171
H        2.304440      -5.093057       0.581647
6
t =    3470.000000
C       -0.549362       0.208885      -1.164297
C        0.482159       0.080487       1.242533
H        0.064215       1.121442       3.168577
H        0.818816       0.855657      -2.798258
H       -2.516835      -0.179789      -1.906862
H        2.432680      -5.242470       0.606451
6
t =    3490.000000
C       -0.555542       0.223163      -1.157157
C        0.482717       0.076856       1.246978
H        0.029167       1.144714       3.120246
H        0.850888       0.791844      -2.868211
H       -2.575870      -0.115028      -1.951112
H        2.561602      -5.393441       0.631082
6
t =    3510.000000
C       -0.560855       0.237588      -1.149690
C        0.482105       0.074496       1.250331
H       -0.003985       1.157318       3.063561
H        0.875262       0.721468      -2.927608
H       -2.626090      -0.048692      -1.988322
H        2.691099      -5.545650       0.655590
6
t =    3530.000000
C       -0.565395       0.252097      -1.142205
C        0.480368       0.073309       1.252456
H       -0.035568       1.160305       3.000687
H        0.890924       0.644926      -2.974644
H       -2.665416       0.019409      -2.017217
H        2.821060      -5.698816       0.680015
6
t =    3550.000000
C       -0.569228       0.266619      -1.134957
C        0.477555       0.073169       1.253183
H       -0.066048       1.155163       2.934401
H        0.897227       0.562875      -3.008031
H       -2.692463       0.089260      -2.036829
H        2.951389      -5.852707       0.704387
6
t =    3570.000000
C       -0.572396       0.281076      -1.128155
C        0.473732       0.073915       1.252303
H       -0.096099       1.143841       2.868096
H        0.893821       0.476140      -3.026917
H       -2.706423       0.160719      -2.046466
H        3.082003      -6.007137       0.728725
6
t =    3590.000000
C       -0.574918       0.295386      -1.121965
C        0.468985       0.075361       1.249579
H       -0.126649       1.128702       2.805688
H        0.880615       0.385652      -3.030839
H       -2.706981       0.233576      -2.045678
H        3.212831      -6.161958       0.753047
6
t =    3610.000000
C       -0.576796       0.309459      -1.116519
C        0.463416       0.077306       1.244765
H       -0.158831       1.112332       2.751327
H        0.857751       0.292392      -3.019701
H       -2.694271       0.307595      -2.034252
H        3.343819      -6.317059       0.777362
6
t =    3630.000000
C       -0.578018       0.323202      -1.111906
C        0.457130       0.079565       1.237651
H       -0.193823       1.097168       2.708881
H        0.825615       0.197359      -2.993789
H       -2.668887       0.382561      -2.012213
H        3.474922      -6.472351       0.801677
6
t =    3650.000000
C       -0.578554       0.336517      -1.108174
C        0.450216       0.082013       1.228127
H       -0.232545       1.084985       2.681253
H        0.784858       0.101510      -2.953831
H       -2.631924       0.458321      -1.979851
H        3.606106      -6.627772       0.825997
6
t =    3670.000000
C       -0.578355       0.349304      -1.105314
C        0.442716       0.084625       1.216226
H       -0.275314       1.076435       2.669773
H        0.736439       0.005691      -2.901072
H       -2.585082       0.534854      -1.937771
H        3.737345      -6.783274       0.850325
6
t =    3675.000000
C       -0.578180       0.352402      -1.104724
C        0.440747       0.085316       1.212912
H       -0.286560       1.074763       2.669346
H        0.723342      -0.018159      -2.886173
H       -2.572203       0.554138      -1.925884
H        3.770160      -6.822156       0.856408
6
t =    3680.000000
C       -0.577953       0.355459      -1.104182
C        0.438740       0.086025       1.209467
H       -0.298012       1.073257       2.669870
H        0.709873      -0.041962      -2.870627
H       -2.558902       0.573490      -1.913469
H        3.802977      -6.861041       0.862492
6
t =    3685.000000
C       -0.577675       0.358474      -1.103686
C        0.436694       0.086755       1.205897
H       -0.309652       1.071890       2.671317
H        0.696056      -0.065710      -2.854472
H       -2.545227       0.592915      -1.900546
H        3.835795      -6.899929       0.868576
6
t =    3690.000000
C       -0.577342       0.361444      -1.103233
C        0.434607       0.087507       1.202208
H       -0.321459       1.070635       2.673649
H        0.681920      -0.089401      -2.837749
H       -2.531228       0.612422      -1.887139
H        3.868615      -6.938818       0.874661
6
t =    3695.000000
C       -0.576954       0.364369      -1.102822
C        0.432479       0.088286       1.198407
H       -0.333408       1.069458       2.676823
H        0.667492      -0.113032      -2.820504
H       -2.516963       0.632023      -1.873271
H        3.901436      -6.977708       0.880747
6
t =    3700.000000
C       -0.576509       0.367247      -1.102449
C        0.430308       0.089095       1.194500
H       -0.345474       1.068328       2.680797
H        0.652804      -0.136603      -2.802783
H       -2.502485       0.651729      -1.858967
H        3.934259      -7.016599       0.886833
6
t =    3705.000000
C       -0.576007       0.370076      -1.102111
C        0.428094       0.089936       1.190496
H       -0.357631       1.067209       2.685521
H        0.637885      -0.160117      -2.784636
H       -2.487854       0.671554      -1.844253
H        3.967082      -7.055492       0.892920
6
t =    3710.000000
C       -0.575446       0.372856      -1.101806
C        0.425834       0.090813       1.186401
H       -0.369851       1.066064       2.690944
H        0.622770      -0.183577      -2.766117
H       -2.473135       0.691513      -1.829159
H        3.999906      -7.094385       0.899007
6
t =    3715.000000
C       -0.574824       0.375584      -1.101529
C        0.423529       0.091730       1.182225
H       -0.382105       1.064858       2.697010
H        0.607491      -0.206989      -2.747281
H       -2.458391       0.711624      -1.813713
H        4.032731      -7.133278       0.905095
6
t =    3735.000000
C       -0.571721       0.385976      -1.100672
C        0.413839       0.095824       1.164793
H       -0.431163       1.059052       2.727139
H        0.545091      -0.300248      -2.669353
H       -2.399839       0.793777      -1.748723
H        4.164034      -7.288854       0.929452
6
t =    3755.000000
C       -0.567583       0.395488      -1.099990
C        0.403369       0.100783       1.146814
H       -0.478369       1.049516       2.762785
H        0.483005      -0.393798      -2.591400
H       -2.346483       0.880146      -1.680707
H        4.295339      -7.444427       0.953816
6
t =    3775.000000
C       -0.562426       0.404130      -1.099297
C        0.392143       0.106696       1.128962
H       -0.521934       1.034769       2.800132
H        0.423540      -0.489005      -2.517741
H       -2.302525       0.972382      -1.611726
H        4.426643      -7.599995       0.978188
6
t =    3795.000000
C       -0.556359       0.411975      -1.098517
C        0.380224       0.113548       1.111910
H       -0.560227       1.014206       2.835779
H        0.368513      -0.587327      -2.452273
H       -2.270859       1.071833      -1.543430
H        4.557945      -7.755557       1.002565
6
t =    3815.000000
C       -0.549590       0.419145      -1.097718
C        0.367682       0.121252       1.096268
H       -0.591809       0.987918       2.867007
H        0.318776      -0.689781      -2.397707
H       -2.252141       1.179039      -1.476835
H        4.689247      -7.911116       1.026947
6
t =    3820.000000
C       -0.547835       0.420853      -1.097552
C        0.364461       0.123293       1.092659
H       -0.598479       0.980524       2.873821
H        0.307109      -0.716044      -2.385925
H       -2.249188       1.206952      -1.460524
H        4.722073      -7.950005       1.033043
6
t =    3825.000000
C       -0.546061       0.422529      -1.097404
C        0.361208       0.125378       1.089178
H       -0.604645       0.972811       2.880214
H        0.295731      -0.742553      -2.374885
H       -2.246876       1.235289      -1.444352
H        4.754899      -7.988894       1.039140
6
t =    3830.000000
C       -0.544272       0.424174      -1.097280
C        0.357925       0.127505       1.085831
H       -0.610295       0.964789       2.886167
H        0.284622      -0.769292      -2.364578
H       -2.245148       1.264022      -1.428323
H        4.787725      -8.027783       1.045236
6
t =    3835.000000
C       -0.542475       0.425792      -1.097186
C        0.354611       0.129671       1.082625
H       -0.615419       0.956468       2.891662
H        0.273757      -0.796236      -2.354991
H       -2.243940       1.293119      -1.412441
H        4.820551      -8.066672       1.051333
6
t =    3840.000000
C       -0.540676       0.427383      -1.097128
C        0.351271       0.131876       1.079567
H       -0.620006       0.947858       2.896682
H        0.263108      -0.823357      -2.346104
H       -2.243183       1.322545      -1.396708
H        4.853377      -8.105561       1.057431
6
t =    3845.000000
C       -0.538880       0.428949      -1.097113
C        0.347904       0.134117       1.076662
H       -0.624051       0.938972       2.901215
H        0.252648      -0.850620      -2.337893
H       -2.242809       1.352261      -1.381129
H        4.886204      -8.144449       1.063529
6
t =    3850.000000
C       -0.537094       0.430491      -1.097147
C        0.344514       0.136391       1.073915
H       -0.627547       0.929821       2.905249
H        0.242345      -0.877987      -2.330331
H       -2.242747       1.382225      -1.365708
H        4.919030      -8.183338       1.069627
6
t =    3855.000000
C       -0.535324       0.432012      -1.097236
C        0.341102       0.138696       1.071332
H       -0.630489       0.920418       2.908777
H        0.232167      -0.905416      -2.323387
H       -2.242923       1.412392      -1.350450
H        4.951857      -8.222227       1.075725
6
t =    3860.000000
C       -0.533574       0.433512      -1.097388
C        0.337671       0.141031       1.068918
H       -0.632876       0.910775       2.911792
H        0.222084      -0.932861      -2.317026
H       -2.243265       1.442715      -1.335361
H        4.984684      -8.261115       1.081823
6
t =    3865.000000
C       -0.531851       0.434992      -1.097608
C        0.334223       0.143392       1.066677
H       -0.634705       0.900907       2.914289
H        0.212063      -0.960272      -2.311215
H       -2.243700       1.473144      -1.320448
H        5.017511      -8.300004       1.087922
6
t =    3870.000000
C       -0.530161       0.436453      -1.097904
C        0.330759       0.145778       1.064613
H       -0.635976       0.890826       2.916265
H        0.202073      -0.987597      -2.305917
H       -2.244159       1.503630      -1.305718
H        5.050339      -8.338892       1.094021
6
t =    3875.000000
C       -0.528509       0.437897      -1.098281
C        0.327282       0.148187       1.062730
H       -0.636691       0.880547       2.917721
H        0.192084      -1.014783      -2.301095
H       -2.244573       1.534121      -1.291180
H        5.083167      -8.377780       1.100121
6
t =    3880.000000
C       -0.526899       0.439323      -1.098744
C        0.323795       0.150615       1.061031
H       -0.636852       0.870085       2.918659
H        0.182068      -1.041775      -2.296713
H       -2.244879       1.564566      -1.276844
H        5.115995      -8.416669       1.106221
6
t =    3885.000000
C       -0.525336       0.440734      -1.099300
C        0.320299       0.153060       1.059519
H       -0.636463       0.859456       2.919083
H        0.171995      -1.068518      -2.292733
H       -2.245016       1.594916      -1.262719
H        5.148823      -8.455557       1.112321
6
t =    3905.000000
C       -0.519603       0.446222      -1.102492
C        0.306254       0.162991       1.055364
H       -0.629456       0.815425       2.915700
H        0.130898      -1.172445      -2.280491
H       -2.243294       1.714851      -1.208448
H        5.280139      -8.611110       1.136723
6
t =    3925.000000
C       -0.514935       0.451496      -1.107475
C        0.292246       0.172998       1.054298
H       -0.614263       0.770075       2.905001
H        0.087169      -1.268056      -2.272049
H       -2.234910       1.829417      -1.158538
H        5.411459      -8.766662       1.161131
6
t =    3945.000000
C       -0.511479       0.456579      -1.114347
C        0.278399       0.182919       1.056232
H       -0.591750       0.724648       2.888495
H        0.039984      -1.352361      -2.265787
H       -2.217878       1.936063      -1.113866
H        5.542785      -8.922214       1.185543
6
t =    3965.000000
C       -0.509306       0.461489      -1.123068
C        0.264828       0.192589       1.060906
H       -0.563138       0.680510       2.868512
H       -0.011042      -1.422970      -2.260553
H       -2.191103       2.032768      -1.075314
H        5.674116      -9.077766       1.209959
6
t =    3985.000000
C       -0.508421       0.466242      -1.133473
C        0.251635       0.201846       1.067891
H       -0.529987       0.639124       2.848292
H       -0.065961      -1.478093      -2.255593
H       -2.154169       2.118019      -1.043716
H        5.805453      -9.233319       1.234380
6
t =    4005.000000
C       -0.508776       0.470854      -1.145299
C        0.238920       0.210536       1.076608
H       -0.494124       0.601978       2.831935
H       -0.124587      -1.516495      -2.250467
H       -2.107150       2.190743      -1.019840
H        5.936795      -9.388873       1.258804
