               t            V-V0            T-T0            E-E0
   2850.00000000      0.00396758     -0.00396550      0.00000207
   2855.00000000      0.00782125     -0.00781695      0.00000429
   2860.00000000      0.01152926     -0.01152236      0.00000690
   2865.00000000      0.01505491     -0.01504451      0.00001041
   2870.00000000      0.01834956     -0.01833358      0.00001598
   2875.00000000      0.02133719     -0.02131083      0.00002636
   2880.00000000      0.02387870     -0.02383070      0.00004801
   2885.00000000      0.02569557     -0.02560531      0.00009026
   2890.00000000      0.02630413     -0.02617456      0.00012957
   2895.00000000      0.02534091     -0.02523707      0.00010384
   2900.00000000      0.02307976     -0.02301955      0.00006021
   2905.00000000      0.02002745     -0.01999053      0.00003692
   2910.00000000      0.01648808     -0.01646140      0.00002668
   2915.00000000      0.01260103     -0.01257924      0.00002179
   2935.00000000     -0.00535693      0.00520016     -0.00015677
   2955.00000000     -0.02492862      0.02449078     -0.00043784
   2975.00000000     -0.04219865      0.04150237     -0.00069628
   2995.00000000     -0.05364232      0.05285338     -0.00078894
   3015.00000000     -0.05804030      0.05732239     -0.00071791
   3035.00000000     -0.05655227      0.05599877     -0.00055350
   3055.00000000     -0.05173442      0.05134680     -0.00038762
   3075.00000000     -0.04622651      0.04590763     -0.00031889
   3095.00000000     -0.04161576      0.04133920     -0.00027656
   3115.00000000     -0.03892174      0.03872265     -0.00019909
   3135.00000000     -0.03901415      0.03882744     -0.00018671
   3155.00000000     -0.04194691      0.04173689     -0.00021002
   3175.00000000     -0.04727703      0.04703554     -0.00024148
   3195.00000000     -0.05446097      0.05418443     -0.00027654
   3215.00000000     -0.06290800      0.06258970     -0.00031830
   3235.00000000     -0.07193451      0.07156609     -0.00036841
   3255.00000000     -0.08075416      0.08033096     -0.00042320
   3275.00000000     -0.08852303      0.08804637     -0.00047666
   3295.00000000     -0.09441452      0.09388935     -0.00052517
   3315.00000000     -0.09768063      0.09711905     -0.00056159
   3335.00000000     -0.09781386      0.09727945     -0.00053441
   3355.00000000     -0.09525065      0.09491023     -0.00034042
   3375.00000000     -0.09252630      0.09250434     -0.00002196
   3395.00000000     -0.09345815      0.09347665      0.00001849
   3415.00000000     -0.09893790      0.09866505     -0.00027284
   3435.00000000     -0.10558527      0.10487266     -0.00071260
   3455.00000000     -0.10779228      0.10668892     -0.00110336
   3475.00000000     -0.10095178      0.09986895     -0.00108283
   3495.00000000     -0.08653537      0.08612494     -0.00041042
   3515.00000000     -0.07437796      0.07465581      0.00027785
   3535.00000000     -0.07353398      0.07351951     -0.00001447
   3555.00000000     -0.08016362      0.07932732     -0.00083630
   3575.00000000     -0.08296446      0.08174687     -0.00121759
   3595.00000000     -0.07575387      0.07466693     -0.00108694
   3615.00000000     -0.05951725      0.05875191     -0.00076534
   3635.00000000     -0.03843611      0.03798927     -0.00044684
   3655.00000000     -0.01702733      0.01683895     -0.00018838
   3675.00000000      0.00083778     -0.00083578      0.00000200
   3695.00000000      0.01212031     -0.01198595      0.00013436
   3715.00000000      0.01463541     -0.01445328      0.00018214
   3735.00000000      0.00761454     -0.00753590      0.00007865
   3755.00000000     -0.00754512      0.00742067     -0.00012445
   3775.00000000     -0.02796409      0.02763839     -0.00032570
   3780.00000000     -0.03351634      0.03318789     -0.00032845
   3785.00000000     -0.03917853      0.03884822     -0.00033030
   3790.00000000     -0.04491948      0.04458778     -0.00033171
   3795.00000000     -0.05073068      0.05037338     -0.00035730
   3800.00000000     -0.05654515      0.05619586     -0.00034929
   3805.00000000     -0.06240226      0.06205310     -0.00034916
   3810.00000000     -0.06828226      0.06793368     -0.00034858
   3815.00000000     -0.07418743      0.07383965     -0.00034778
   3820.00000000     -0.08012282      0.07977578     -0.00034704
   3825.00000000     -0.08609267      0.08574601     -0.00034666
   3830.00000000     -0.09209644      0.09174951     -0.00034693
   3835.00000000     -0.09812488      0.09777680     -0.00034808
   3840.00000000     -0.10415697      0.10380670     -0.00035027
   3845.00000000     -0.11015809      0.10980460     -0.00035349
   3850.00000000     -0.11607995      0.11572239     -0.00035757
   3855.00000000     -0.12186235      0.12149999     -0.00036236
   3875.00000000     -0.14222238      0.14153535     -0.00068704
   3880.00000000     -0.14621709      0.14552651     -0.00069058
   3885.00000000     -0.14967567      0.14898253     -0.00069315
   3890.00000000     -0.15256232      0.15186765     -0.00069468
   3895.00000000     -0.15484423      0.15414872     -0.00069551
   3900.00000000     -0.15654840      0.15583033     -0.00071807
   3905.00000000     -0.15764702      0.15693032     -0.00071670
   3910.00000000     -0.15816949      0.15745486     -0.00071463
   3915.00000000     -0.15814339      0.15743136     -0.00071203
   3920.00000000     -0.15760333      0.15689432     -0.00070901
   3925.00000000     -0.15658835      0.15588240     -0.00070595
   3945.00000000     -0.14845246      0.14788841     -0.00056405
   3965.00000000     -0.13484781      0.13420403     -0.00064378
   3985.00000000     -0.11498933      0.11416416     -0.00082517
   4005.00000000     -0.08843168      0.08811675     -0.00031493
