6
t =    2850.000000
C       -0.334068      -0.190779      -1.254424
C        0.641842       0.109231       1.042284
H       -0.603116      -0.669266       2.533354
H       -0.511701      -2.064559      -1.077026
H       -2.513250       0.426523      -1.558760
H       -0.036786       3.278564       2.628245
6
t =    2855.000000
C       -0.333259      -0.187515      -1.252487
C        0.641884       0.103207       1.039934
H       -0.584870      -0.631342       2.535864
H       -0.511278      -2.059392      -1.066833
H       -2.516065       0.425891      -1.555071
H       -0.062765       3.268938       2.616795
6
t =    2860.000000
C       -0.332553      -0.184232      -1.250570
C        0.641869       0.097412       1.037715
H       -0.566061      -0.594323       2.538283
H       -0.511138      -2.055468      -1.056974
H       -2.517717       0.425436      -1.551643
H       -0.088264       3.258336       2.604701
6
t =    2865.000000
C       -0.331950      -0.180932      -1.248672
C        0.641798       0.091854       1.035620
H       -0.546744      -0.558284       2.540691
H       -0.511282      -2.052799      -1.047459
H       -2.518205       0.425161      -1.548477
H       -0.113263       3.246760       2.591960
6
t =    2870.000000
C       -0.331448      -0.177616      -1.246790
C        0.641672       0.086540       1.033643
H       -0.526972      -0.523296       2.543173
H       -0.511706      -2.051388      -1.038304
H       -2.517533       0.425070      -1.545575
H       -0.137737       3.234207       2.578566
6
t =    2875.000000
C       -0.331046      -0.174289      -1.244919
C        0.641490       0.081481       1.031774
H       -0.506794      -0.489419       2.545826
H       -0.512397      -2.051225      -1.029538
H       -2.515706       0.425177      -1.542941
H       -0.161661       3.220663       2.564503
6
t =    2880.000000
C       -0.330741      -0.170956      -1.243051
C        0.641251       0.076683       1.030002
H       -0.486246      -0.456699       2.548760
H       -0.513331      -2.052290      -1.021205
H       -2.512735       0.425502      -1.540579
H       -0.185007       3.206098       2.549750
6
t =    2885.000000
C       -0.330529      -0.167626      -1.241172
C        0.640946       0.072154       1.028311
H       -0.465349      -0.425137       2.552109
H       -0.514459      -2.054550      -1.013380
H       -2.508639       0.426083      -1.538499
H       -0.207747       3.190467       2.534274
6
t =    2890.000000
C       -0.330404      -0.164303      -1.239256
C        0.640564       0.067885       1.026673
H       -0.444107      -0.394640       2.556050
H       -0.515681      -2.057960      -1.006168
H       -2.503456       0.426973      -1.536715
H       -0.229879       3.173721       2.518044
6
t =    2895.000000
C       -0.330359      -0.160983      -1.237269
C        0.640099       0.063837       1.025042
H       -0.422526      -0.364932       2.560823
H       -0.516840      -2.062453      -0.999665
H       -2.497261       0.428233      -1.535248
H       -0.251483       3.155892       2.501081
6
t =    2900.000000
C       -0.330389      -0.157653      -1.235187
C        0.639560       0.059942       1.023366
H       -0.400661      -0.335633       2.566669
H       -0.517777      -2.067954      -0.993880
H       -2.490149       0.429889      -1.534116
H       -0.272727       3.137150       2.483496
6
t =    2905.000000
C       -0.330493      -0.154299      -1.233002
C        0.638964       0.056137       1.021608
H       -0.378593      -0.306459       2.573765
H       -0.518401      -2.074387      -0.988753
H       -2.482195       0.431932      -1.533328
H       -0.293776       3.117698       2.465418
6
t =    2910.000000
C       -0.330671      -0.150913      -1.230719
C        0.638328       0.052386       1.019750
H       -0.356390      -0.277250       2.582229
H       -0.518674      -2.081676      -0.984223
H       -2.473448       0.434344      -1.532884
H       -0.314736       3.097685       2.446940
6
t =    2915.000000
C       -0.330925      -0.147494      -1.228344
C        0.637664       0.048666       1.017781
H       -0.334101      -0.247914       2.592142
H       -0.518583      -2.089747      -0.980247
H       -2.463943       0.437113      -1.532782
H       -0.335674       3.077215       2.428129
6
t =    2935.000000
C       -0.332707      -0.133527      -1.217999
C        0.634821       0.033968       1.008764
H       -0.244412      -0.128760       2.646855
H       -0.514531      -2.129074      -0.969594
H       -2.418602       0.451664      -1.535764
H       -0.419616       2.991430       2.349987
6
t =    2955.000000
C       -0.335782      -0.119548      -1.206777
C        0.631949       0.019299       0.998211
H       -0.153853      -0.005007       2.725790
H       -0.504715      -2.174665      -0.967000
H       -2.363071       0.471605      -1.543890
H       -0.504645       2.901426       2.268681
6
t =    2975.000000
C       -0.340175      -0.106145      -1.195105
C        0.629051       0.004704       0.986944
H       -0.060332       0.124169       2.823790
H       -0.489305      -2.221884      -0.973201
H       -2.299343       0.497104      -1.556870
H       -0.590416       2.808069       2.185100
6
t =    2995.000000
C       -0.345820      -0.093885      -1.183339
C        0.626053      -0.009685       0.976038
H        0.038616       0.258768       2.932185
H       -0.468474      -2.266755      -0.989160
H       -2.230258       0.528548      -1.574579
H       -0.676299       2.712129       2.100194
6
t =    3015.000000
C       -0.352545      -0.083252      -1.171772
C        0.622948      -0.023715       0.966563
H        0.144484       0.397967       3.041539
H       -0.442487      -2.305994      -1.015655
H       -2.159570       0.566551      -1.597223
H       -0.761724       2.614508       2.015128
6
t =    3035.000000
C       -0.360085      -0.074649      -1.160637
C        0.619826      -0.037256       0.959426
H        0.257386       0.540433       3.143585
H       -0.411756      -2.336926      -1.053210
H       -2.091661       0.611958      -1.625398
H       -0.846252       2.516265       1.931272
6
t =    3055.000000
C       -0.368138      -0.068413      -1.150115
C        0.616844      -0.050206       0.955327
H        0.376406       0.684605       3.231844
H       -0.376844      -2.357400      -1.102175
H       -2.030801       0.665717      -1.659993
H       -0.929574       2.418631       1.850161
6
t =    3075.000000
C       -0.376440      -0.064800      -1.140365
C        0.614157      -0.062465       0.954799
H        0.500123       0.828729       3.301318
H       -0.338494      -2.365756      -1.162800
H       -1.980079       0.728492      -1.701878
H       -1.011452       2.322937       1.773451
6
t =    3095.000000
C       -0.384855      -0.063965      -1.131597
C        0.611911      -0.073868       0.958291
H        0.626673       0.970623       3.347949
H       -0.297635      -2.360905      -1.235150
H       -1.940524       0.800113      -1.751440
H       -1.091401       2.230296       1.702812
6
t =    3115.000000
C       -0.393461      -0.065912      -1.124092
C        0.610301      -0.084169       0.966172
H        0.753449       1.107428       3.368787
H       -0.255222      -2.342361      -1.318893
H       -1.910975       0.879332      -1.808247
H       -1.168439       2.141455       1.639393
6
t =    3135.000000
C       -0.402501      -0.070474      -1.118108
C        0.609539      -0.093142       0.978622
H        0.877817       1.236193       3.362583
H       -0.212091      -2.310069      -1.413316
H       -1.888458       0.963922      -1.871046
H       -1.241664       2.056848       1.583383
6
t =    3155.000000
C       -0.412241      -0.077335      -1.113845
C        0.609735      -0.100597       0.995628
H        0.997833       1.354407       3.329468
H       -0.169018      -2.264354      -1.517473
H       -1.869068       1.050834      -1.937928
H       -1.310437       1.976362       1.534353
6
t =    3175.000000
C       -0.422863      -0.086092      -1.111433
C        0.610882      -0.106354       1.017019
H        1.112145       1.459951       3.270352
H       -0.126727      -2.205995      -1.630257
H       -1.849019       1.136678      -2.006635
H       -1.374192       1.899327       1.491606
6
t =    3195.000000
C       -0.434434      -0.096304      -1.110907
C        0.612880      -0.110232       1.042487
H        1.219761       1.550978       3.186582
H       -0.085865      -2.136265      -1.750451
H       -1.825296       1.218249      -2.074878
H       -1.432355       1.824655       1.454361
6
t =    3215.000000
C       -0.446892      -0.107527      -1.112197
C        0.615560      -0.112053       1.071599
H        1.319893       1.625888       3.079841
H       -0.046974      -2.056904      -1.876774
H       -1.795855       1.292851      -2.140551
H       -1.484310       1.750993       1.421888
6
t =    3235.000000
C       -0.460077      -0.119338      -1.115147
C        0.618697      -0.111661       1.103811
H        1.411877       1.683373       2.952152
H       -0.010472      -1.969996      -2.007909
H       -1.759557       1.358420      -2.201805
H       -1.529386       1.676876       1.393614
6
t =    3255.000000
C       -0.473752      -0.131357      -1.119550
C        0.622034      -0.108929       1.138490
H        1.495150       1.722513       2.805935
H        0.023327      -1.877766      -2.142498
H       -1.716005       1.413526      -2.257033
H       -1.566850       1.600876       1.369212
6
t =    3275.000000
C       -0.487625      -0.143271      -1.125188
C        0.625284      -0.103780       1.174937
H        1.569279       1.742890       2.644029
H        0.054176      -1.782325      -2.279070
H       -1.665386       1.457308      -2.304807
H       -1.595887       1.521730       1.348695
6
t =    3295.000000
C       -0.501364      -0.154859      -1.131892
C        0.628122      -0.096190       1.212420
H        1.634080       1.744684       2.469683
H        0.081868      -1.685447      -2.415936
H       -1.608355       1.489404      -2.343806
H       -1.615546       1.438447       1.332491
6
t =    3315.000000
C       -0.514618      -0.166001      -1.139582
C        0.630185      -0.086191       1.250206
H        1.689796       1.728769       2.286516
H        0.106251      -1.588470      -2.551103
H       -1.545982       1.509888      -2.372757
H       -1.624699       1.350404       1.321485
6
t =    3335.000000
C       -0.527036      -0.176693      -1.148299
C        0.631058      -0.073880       1.287588
H        1.737388       1.696837       2.098483
H        0.127301      -1.492323      -2.682300
H       -1.479718       1.519230      -2.390394
H       -1.622055       1.257456       1.317101
6
t =    3355.000000
C       -0.538288      -0.187055      -1.158236
C        0.630239      -0.059412       1.323916
H        1.778948       1.651545       1.909715
H        0.145246      -1.397599      -2.807119
H       -1.411359       1.518283      -2.395442
H       -1.606129       1.159984       1.321570
6
t =    3375.000000
C       -0.548108      -0.197357      -1.169786
C        0.627120      -0.042965       1.358677
H        1.818132       1.596432       1.723984
H        0.160733      -1.304515      -2.923208
H       -1.342897       1.508327      -2.386686
H       -1.575123       1.058690       1.338327
6
t =    3395.000000
C       -0.556381      -0.207958      -1.183518
C        0.621087      -0.024736       1.391629
H        1.859967       1.535489       1.543675
H        0.174781      -1.212874      -3.028380
H       -1.276146       1.491203      -2.363399
H       -1.527362       0.954187       1.371731
6
t =    3415.000000
C       -0.563152      -0.219127      -1.199887
C        0.611838      -0.005050       1.422784
H        1.909107       1.472513       1.369254
H        0.188298      -1.122531      -3.120707
H       -1.212543       1.469363      -2.326052
H       -1.462804       0.847141       1.425134
6
t =    3435.000000
C       -0.568510      -0.230966      -1.218974
C        0.599563       0.015635       1.452189
H        1.967906       1.409981       1.200318
H        0.201887      -1.033906      -3.198717
H       -1.153690       1.445782      -2.276290
H       -1.384020       0.739201       1.499530
6
t =    3455.000000
C       -0.572504      -0.243517      -1.240519
C        0.584974       0.036863       1.479764
H        2.035827       1.348149       1.036883
H        0.216016      -0.947932      -3.261528
H       -1.101696       1.424054      -2.216461
H       -1.296724       0.633364       1.594207
6
t =    3475.000000
C       -0.575130      -0.256842      -1.264061
C        0.569318       0.058223       1.505257
H        2.109814       1.285453       0.880023
H        0.231060      -0.865781      -3.308810
H       -1.059016       1.408459      -2.149313
H       -1.210692       0.533719       1.708042
6
t =    3495.000000
C       -0.576363      -0.271026      -1.289070
C        0.554291       0.079316       1.528217
H        2.185404       1.219819       0.731888
H        0.247321      -0.788606      -3.340672
H       -1.028095       1.403599      -2.077650
H       -1.139780       0.444662       1.840823
6
t =    3515.000000
C       -0.576206      -0.286124      -1.315032
C        0.541642       0.099808       1.548010
H        2.258045       1.149799       0.595238
H        0.265064      -0.717405      -3.357580
H       -1.010936       1.413455      -2.003811
H       -1.098506       0.369297       1.994058
6
t =    3535.000000
C       -0.574729      -0.302054      -1.341507
C        0.532451       0.119531       1.563973
H        2.324052       1.074971       0.472879
H        0.284546      -0.652981      -3.360341
H       -1.008732       1.440074      -1.929211
H       -1.094277       0.307810       2.169801
6
t =    3555.000000
C       -0.572089      -0.318523      -1.368139
C        0.526611       0.138483       1.575756
H        2.380979       0.995777       0.367292
H        0.306081      -0.595936      -3.350151
H       -1.021661       1.482542      -1.854288
H       -1.121649       0.257822       2.367145
6
t =    3575.000000
C       -0.568530      -0.335023      -1.394606
C        0.523160       0.156667       1.583494
H        2.427515       0.913179       0.280491
H        0.330118      -0.546657      -3.328670
H       -1.048933       1.536978      -1.778979
H       -1.166166       0.216540       2.580220
6
t =    3595.000000
C       -0.564370      -0.350927      -1.420560
C        0.521019       0.174004       1.587638
H        2.463195       0.828399       0.214055
H        0.357322      -0.505309      -3.298073
H       -1.089035       1.597596      -1.703385
H       -1.212911       0.182191       2.800219
6
t =    3615.000000
C       -0.559980      -0.365609      -1.445591
C        0.519419       0.190336       1.588676
H        2.488084       0.742769       0.169237
H        0.388639      -0.471815      -3.261049
H       -1.140041       1.658153      -1.628185
H       -1.251262       0.154007       3.018546
6
t =    3635.000000
C       -0.555759      -0.378536      -1.469233
C        0.517941       0.205479       1.586992
H        2.502525       0.657646       0.147113
H        0.425310      -0.445841      -3.220693
H       -1.199888       1.713069      -1.554671
H       -1.275114       0.131745       3.228412
6
t =    3655.000000
C       -0.552113      -0.389310      -1.491013
C        0.516407       0.219251       1.582848
H        2.506934       0.574343       0.148720
H        0.468766      -0.426810      -3.180228
H       -1.266557       1.757951      -1.484554
H       -1.281385       0.115348       3.424958
6
t =    3675.000000
C       -0.549419      -0.397668      -1.510517
C        0.514759       0.231488       1.576434
H        2.501685       0.494048       0.175135
H        0.520403      -0.413936      -3.142546
H       -1.338180       1.789641      -1.419713
H       -1.268531       0.104774       3.604690
6
t =    3695.000000
C       -0.547992      -0.403451      -1.527448
C        0.512966       0.242064       1.567930
H        2.487181       0.417714       0.227410
H        0.581225      -0.406304      -3.109648
H       -1.413125       1.806023      -1.361985
H       -1.235477       0.099915       3.764693
6
t =    3715.000000
C       -0.548049      -0.406578      -1.541657
C        0.510953       0.250916       1.557563
H        2.464232       0.345864       0.306304
H        0.651490      -0.402966      -3.082161
H       -1.490041       1.805750      -1.313002
H       -1.181162       0.100432       3.902015
6
t =    3735.000000
C       -0.549679      -0.407021      -1.553143
C        0.508592       0.258089       1.545602
H        2.434578       0.278342       0.411702
H        0.730426      -0.403043      -3.059177
H       -1.567852       1.787990      -1.274060
H       -1.105049       0.105550       4.013932
6
t =    3755.000000
C       -0.552819      -0.404783      -1.561998
C        0.505730       0.263703       1.532309
H        2.401089       0.214468       0.542089
H        0.816131      -0.405756      -3.038590
H       -1.645693       1.752263      -1.246085
H       -1.007885       0.114267       4.098758
6
t =    3775.000000
C       -0.557268      -0.399895      -1.568369
C        0.502162       0.267883       1.517965
H        2.367759       0.153337       0.694508
H        0.905759      -0.410365      -3.017723
H       -1.722829       1.698409      -1.229682
H       -0.891516       0.125786       4.155784
6
t =    3780.000000
C       -0.558537      -0.398273      -1.569598
C        0.501111       0.268725       1.514265
H        2.360260       0.138299       0.735408
H        0.928245      -0.411684      -3.012052
H       -1.741890       1.682154      -1.227426
H       -0.859799       0.129028       4.165646
6
t =    3785.000000
C       -0.559864      -0.396492      -1.570683
C        0.499991       0.269488       1.510527
H        2.353185       0.123337       0.777355
H        0.950706      -0.413055      -3.006163
H       -1.760851       1.664792      -1.225908
H       -0.827072       0.132409       4.173745
6
t =    3790.000000
C       -0.561242      -0.394556      -1.571626
C        0.498795       0.270175       1.506754
H        2.346624       0.108428       0.820274
H        0.973088      -0.414462      -3.000023
H       -1.779697       1.646335      -1.225125
H       -0.793379       0.135926       4.180078
6
t =    3795.000000
C       -0.562666      -0.392468      -1.572430
C        0.497517       0.270788       1.502952
H        2.340670       0.093547       0.864092
H        0.995332      -0.415890      -2.993601
H       -1.798416       1.626798      -1.225074
H       -0.758763       0.139576       4.184640
6
t =    3800.000000
C       -0.564128      -0.390230      -1.573096
C        0.496149       0.271331       1.499127
H        2.335422       0.078667       0.908730
H        1.017380      -0.417321      -2.986868
H       -1.816993       1.606200      -1.225749
H       -0.723270       0.143355       4.187430
6
t =    3805.000000
C       -0.565623      -0.387847      -1.573625
C        0.494686       0.271805       1.495284
H        2.330960       0.063763       0.954119
H        1.039179      -0.418739      -2.979801
H       -1.835416       1.584562      -1.227145
H       -0.686946       0.147262       4.188444
6
t =    3810.000000
C       -0.567144      -0.385323      -1.574017
C        0.493121       0.272215       1.491426
H        2.327369       0.048811       1.000189
H        1.060671      -0.420127      -2.972379
H       -1.853668       1.561907      -1.229255
H       -0.649842       0.151296       4.187682
6
t =    3815.000000
C       -0.568683      -0.382661      -1.574274
C        0.491450       0.272561       1.487558
H        2.324722       0.033785       1.046874
H        1.081801      -0.421467      -2.964586
H       -1.871738       1.538263      -1.232072
H       -0.612007       0.155455       4.185144
6
t =    3820.000000
C       -0.570235      -0.379866      -1.574394
C        0.489668       0.272848       1.483683
H        2.323084       0.018663       1.094114
H        1.102515      -0.422744      -2.956407
H       -1.889611       1.513659      -1.235590
H       -0.573495       0.159741       4.180832
6
t =    3825.000000
C       -0.571791      -0.376942      -1.574378
C        0.487771       0.273076       1.479804
H        2.322503       0.003424       1.141851
H        1.122759      -0.423942      -2.947831
H       -1.907276       1.488127      -1.239803
H       -0.534360       0.164153       4.174751
6
t =    3830.000000
C       -0.573346      -0.373894      -1.574225
C        0.485759       0.273248       1.475921
H        2.323014      -0.011949       1.190035
H        1.142483      -0.425048      -2.938850
H       -1.924723       1.461700      -1.244705
H       -0.494657       0.168693       4.166906
6
t =    3835.000000
C       -0.574891      -0.370726      -1.573933
C        0.483630       0.273364       1.472036
H        2.324632      -0.027469       1.238620
H        1.161637      -0.426047      -2.929460
H       -1.941946       1.434416      -1.250293
H       -0.454445       0.173362       4.157306
6
t =    3840.000000
C       -0.576420      -0.367442      -1.573500
C        0.481388       0.273426       1.468151
H        2.327351      -0.043147       1.287563
H        1.180172      -0.426929      -2.919657
H       -1.958939       1.406312      -1.256561
H       -0.413783       0.178163       4.145962
6
t =    3845.000000
C       -0.577926      -0.364048      -1.572926
C        0.479035       0.273434       1.464264
H        2.331146      -0.058987       1.336822
H        1.198044      -0.427683      -2.909440
H       -1.975700       1.377427      -1.263506
H       -0.372731       0.183099       4.132887
6
t =    3850.000000
C       -0.579402      -0.360546      -1.572208
C        0.476579       0.273388       1.460377
H        2.335971      -0.074991       1.386358
H        1.215209      -0.428299      -2.898811
H       -1.992232       1.347804      -1.271125
H       -0.331352       0.188173       4.118097
6
t =    3855.000000
C       -0.580841      -0.356942      -1.571345
C        0.474026       0.273287       1.456489
H        2.341764      -0.091154       1.436127
H        1.231627      -0.428769      -2.887772
H       -2.008538       1.317487      -1.279414
H       -0.289710       0.193387       4.101609
6
t =    3875.000000
C       -0.586158      -0.341551      -1.566421
C        0.462944       0.272330       1.440935
H        2.373791      -0.157313       1.637081
H        1.289446      -0.429125      -2.839559
H       -2.071601       1.189719      -1.319233
H       -0.121165       0.215696       4.018890
6
t =    3880.000000
C       -0.587308      -0.337507      -1.564805
C        0.460078       0.271936       1.437056
H        2.382933      -0.174052       1.687196
H        1.301614      -0.428787      -2.826563
H       -2.087008       1.156650      -1.330799
H       -0.079229       0.221687       3.994302
6
t =    3885.000000
C       -0.588380      -0.333391      -1.563034
C        0.457187       0.271479       1.433184
H        2.392417      -0.190848       1.737186
H        1.312841      -0.428276      -2.813199
H       -2.102298       1.123182      -1.343001
H       -0.037446       0.227849       3.968187
6
t =    3890.000000
C       -0.589366      -0.329208      -1.561106
C        0.454284       0.270956       1.429319
H        2.402133      -0.207678       1.786974
H        1.323103      -0.427591      -2.799478
H       -2.117504       1.089369      -1.355831
H        0.004109       0.234191       3.940587
6
t =    3895.000000
C       -0.590260      -0.324961      -1.559020
C        0.451382       0.270366       1.425464
H        2.411978      -0.224520       1.836477
H        1.332380      -0.426733      -2.785413
H       -2.132657       1.055263      -1.369281
H        0.045363       0.240718       3.911545
6
t =    3900.000000
C       -0.591055      -0.320657      -1.556774
C        0.448492       0.269706       1.421621
H        2.421852      -0.241350       1.885608
H        1.340652      -0.425700      -2.771015
H       -2.147798       1.020920      -1.383339
H        0.086240       0.247439       3.881111
6
t =    3905.000000
C       -0.591742      -0.316301      -1.554368
C        0.445626       0.268977       1.417791
H        2.431676      -0.258151       1.934282
H        1.347903      -0.424496      -2.756298
H       -2.162963       0.986389      -1.397996
H        0.126663       0.254363       3.849340
6
t =    3910.000000
C       -0.592316      -0.311898      -1.551800
C        0.442793       0.268175       1.413976
H        2.441377      -0.274905       1.982412
H        1.354120      -0.423122      -2.741276
H       -2.178193       0.951722      -1.413239
H        0.166559       0.261499       3.816290
6
t =    3915.000000
C       -0.592770      -0.307452      -1.549068
C        0.440002       0.267301       1.410176
H        2.450893      -0.291597       2.029915
H        1.359291      -0.421583      -2.725966
H       -2.193530       0.916965      -1.429057
H        0.205852       0.268856       3.782027
6
t =    3920.000000
C       -0.593096      -0.302968      -1.546172
C        0.437262       0.266353       1.406392
H        2.460175      -0.308215       2.076709
H        1.363409      -0.419883      -2.710383
H       -2.209014       0.882165      -1.445438
H        0.244468       0.276445       3.746623
6
t =    3925.000000
C       -0.593289      -0.298451      -1.543111
C        0.434579       0.265331       1.402623
H        2.469182      -0.324750       2.122716
H        1.366468      -0.418027      -2.694545
H       -2.224688       0.847364      -1.462370
H        0.282336       0.284277       3.710157
6
t =    3945.000000
C       -0.592667      -0.280083      -1.529196
C        0.424475       0.260502       1.387670
H        2.502203      -0.390003       2.298144
H        1.368092      -0.409123      -2.628828
H       -2.289657       0.708518      -1.535467
H        0.425634       0.318151       3.554531
6
t =    3965.000000
C       -0.589531      -0.261414      -1.512530
C        0.415548       0.254512       1.372587
H        2.530175      -0.453861       2.456126
H        1.353118      -0.398502      -2.560709
H       -2.359984       0.571903      -1.616290
H        0.551985       0.356943       3.390469
6
t =    3985.000000
C       -0.583861      -0.242497      -1.493053
C        0.407716       0.247403       1.356672
H        2.554589      -0.516552       2.594486
H        1.322906      -0.387296      -2.491916
H       -2.435211       0.437985      -1.703808
H        0.658823       0.401643       3.228477
6
t =    4005.000000
C       -0.575997      -0.223291      -1.470844
C        0.400813       0.239154       1.339045
H        2.577554      -0.577917       2.711378
H        1.279822      -0.377350      -2.424626
H       -2.512229       0.306629      -1.796599
H        0.744587       0.453845       3.082583
