               t           phase
   2850.00000000     -1.14037601
   2855.00000000     -4.52263510
   2860.00000000     -1.65946334
   2865.00000000     -5.11557856
   2870.00000000     -2.32251389
   2875.00000000     -5.84388242
   2880.00000000     -3.10939190
   2885.00000000     -0.39605814
   2890.00000000     -3.97716876
   2895.00000000     -1.27319264
   2900.00000000     -4.83709420
   2905.00000000     -2.09194025
   2910.00000000     -5.59735133
   2915.00000000     -2.78259919
   2935.00000000     -3.64101125
   2955.00000000     -3.76992444
   2975.00000000     -3.18774078
   2995.00000000     -2.04734064
   3015.00000000     -0.59000047
   3035.00000000     -5.34518678
   3055.00000000     -3.92598692
   3075.00000000     -2.70002834
   3095.00000000     -1.67004551
   3115.00000000     -0.77965739
   3135.00000000     -6.22093525
   3155.00000000     -5.32001753
   3175.00000000     -4.25698661
   3195.00000000     -2.94714745
   3215.00000000     -1.32863028
   3235.00000000     -5.64843809
   3255.00000000     -3.33330617
   3275.00000000     -0.69171372
   3295.00000000     -4.06508080
   3315.00000000     -0.97635003
   3335.00000000     -4.10391530
   3355.00000000     -0.98792929
   3375.00000000     -4.23746023
   3395.00000000     -1.22124598
   3415.00000000     -4.37000100
   3435.00000000     -1.02449473
   3455.00000000     -3.82175298
   3475.00000000     -0.44376115
   3495.00000000     -3.73760306
   3515.00000000     -1.20870624
   3535.00000000     -5.20230556
   3555.00000000     -2.85561409
   3575.00000000     -0.38149849
   3595.00000000     -4.29207165
   3615.00000000     -2.36817431
   3635.00000000     -1.16133949
   3655.00000000     -0.77730354
   3675.00000000     -1.15701266
   3695.00000000     -2.10341172
   3715.00000000     -3.31597293
   3735.00000000     -4.44039742
   3755.00000000     -5.13586470
   3775.00000000     -5.13917567
   3780.00000000     -1.87355559
   3785.00000000     -4.83510347
   3790.00000000     -1.45649412
   3795.00000000     -4.30342395
   3800.00000000     -0.80906035
   3805.00000000     -3.53953254
   3810.00000000     -6.21131759
   3815.00000000     -2.54098295
   3820.00000000     -5.09462045
   3825.00000000     -1.30554058
   3830.00000000     -3.73978309
   3835.00000000     -6.11388656
   3840.00000000     -2.14454498
   3845.00000000     -4.39828810
   3850.00000000     -0.30931740
   3855.00000000     -2.44511457
   3875.00000000     -4.21354377
   3880.00000000     -6.09892463
   3885.00000000     -1.66392244
   3890.00000000     -3.48042554
   3895.00000000     -5.27113878
   3900.00000000     -0.75873653
   3905.00000000     -2.51557234
   3910.00000000     -4.26426518
   3915.00000000     -6.01042506
   3920.00000000     -1.47616979
   3925.00000000     -3.23280999
   3945.00000000     -4.18545864
   3965.00000000     -5.56939982
   3985.00000000     -1.34994208
   4005.00000000     -4.32565840
