               t               1
   2850.00000000      0.00000000
   2855.00000000      0.00000000
   2860.00000000      0.00000000
   2865.00000000     -0.00477144
   2870.00000000     -0.00759107
   2875.00000000     -0.01246539
   2880.00000000     -0.02108739
   2885.00000000     -0.03466847
   2890.00000000     -0.04558734
   2895.00000000     -0.03924453
   2900.00000000     -0.02549172
   2905.00000000     -0.01576010
   2910.00000000     -0.01012589
   2915.00000000     -0.00683769
   2935.00000000      0.00000000
   2955.00000000      0.00000000
   2975.00000000      0.00000000
   2995.00000000      0.00000000
   3015.00000000      0.00000000
   3035.00000000      0.00000000
   3055.00000000      0.00000000
   3075.00000000      0.00000000
   3095.00000000      0.00000000
   3115.00000000      0.00000000
   3135.00000000      0.00000000
   3155.00000000      0.00000000
   3175.00000000      0.00000000
   3195.00000000      0.00000000
   3215.00000000      0.00000000
   3235.00000000      0.00000000
   3255.00000000      0.00000000
   3275.00000000      0.00000000
   3295.00000000      0.00000000
   3315.00000000      0.00000000
   3335.00000000      0.00000000
   3355.00000000      0.00000000
   3375.00000000      0.00000000
   3395.00000000      0.00000000
   3415.00000000      0.00000000
   3435.00000000      0.00000000
   3455.00000000      0.00000000
   3475.00000000      0.00000000
   3495.00000000      0.00000000
   3515.00000000      0.00000000
   3535.00000000      0.00000000
   3555.00000000      0.00000000
   3575.00000000      0.00000000
   3595.00000000      0.00000000
   3615.00000000      0.00000000
   3635.00000000      0.00000000
   3655.00000000      0.00000000
   3675.00000000      0.00000000
   3695.00000000      0.00000000
   3715.00000000      0.00000000
   3735.00000000      0.00000000
   3755.00000000      0.00000000
   3775.00000000      0.00000000
   3780.00000000      0.00000000
   3785.00000000      0.00000000
   3790.00000000      0.00000000
   3795.00000000      0.00000000
   3800.00000000      0.00000000
   3805.00000000      0.00000000
   3810.00000000      0.00000000
   3815.00000000      0.00000000
   3820.00000000      0.00000000
   3825.00000000      0.00000000
   3830.00000000      0.00000000
   3835.00000000      0.00000000
   3840.00000000      0.00000000
   3845.00000000      0.00000000
   3850.00000000      0.00000000
   3855.00000000      0.00000000
   3875.00000000      0.00000000
   3880.00000000      0.00000000
   3885.00000000      0.00000000
   3890.00000000      0.00000000
   3895.00000000      0.00000000
   3900.00000000      0.00000000
   3905.00000000      0.00000000
   3910.00000000      0.00000000
   3915.00000000      0.00000000
   3920.00000000      0.00000000
   3925.00000000      0.00000000
   3945.00000000      0.00000000
   3965.00000000      0.00000000
   3985.00000000      0.00000000
   4005.00000000      0.00000000
